\relax 
\citation{Kalman}
\citation{Chmielewski1996121}
\citation{CLQR}
\citation{Grieder2004701}
\citation{Chmielewski1996121}
\citation{CLQR}
\citation{Sznaier}
\citation{Grieder2004701}
\@writefile{toc}{\contentsline {section}{\numberline {I}Introduction}{1}}
\citation{parikh2014proximal}
\citation{book_comb}
\citation{AFBS_pock}
\citation{CLQR}
\citation{Sta_Kor_Jon_CLQR}
\citation{Tseng:1991}
\citation{Sta_Kor_Jon_CLQR}
\@writefile{toc}{\contentsline {section}{\numberline {II}Problem statement and dualization}{3}}
\newlabel{sec:intro}{{II}{3}}
\newlabel{mpc-initial_reg}{{1}{3}}
\newlabel{as:basic_reg}{{1}{3}}
\newlabel{operators}{{2}{3}}
\citation{bertsekas03}
\citation{book_comb}
\citation{Sta_Kor_Jon_CLQR}
\newlabel{eq:generic_pr}{{3}{4}}
\newlabel{def::l2_space}{{4}{4}}
\newlabel{eq:f_g_def}{{5}{4}}
\newlabel{app:dual}{{6}{4}}
\newlabel{eq:fstar}{{7}{4}}
\citation{book_comb}
\citation{book_comb}
\citation{AFBS_chambolle}
\citation{Polyak19641}
\citation{nest83}
\citation{Guler:1991:CPP:104219.104233}
\citation{fista}
\citation{AFBS_pock}
\newlabel{eq:generic_dual}{{8}{5}}
\@writefile{toc}{\contentsline {section}{\numberline {III}Solution using AFBS}{5}}
\newlabel{sec:afbs}{{III}{5}}
\citation{AFBS_chambolle}
\citation{nesterov2004introductory}
\@writefile{loa}{\contentsline {algorithm}{\numberline {1}{\ignorespaces AFBS for Problem (8\hbox {})}}{6}}
\newlabel{al:AFBS}{{1}{6}}
\newlabel{eq:L}{{9}{6}}
\newlabel{lem:grad}{{1}{6}}
\newlabel{eq:grad}{{9}{6}}
\newlabel{eq:Lmin}{{10}{6}}
\citation{cvxbook}
\newlabel{eq:Tk_update}{{11}{7}}
\newlabel{rem:sim}{{2}{7}}
\newlabel{rem:S}{{3}{7}}
\citation{fista}
\@writefile{loa}{\contentsline {algorithm}{\numberline {2}{\ignorespaces AFBS for the CLQR problem}}{8}}
\newlabel{al:AFBS_CLQR}{{2}{8}}
\newlabel{rem:stepize}{{4}{8}}
\newlabel{rem:termination}{{6}{8}}
\newlabel{eq:primalSequence}{{12}{8}}
\citation{AFBS_chambolle}
\citation{AFBS_chambolle}
\citation{beck2014fast}
\@writefile{toc}{\contentsline {section}{\numberline {IV}Convergence results}{9}}
\newlabel{sec:conv}{{IV}{9}}
\newlabel{theor:master}{{1}{9}}
\citation{cvxbook}
\newlabel{eq::fprime}{{13}{10}}
\newlabel{eq::Lagrange_strong_conv}{{14}{10}}
\newlabel{eq::Lagrange_strong_conv2}{{15}{10}}
\newlabel{eq::state_seq}{{17}{10}}
\citation{Sta_Kor_Jon_CLQR}
\newlabel{eq:limsupTbounded}{{18}{11}}
\@writefile{toc}{\contentsline {section}{\numberline {V}Computational aspects and warm-starting}{11}}
\newlabel{sec:lin_sys_solve}{{V}{11}}
\citation{fista}
\citation{fista}
\citation{soc}
\citation{frison_riccati}
\citation{cvxbook}
\citation{Axehill201237}
\citation{FrisonJ13}
\citation{FrisonJ13}
\@writefile{toc}{\contentsline {subsection}{\numberline {\unhbox \voidb@x \hbox {V-A}}Stepsize selection}{12}}
\newlabel{sec:stepsize}{{\unhbox \voidb@x \hbox {V-A}}{12}}
\@writefile{toc}{\contentsline {subsection}{\numberline {\unhbox \voidb@x \hbox {V-B}}Complexity}{12}}
\citation{fista}
\citation{fast_gradient}
\citation{ECC_14_short_survey}
\@writefile{toc}{\contentsline {subsection}{\numberline {\unhbox \voidb@x \hbox {V-C}}Warm-starting}{13}}
\@writefile{toc}{\contentsline {section}{\numberline {VI}Examples}{13}}
\newlabel{sec:examples}{{VI}{13}}
\@writefile{toc}{\contentsline {subsection}{\numberline {\unhbox \voidb@x \hbox {VI-A}}Toy system}{13}}
\@writefile{lof}{\contentsline {figure}{\numberline {1}{\ignorespaces \relax \fontsize  {10}{12pt}\selectfont  Histogram of $T^{\infty } = \qopname  \relax m{max}_{k}\{T^k\}$ for 750 initial conditions of the 2 state system sampled from a normal distribution around $(-3,0.3)$ with covariance matrix $\mathop {\bf  diag}(4,0.4)$.}}{14}}
\newlabel{fig:HTs_2states}{{1}{14}}
\citation{MPT3}
\citation{MPT3}
\@writefile{toc}{\contentsline {subsection}{\numberline {\unhbox \voidb@x \hbox {VI-B}}Quadcopter system}{15}}
\@writefile{lof}{\contentsline {figure}{\numberline {2}{\ignorespaces \relax \fontsize  {10}{12pt}\selectfont  Reachable sets for several horizon lengths and the LQ terminal set. The computation was done using the MPT3 toolbox\nobreakspace  {}\cite  {MPT3}. It is apparent that a short horizon length reduces significantly the feasible region of the problem.}}{16}}
\newlabel{fig:reach_sets}{{2}{16}}
\@writefile{lof}{\contentsline {figure}{\numberline {3}{\ignorespaces \relax \fontsize  {10}{12pt}\selectfont  Comparison of MPC with finite horizon length, for several horizons, with CLQR. The x-axis corresponds to the optimal horizon length $T^\star $ per initial condition. As $T^\star $ increases, the corresponding states are sampled further from the origin. MPC with terminal set is depicted with the solid lines, while without terminal set with dashed lines. CLQR is performed both with the weight sequence, denoted as $T_w^\infty $ CLQR (provably convergent version), and without the weights, denoted as $T^\infty $ CLQR.}}{16}}
\newlabel{fig:iters_MPC_CLQR}{{3}{16}}
\citation{vmfbs}
\@writefile{lof}{\contentsline {figure}{\numberline {4}{\ignorespaces \relax \fontsize  {10}{12pt}\selectfont  Evolution of the ratios $\frac  {T_{\qopname  \relax m{min}}}{T^\star }$, $\frac  {T_w^\infty }{T^\star }$ and $\frac  {T^\infty }{T^\star }$ for the sampled initial conditions.}}{17}}
\newlabel{fig:horzs_MPC_CLQR}{{4}{17}}
\@writefile{lof}{\contentsline {figure}{\numberline {5}{\ignorespaces \relax \fontsize  {10}{12pt}\selectfont  Histogram of $T^{\infty } = \qopname  \relax m{max}_{k}\{T^k\}$ for 272 initial conditions sampled with a Hit-And-Run algorithm.}}{17}}
\newlabel{fig:HTs_quad}{{5}{17}}
\@writefile{toc}{\contentsline {section}{\numberline {VII}Conclusion}{17}}
\@writefile{lof}{\contentsline {figure}{\numberline {6}{\ignorespaces \relax \fontsize  {10}{12pt}\selectfont  `Box $\&$ Whiskers' plot for the average number of iterations of the warm-starting policy, given $0.5\%$ and $1\%$ uniform perturbations of the initial state. The horizontal line inside the box corresponds to the median, the edges of the box are the $25^{\mathrm  {th}}$ and $75^{\mathrm  {th}}$ percentiles while the horizontal lines outside the boxes correspond to the most extreme data points not considered outliers. Finally, the colored dots correspond to mean values. One can observe that in the case of warm-starting the means are located outside the extreme points band, suggesting the existence of large outliers. However, warm-starting improves the performance of the suggested method in both cases, in all the depicted statistical measures.}}{18}}
\newlabel{fig::box_whiskers}{{6}{18}}
\@writefile{lof}{\contentsline {figure}{\numberline {7}{\ignorespaces \relax \fontsize  {10}{12pt}\selectfont  Hitting times evolution for 50 subsequent solves, warm-started at the previous (shifted) dual optimizer. Four different initial conditions are depicted with the solid lines. The linear rate is depicted (for comparison) with the blue triangles. Note that the horizon decreases almost linearly, resulting from the relatively small perturbations of the initial state. The case depicted in red corresponds to an outlier where the perturbed initial condition rendered the previously computed horizon an infeasible option, leading to an increase of its length.}}{18}}
\newlabel{fig:warm_horizon}{{7}{18}}
\citation{book_comb}
\citation{Eckstein}
\@writefile{toc}{\contentsline {section}{Appendix\nobreakspace  A: Required Operator Theory}{19}}
\newlabel{App.A}{{A}{19}}
\newlabel{def:wl2_hilbert_space}{{1}{19}}
\newlabel{def:boundedoper}{{2}{19}}
\newlabel{thm:adjoint}{{2}{19}}
\newlabel{def:weakconv1}{{3}{19}}
\citation{AFBS_chambolle}
\newlabel{def:strongconv}{{4}{20}}
\newlabel{def:posdef}{{5}{20}}
\newlabel{def:proximal}{{6}{20}}
\@writefile{toc}{\contentsline {section}{Appendix\nobreakspace  B: Convergence of the accelerated input-state sequences of Algorithm\nobreakspace  {}2\hbox {}}{20}}
\newlabel{App.B}{{B}{20}}
\newlabel{relaxed_dual_conv}{{3}{20}}
\newlabel{lem:convu}{{4}{20}}
\newlabel{lem:convx}{{5}{20}}
\@writefile{toc}{\contentsline {section}{Appendix\nobreakspace  C: Boundedness of several operators}{21}}
\newlabel{App.C}{{C}{21}}
\newlabel{lem:bounded_C}{{6}{21}}
\newlabel{App.C:toprove}{{19}{21}}
\newlabel{App.C::eq1}{{20}{21}}
\citation{Antoulas}
\citation{AFBS_chambolle}
\citation{fista}
\citation{fista}
\newlabel{lem:bounded_Hinv}{{7}{22}}
\@writefile{toc}{\contentsline {section}{Appendix\nobreakspace  D: Backtracking stepsize rule}{22}}
\newlabel{App.D}{{D}{22}}
\newlabel{App::majorizer}{{21}{22}}
\citation{fista}
\citation{fista}
\citation{AFBS_chambolle}
\citation{AFBS_chambolle}
\citation{AFBS_chambolle}
\newlabel{App::optimizer}{{22}{23}}
\newlabel{lem:2_3_Teboulle}{{8}{23}}
\@writefile{loa}{\contentsline {algorithm}{\numberline {3}{\ignorespaces Backtracking for stepsize computation}}{23}}
\newlabel{al:Backtracking}{{3}{23}}
\newlabel{lem:1_Chambolle}{{9}{23}}
\newlabel{lem::back_conv}{{10}{23}}
\citation{AFBS_chambolle}
\bibstyle{IEEEtran}
\bibdata{IEEEabrv,tac_biblio}
\bibcite{Kalman}{1}
\bibcite{Chmielewski1996121}{2}
\bibcite{CLQR}{3}
\bibcite{Grieder2004701}{4}
\bibcite{Sznaier}{5}
\bibcite{parikh2014proximal}{6}
\bibcite{book_comb}{7}
\bibcite{AFBS_pock}{8}
\bibcite{Sta_Kor_Jon_CLQR}{9}
\bibcite{Tseng:1991}{10}
\bibcite{bertsekas03}{11}
\bibcite{AFBS_chambolle}{12}
\bibcite{Polyak19641}{13}
\bibcite{nest83}{14}
\bibcite{Guler:1991:CPP:104219.104233}{15}
\bibcite{fista}{16}
\bibcite{nesterov2004introductory}{17}
\bibcite{cvxbook}{18}
\bibcite{beck2014fast}{19}
\bibcite{soc}{20}
\bibcite{frison_riccati}{21}
\@writefile{toc}{\contentsline {section}{References}{24}}
\bibcite{Axehill201237}{22}
\bibcite{FrisonJ13}{23}
\bibcite{fast_gradient}{24}
\bibcite{ECC_14_short_survey}{25}
\bibcite{MPT3}{26}
\bibcite{vmfbs}{27}
\bibcite{Eckstein}{28}
\bibcite{Antoulas}{29}
