# Fdb version 3
["pdflatex"] 1464015494 "ReviewersAnswersII.tex" "ReviewersAnswersII.pdf" "ReviewersAnswersII" 1464015495
  "/usr/local/texlive/2013/texmf-dist/fonts/enc/dvips/cm-super/cm-super-t1.enc" 1136849721 2971 def0b6c1f0b107b3b936def894055589 ""
  "/usr/local/texlive/2013/texmf-dist/fonts/map/fontname/texfonts.map" 1272929888 3287 e6b82fe08f5336d4d5ebc73fb1152e87 ""
  "/usr/local/texlive/2013/texmf-dist/fonts/tfm/jknappen/ec/ecrm1095.tfm" 1136768653 3584 929cdff2b7a8c11bd4d49fd68cb0ae70 ""
  "/usr/local/texlive/2013/texmf-dist/fonts/tfm/public/amsfonts/cmextra/cmex7.tfm" 1246382020 1004 54797486969f23fa377b128694d548df ""
  "/usr/local/texlive/2013/texmf-dist/fonts/tfm/public/cm/cmex10.tfm" 1136768653 992 662f679a0b3d2d53c1b94050fdaa3f50 ""
  "/usr/local/texlive/2013/texmf-dist/fonts/tfm/public/cm/cmr10.tfm" 1136768653 1296 45809c5a464d5f32c8f98ba97c1bb47f ""
  "/usr/local/texlive/2013/texmf-dist/fonts/tfm/public/cmbright/cmbr10.tfm" 1136768653 1304 95ad082f6791446dc43df559d5c79878 ""
  "/usr/local/texlive/2013/texmf-dist/fonts/tfm/public/cmbright/cmbr8.tfm" 1136768653 1304 6f575d26e34fea6311d7ae3e9a5bf8d0 ""
  "/usr/local/texlive/2013/texmf-dist/fonts/tfm/public/cmbright/cmbras10.tfm" 1136768653 848 1ad7f1561396ccf4a79d2f57e14bf3a9 ""
  "/usr/local/texlive/2013/texmf-dist/fonts/tfm/public/cmbright/cmbras8.tfm" 1136768653 852 e8c0fa95ccb34adce23fd4bfeb3ad1f7 ""
  "/usr/local/texlive/2013/texmf-dist/fonts/tfm/public/cmbright/cmbrbs10.tfm" 1136768653 864 3f66cf976f631b314058c4c72d2f1cba ""
  "/usr/local/texlive/2013/texmf-dist/fonts/tfm/public/cmbright/cmbrbs8.tfm" 1136768653 896 8688b0d2a6e462508cc566e10c5d6eb8 ""
  "/usr/local/texlive/2013/texmf-dist/fonts/tfm/public/cmbright/cmbrmi10.tfm" 1136768653 1544 20b33e3c0f9b0012adb04ac9d418afaa ""
  "/usr/local/texlive/2013/texmf-dist/fonts/tfm/public/cmbright/cmbrmi8.tfm" 1136768653 1536 e5dc1fc92eaa02a077dfd8f5bb78f6ce ""
  "/usr/local/texlive/2013/texmf-dist/fonts/tfm/public/cmbright/cmbrsy10.tfm" 1136768653 1124 00df9b89c9eb5dfe10f722aab27b3560 ""
  "/usr/local/texlive/2013/texmf-dist/fonts/tfm/public/cmbright/cmbrsy8.tfm" 1136768653 1120 90e1ff57236ed6769cdb8e6d58469358 ""
  "/usr/local/texlive/2013/texmf-dist/fonts/tfm/public/cmbright/ebbx10.tfm" 1136768653 3132 c7da076fe28db5529270d35c3089c073 ""
  "/usr/local/texlive/2013/texmf-dist/fonts/tfm/public/cmbright/ebmo10.tfm" 1136768653 3308 6bcb8c98687be31c71b9425c854eae13 ""
  "/usr/local/texlive/2013/texmf-dist/fonts/tfm/public/cmbright/ebmr10.tfm" 1136768653 3092 5e77de0b5834ec014abfb4fbde93bc09 ""
  "/usr/local/texlive/2013/texmf-dist/fonts/tfm/public/rsfs/rsfs10.tfm" 1229303445 688 37338d6ab346c2f1466b29e195316aa4 ""
  "/usr/local/texlive/2013/texmf-dist/fonts/tfm/public/rsfs/rsfs7.tfm" 1229303445 692 1b6510779f0f05e9cbf03e0f6c8361e6 ""
  "/usr/local/texlive/2013/texmf-dist/fonts/type1/public/cm-super/sfbbx10.pfb" 1215737283 96423 72b4aa9fd7b8d50def0f15cf61c62655 ""
  "/usr/local/texlive/2013/texmf-dist/fonts/type1/public/cm-super/sfbmo10.pfb" 1215737283 99823 751429c47edf4a7fddc95e89caf22748 ""
  "/usr/local/texlive/2013/texmf-dist/fonts/type1/public/cm-super/sfbmr10.pfb" 1215737283 93900 a2f71b17e4843e705710af210010eac4 ""
  "/usr/local/texlive/2013/texmf-dist/tex/context/base/supp-pdf.mkii" 1337017135 71627 94eb9990bed73c364d7f53f960cc8c5b ""
  "/usr/local/texlive/2013/texmf-dist/tex/generic/ifxetex/ifxetex.sty" 1284331290 1458 43ab4710dc82f3edeabecd0d099626b2 ""
  "/usr/local/texlive/2013/texmf-dist/tex/generic/oberdiek/gettitlestring.sty" 1303254447 8237 52810bdb4db2270e717422560a104aea ""
  "/usr/local/texlive/2013/texmf-dist/tex/generic/oberdiek/hobsub-generic.sty" 1338332114 189108 8b3553a56c83ff61acecb36b75d817e2 ""
  "/usr/local/texlive/2013/texmf-dist/tex/generic/oberdiek/hobsub-hyperref.sty" 1338332114 70752 45fa392800e07da61fa13446ad46b34d ""
  "/usr/local/texlive/2013/texmf-dist/tex/generic/oberdiek/infwarerr.sty" 1335995445 8253 3bdedc8409aa5d290a2339be6f09af03 ""
  "/usr/local/texlive/2013/texmf-dist/tex/generic/oberdiek/ltxcmds.sty" 1335995445 18425 775b341047ce304520cc7c11ca41392e ""
  "/usr/local/texlive/2013/texmf-dist/tex/generic/pgf/basiclayer/pgfcore.code.tex" 1288312291 1006 b103be0bfc8c1682ff1fa9760697a329 ""
  "/usr/local/texlive/2013/texmf-dist/tex/generic/pgf/basiclayer/pgfcorearrows.code.tex" 1288312291 17851 c112f6fe3b1889f91d54568be38c934d ""
  "/usr/local/texlive/2013/texmf-dist/tex/generic/pgf/basiclayer/pgfcoreexternal.code.tex" 1288312291 17756 ee5bc7b20f746062c721d3fb3561530d ""
  "/usr/local/texlive/2013/texmf-dist/tex/generic/pgf/basiclayer/pgfcoregraphicstate.code.tex" 1288312291 5784 795b041ac60be7a46c83610345e459cb ""
  "/usr/local/texlive/2013/texmf-dist/tex/generic/pgf/basiclayer/pgfcoreimage.code.tex" 1288312291 7101 668c6a35cbea2ae302bbff4c62370bbd ""
  "/usr/local/texlive/2013/texmf-dist/tex/generic/pgf/basiclayer/pgfcorelayers.code.tex" 1288312291 2995 7ef0769105aad1182125ada52b0cbaa6 ""
  "/usr/local/texlive/2013/texmf-dist/tex/generic/pgf/basiclayer/pgfcoreobjects.code.tex" 1203877327 2631 7eefa6cdbefd8d4e2bad7262cf1094cd ""
  "/usr/local/texlive/2013/texmf-dist/tex/generic/pgf/basiclayer/pgfcorepathconstruct.code.tex" 1288312291 43868 70ba8731b9094652f05c653fd1011379 ""
  "/usr/local/texlive/2013/texmf-dist/tex/generic/pgf/basiclayer/pgfcorepathprocessing.code.tex" 1288312291 14189 bb3d2e0069dd43b25211385d7cac9d2c ""
  "/usr/local/texlive/2013/texmf-dist/tex/generic/pgf/basiclayer/pgfcorepathusage.code.tex" 1288312291 7725 917b5feaf8acae1fd979a8564eaf989c ""
  "/usr/local/texlive/2013/texmf-dist/tex/generic/pgf/basiclayer/pgfcorepatterns.code.tex" 1288312291 9518 b56e94efcd163a86f7e645fed6165055 ""
  "/usr/local/texlive/2013/texmf-dist/tex/generic/pgf/basiclayer/pgfcorepoints.code.tex" 1288312291 32491 d736244a6b667da89812f9b71e53016f ""
  "/usr/local/texlive/2013/texmf-dist/tex/generic/pgf/basiclayer/pgfcorequick.code.tex" 1288312291 3052 e5672c657232fd63b0a9853b0746297c ""
  "/usr/local/texlive/2013/texmf-dist/tex/generic/pgf/basiclayer/pgfcorescopes.code.tex" 1288312291 15994 10d20fb800ca222911f363d456007171 ""
  "/usr/local/texlive/2013/texmf-dist/tex/generic/pgf/basiclayer/pgfcoreshade.code.tex" 1288312291 21374 d2661129e65955d45fb741c95bb78d7a ""
  "/usr/local/texlive/2013/texmf-dist/tex/generic/pgf/basiclayer/pgfcoretransformations.code.tex" 1288312291 16741 1d0bcd33afcd45b27dceb8fd40f9b4e5 ""
  "/usr/local/texlive/2013/texmf-dist/tex/generic/pgf/basiclayer/pgfcoretransparency.code.tex" 1203727794 6577 2d95347b651f18f98fead9415f300f4a ""
  "/usr/local/texlive/2013/texmf-dist/tex/generic/pgf/frontendlayer/tikz/libraries/tikzlibrarydecorations.code.tex" 1288312291 5421 9d01acf78e91fee342e0625c21643297 ""
  "/usr/local/texlive/2013/texmf-dist/tex/generic/pgf/frontendlayer/tikz/libraries/tikzlibrarydecorations.pathmorphing.code.tex" 1203727794 319 d246cee5ce1aaf2afe558acd4731d5ba ""
  "/usr/local/texlive/2013/texmf-dist/tex/generic/pgf/frontendlayer/tikz/libraries/tikzlibrarydecorations.pathreplacing.code.tex" 1288312291 1255 7940bad47e253420d587a4a875c7c06c ""
  "/usr/local/texlive/2013/texmf-dist/tex/generic/pgf/frontendlayer/tikz/libraries/tikzlibraryplotmarks.code.tex" 1203727794 443 6742ac279d940e87725265f9145ed090 ""
  "/usr/local/texlive/2013/texmf-dist/tex/generic/pgf/frontendlayer/tikz/libraries/tikzlibrarytopaths.code.tex" 1288312291 11599 d694704a88e2f9007c996d3a6a4d629c ""
  "/usr/local/texlive/2013/texmf-dist/tex/generic/pgf/frontendlayer/tikz/tikz.code.tex" 1288312291 141845 db379d46f557a21d1a89b87a59bd9c88 ""
  "/usr/local/texlive/2013/texmf-dist/tex/generic/pgf/libraries/decorations/pgflibrarydecorations.pathmorphing.code.tex" 1288312291 8854 7be3c3b9eb0de90885a881085ce8e118 ""
  "/usr/local/texlive/2013/texmf-dist/tex/generic/pgf/libraries/decorations/pgflibrarydecorations.pathreplacing.code.tex" 1288312291 7089 02ec01183269fb6991e0be82d034128a ""
  "/usr/local/texlive/2013/texmf-dist/tex/generic/pgf/libraries/pgflibraryplothandlers.code.tex" 1288312291 30458 cb99d585a0cb84cc8870d0c59953a396 ""
  "/usr/local/texlive/2013/texmf-dist/tex/generic/pgf/libraries/pgflibraryplotmarks.code.tex" 1288312291 14145 82f0df568da726911999c108e0cf7f22 ""
  "/usr/local/texlive/2013/texmf-dist/tex/generic/pgf/math/pgfmath.code.tex" 1288312291 378 6ef5723aad20c1a3d29639e179a42dd6 ""
  "/usr/local/texlive/2013/texmf-dist/tex/generic/pgf/math/pgfmathcalc.code.tex" 1288312291 13312 f9d89166b99ea7e00e77858fe0194db1 ""
  "/usr/local/texlive/2013/texmf-dist/tex/generic/pgf/math/pgfmathfloat.code.tex" 1288312291 83664 208cb30de41494880aa77fffb3a1ccda ""
  "/usr/local/texlive/2013/texmf-dist/tex/generic/pgf/math/pgfmathfunctions.base.code.tex" 1288312291 8606 58f348f09f02ad9c20b10c1005bd9663 ""
  "/usr/local/texlive/2013/texmf-dist/tex/generic/pgf/math/pgfmathfunctions.basic.code.tex" 1288312291 19855 ed1993a13913c58cb372b1d66f20ea17 ""
  "/usr/local/texlive/2013/texmf-dist/tex/generic/pgf/math/pgfmathfunctions.code.tex" 1288312291 7724 738eefe8218f0e08dd2c317adbca7db5 ""
  "/usr/local/texlive/2013/texmf-dist/tex/generic/pgf/math/pgfmathfunctions.comparison.code.tex" 1288312291 3534 c7f28fbac13616513e513efe93b8569b ""
  "/usr/local/texlive/2013/texmf-dist/tex/generic/pgf/math/pgfmathfunctions.misc.code.tex" 1288312291 8574 010fc7ab92ca16c2da0f097ae7066b0d ""
  "/usr/local/texlive/2013/texmf-dist/tex/generic/pgf/math/pgfmathfunctions.random.code.tex" 1288312291 6964 d4b5e82dabddda1c728063bb9c8a22ba ""
  "/usr/local/texlive/2013/texmf-dist/tex/generic/pgf/math/pgfmathfunctions.round.code.tex" 1288312291 2688 139c6abc86761a6190c2f4bef5d752be ""
  "/usr/local/texlive/2013/texmf-dist/tex/generic/pgf/math/pgfmathfunctions.trigonometric.code.tex" 1288312291 86620 8a979a1502115110f3469c7579238489 ""
  "/usr/local/texlive/2013/texmf-dist/tex/generic/pgf/math/pgfmathparser.code.tex" 1288312291 27428 c613a3d1b703431360c8ef5579d00d85 ""
  "/usr/local/texlive/2013/texmf-dist/tex/generic/pgf/math/pgfmathutil.code.tex" 1288312291 7107 704b307dcd1ea898b650a4d17fe53fbe ""
  "/usr/local/texlive/2013/texmf-dist/tex/generic/pgf/modules/pgfmoduledecorations.code.tex" 1288312291 69920 33cbaeaff7d4eb3687bb3569bad984c4 ""
  "/usr/local/texlive/2013/texmf-dist/tex/generic/pgf/modules/pgfmodulematrix.code.tex" 1288312291 20561 36e4cfc08771b8946e4669f1caa099d3 ""
  "/usr/local/texlive/2013/texmf-dist/tex/generic/pgf/modules/pgfmoduleplot.code.tex" 1288312291 10369 a8edc63c9a6be08baf6e4c402df10590 ""
  "/usr/local/texlive/2013/texmf-dist/tex/generic/pgf/modules/pgfmoduleshapes.code.tex" 1288312291 38030 dfa64639c84226b6d8ea0a34ae778755 ""
  "/usr/local/texlive/2013/texmf-dist/tex/generic/pgf/systemlayer/pgf.cfg" 1288312291 978 15af626ebd3d4d790aac19170dac04f2 ""
  "/usr/local/texlive/2013/texmf-dist/tex/generic/pgf/systemlayer/pgfsys-common-pdf.def" 1288312291 3630 7c64370dc4387995125f5b825096be23 ""
  "/usr/local/texlive/2013/texmf-dist/tex/generic/pgf/systemlayer/pgfsys-pdftex.def" 1288312291 12510 e20a03f54abbfc8914dba322a7a3dba7 ""
  "/usr/local/texlive/2013/texmf-dist/tex/generic/pgf/systemlayer/pgfsys.code.tex" 1288312291 32236 3923b93ea40b486a68f35dd7558f335c ""
  "/usr/local/texlive/2013/texmf-dist/tex/generic/pgf/systemlayer/pgfsysprotocol.code.tex" 1203877327 1983 b5994ebbcee17f1ba3d29bb1bd696fcf ""
  "/usr/local/texlive/2013/texmf-dist/tex/generic/pgf/systemlayer/pgfsyssoftpath.code.tex" 1288312291 7677 2eb6cc84c604878c08c9d943bbbc6e32 ""
  "/usr/local/texlive/2013/texmf-dist/tex/generic/pgf/utilities/pgffor.code.tex" 1288312291 21943 6710bea9dc92856d36a3dd219c3fdb8b ""
  "/usr/local/texlive/2013/texmf-dist/tex/generic/pgf/utilities/pgfkeys.code.tex" 1288312291 32925 ac47add413403603a8d3c47e035bd76c ""
  "/usr/local/texlive/2013/texmf-dist/tex/generic/pgf/utilities/pgfkeysfiltered.code.tex" 1288312291 33372 15f61ab79cad6ae1941b5caee584016a ""
  "/usr/local/texlive/2013/texmf-dist/tex/generic/pgf/utilities/pgfrcs.code.tex" 1288312291 2320 086533930e1dade214bdcd74a189c5a5 ""
  "/usr/local/texlive/2013/texmf-dist/tex/generic/pgf/utilities/pgfutil-common.tex" 1288312291 13382 a0507b5422f675ba8588f019a2f8b68e ""
  "/usr/local/texlive/2013/texmf-dist/tex/generic/pgf/utilities/pgfutil-latex.def" 1288312291 2771 d32e3f533abf44397dd690e41e934cdc ""
  "/usr/local/texlive/2013/texmf-dist/tex/generic/pgfplots/libs/pgflibrarypgfplots.surfshading.code.tex" 1364427911 22559 76257f115d85b663d7d24acad1c08d07 ""
  "/usr/local/texlive/2013/texmf-dist/tex/generic/pgfplots/libs/pgfplotslibrary.code.tex" 1312159636 1928 06e1c78fe84d8d5e39a3cc2e35fcad83 ""
  "/usr/local/texlive/2013/texmf-dist/tex/generic/pgfplots/liststructure/pgfplotsarray.code.tex" 1312159636 21786 2b041bb5736e1a953aa34c45c10b82b4 ""
  "/usr/local/texlive/2013/texmf-dist/tex/generic/pgfplots/liststructure/pgfplotsdeque.code.tex" 1262481251 4288 b8d6247899b21e3bb66bb11b24d30f2c ""
  "/usr/local/texlive/2013/texmf-dist/tex/generic/pgfplots/liststructure/pgfplotsliststructure.code.tex" 1346285630 13625 52a72232796269a1b40ae1540446ef98 ""
  "/usr/local/texlive/2013/texmf-dist/tex/generic/pgfplots/liststructure/pgfplotsliststructureext.code.tex" 1312159636 24390 a91050077f9411f2aef1d9170ea974df ""
  "/usr/local/texlive/2013/texmf-dist/tex/generic/pgfplots/liststructure/pgfplotsmatrix.code.tex" 1364427911 18861 7dc35832c8ccea3aa73cdcd75ec0a60b ""
  "/usr/local/texlive/2013/texmf-dist/tex/generic/pgfplots/numtable/pgfplotstableshared.code.tex" 1364427911 72858 4ca2779fceec4123c8c6eb9340d1b585 ""
  "/usr/local/texlive/2013/texmf-dist/tex/generic/pgfplots/oldpgfcompatib/pgfplotsoldpgfsupp_loader.code.tex" 1364427911 2270 ba511397c6b6dcd52231a6ec8f7c7f8c ""
  "/usr/local/texlive/2013/texmf-dist/tex/generic/pgfplots/oldpgfcompatib/pgfplotsoldpgfsupp_misc.code.tex" 1364427911 24537 a04f8db0676f2982d6a80547ca643b1d ""
  "/usr/local/texlive/2013/texmf-dist/tex/generic/pgfplots/oldpgfcompatib/pgfplotsoldpgfsupp_pgfcorelayers.code.tex" 1364427911 5192 0b3c455be6acb0833464fbb730de442f ""
  "/usr/local/texlive/2013/texmf-dist/tex/generic/pgfplots/oldpgfcompatib/pgfplotsoldpgfsupp_pgfcorescopes.code.tex" 1364427911 17016 c60ef065199cd94e49e9b938e51a27a7 ""
  "/usr/local/texlive/2013/texmf-dist/tex/generic/pgfplots/oldpgfcompatib/pgfplotsoldpgfsupp_pgfkeys.code.tex" 1364427911 34665 8611834e498e5749a32e18fa4f698e8a ""
  "/usr/local/texlive/2013/texmf-dist/tex/generic/pgfplots/oldpgfcompatib/pgfplotsoldpgfsupp_pgfkeysfiltered.code.tex" 1364427911 34107 5868f465b165eba4ce1d325f8fd0ea9c ""
  "/usr/local/texlive/2013/texmf-dist/tex/generic/pgfplots/oldpgfcompatib/pgfplotsoldpgfsupp_pgflibraryfpu.code.tex" 1364427911 66403 15ef78b787057f4543adac257a064d24 ""
  "/usr/local/texlive/2013/texmf-dist/tex/generic/pgfplots/oldpgfcompatib/pgfplotsoldpgfsupp_pgflibraryplothandlers.code.tex" 1364427911 34264 58ca4e8d4d4b4da678378eb9812261fb ""
  "/usr/local/texlive/2013/texmf-dist/tex/generic/pgfplots/oldpgfcompatib/pgfplotsoldpgfsupp_pgfmathfloat.code.tex" 1364427911 92614 bf30eb7384beee13656c606d1e9cc211 ""
  "/usr/local/texlive/2013/texmf-dist/tex/generic/pgfplots/pgfplots.code.tex" 1364427911 407914 6cdfb9155360c210d84182b16a414291 ""
  "/usr/local/texlive/2013/texmf-dist/tex/generic/pgfplots/pgfplots.paths.code.tex" 1325285919 2419 026baafbf72a109e199ede6fbbfd9caa ""
  "/usr/local/texlive/2013/texmf-dist/tex/generic/pgfplots/pgfplots.revision.tex" 1364427911 525 cb43564a6f461c9dae487057c1884f07 ""
  "/usr/local/texlive/2013/texmf-dist/tex/generic/pgfplots/pgfplots.scaling.code.tex" 1364427911 122249 adfd9c1708abaa970f51a1192eb5653e ""
  "/usr/local/texlive/2013/texmf-dist/tex/generic/pgfplots/pgfplotscoordprocessing.code.tex" 1364427911 332837 d47a94342ae31d361db20ecbeceaca5a ""
  "/usr/local/texlive/2013/texmf-dist/tex/generic/pgfplots/pgfplotscore.code.tex" 1364427911 14310 84836d4b4272b92399cbe4e6435753ac ""
  "/usr/local/texlive/2013/texmf-dist/tex/generic/pgfplots/pgfplotsmeshplothandler.code.tex" 1364427911 111359 b5f3d0a3883e5e66e8ac471da3b7ae1c ""
  "/usr/local/texlive/2013/texmf-dist/tex/generic/pgfplots/pgfplotsplothandlers.code.tex" 1364427911 109098 2dc5d44fe708db7fea9bda0461b06134 ""
  "/usr/local/texlive/2013/texmf-dist/tex/generic/pgfplots/pgfplotsstackedplots.code.tex" 1364427911 22463 4f7aa59cab4cbbcfc05f5ad852b01638 ""
  "/usr/local/texlive/2013/texmf-dist/tex/generic/pgfplots/pgfplotsticks.code.tex" 1364427911 80738 80e0b023780dee7950d03c4c6315fa75 ""
  "/usr/local/texlive/2013/texmf-dist/tex/generic/pgfplots/sys/pgflibrarypgfplots.surfshading.pgfsys-pdftex.def" 1364427911 5877 aa302309c1cdddc36dd3a00cbd806cfe ""
  "/usr/local/texlive/2013/texmf-dist/tex/generic/pgfplots/sys/pgfplotssysgeneric.code.tex" 1351287374 3095 c82d281b748902a65be2ccca97360b11 ""
  "/usr/local/texlive/2013/texmf-dist/tex/generic/pgfplots/util/pgfplotsbinary.code.tex" 1364427911 23037 0e68210028e245369f3ebe765debc69b ""
  "/usr/local/texlive/2013/texmf-dist/tex/generic/pgfplots/util/pgfplotsbinary.data.code.tex" 1346285630 26859 7a4ee9d206fb0a0daa0d3108445afb57 ""
  "/usr/local/texlive/2013/texmf-dist/tex/generic/pgfplots/util/pgfplotscolor.code.tex" 1364427911 23605 4b545a37c6bc9a0c58b77a2bdb500f69 ""
  "/usr/local/texlive/2013/texmf-dist/tex/generic/pgfplots/util/pgfplotscolormap.code.tex" 1364427911 27949 1ac752c27494d96655387a8bfc4fb0e2 ""
  "/usr/local/texlive/2013/texmf-dist/tex/generic/pgfplots/util/pgfplotsutil.code.tex" 1364427911 64305 ae8cbe7691ee8b2e8c8432d74f42c67b ""
  "/usr/local/texlive/2013/texmf-dist/tex/generic/pgfplots/util/pgfplotsutil.verb.code.tex" 1312159636 3286 c17079ba50483e1ac1721268ea016041 ""
  "/usr/local/texlive/2013/texmf-dist/tex/latex/algorithmicx/algorithmicx.sty" 1160617237 26750 ce139c05a983e19ddca355b43e29c395 ""
  "/usr/local/texlive/2013/texmf-dist/tex/latex/algorithmicx/algpseudocode.sty" 1160617237 3457 d9077efe6b74c5a094199256af8d7d9a ""
  "/usr/local/texlive/2013/texmf-dist/tex/latex/algorithms/algorithm.sty" 1251330371 3249 15763257e50278eef5db1952ccde229c ""
  "/usr/local/texlive/2013/texmf-dist/tex/latex/amsfonts/amsfonts.sty" 1359763108 5949 3f3fd50a8cc94c3d4cbf4fc66cd3df1c ""
  "/usr/local/texlive/2013/texmf-dist/tex/latex/amsfonts/amssymb.sty" 1359763108 13829 94730e64147574077f8ecfea9bb69af4 ""
  "/usr/local/texlive/2013/texmf-dist/tex/latex/amsmath/amsbsy.sty" 1362954379 2412 2d98314dc5be38f455f8890deeb2d091 ""
  "/usr/local/texlive/2013/texmf-dist/tex/latex/amsmath/amsgen.sty" 1362954379 4357 ad30ad08920902fc9b38caf35a3b0496 ""
  "/usr/local/texlive/2013/texmf-dist/tex/latex/amsmath/amsmath.sty" 1362954379 79178 b2e326c351e876df0e5e23df2e02441b ""
  "/usr/local/texlive/2013/texmf-dist/tex/latex/amsmath/amsopn.sty" 1362954379 4082 502152465aedb8f6a3c4b0b7c0fa8ae5 ""
  "/usr/local/texlive/2013/texmf-dist/tex/latex/amsmath/amstext.sty" 1362954379 2637 846ebe982d3549c7ede7ce135456f54a ""
  "/usr/local/texlive/2013/texmf-dist/tex/latex/base/fontenc.sty" 1254151887 4435 b97063eb2f20be499e7725926af85c55 ""
  "/usr/local/texlive/2013/texmf-dist/tex/latex/base/ifthen.sty" 1254151887 5022 2ec7815b07dc68e65542e23a180bc839 ""
  "/usr/local/texlive/2013/texmf-dist/tex/latex/base/t1enc.def" 1254151887 9172 67c33288b50eb57eab968f345e8befb0 ""
  "/usr/local/texlive/2013/texmf-dist/tex/latex/bezos/accents.sty" 1287181805 6919 4d8e953be6e2c3cc4cc3d9942a582fd2 ""
  "/usr/local/texlive/2013/texmf-dist/tex/latex/caption/caption.sty" 1368312746 65148 c61accbd2b9a5316d9be0887ec48d722 ""
  "/usr/local/texlive/2013/texmf-dist/tex/latex/caption/caption3.sty" 1368312746 62748 b02c0dc118f5f35146d37cec569e83b1 ""
  "/usr/local/texlive/2013/texmf-dist/tex/latex/caption/subcaption.sty" 1360019375 4351 ee16013c18d101f9ecb20e53efde17b4 ""
  "/usr/local/texlive/2013/texmf-dist/tex/latex/cmbright/cmbright.sty" 1295311441 5449 577672f71e72b506039e93617e342780 ""
  "/usr/local/texlive/2013/texmf-dist/tex/latex/cmbright/omlcmbrm.fd" 1295311441 971 fc3ca0f473ef3ba42b92ded9deeea11e ""
  "/usr/local/texlive/2013/texmf-dist/tex/latex/cmbright/omscmbrs.fd" 1295311441 913 6f5c8d9c0442a5f4c6fb1114c7c0abd9 ""
  "/usr/local/texlive/2013/texmf-dist/tex/latex/cmbright/ot1cmbr.fd" 1295311441 1208 84b694fa6094d71e1e1e5ed3bfc3ae34 ""
  "/usr/local/texlive/2013/texmf-dist/tex/latex/cmbright/t1cmbr.fd" 1295311441 1420 e16ecc50f76a6f8364829e3426ced567 ""
  "/usr/local/texlive/2013/texmf-dist/tex/latex/fancyhdr/fancyhdr.sty" 1160175134 20521 e5d13d98d57bd53d4fed3aa61bd29c86 ""
  "/usr/local/texlive/2013/texmf-dist/tex/latex/float/float.sty" 1137110151 6749 16d2656a1984957e674b149555f1ea1d ""
  "/usr/local/texlive/2013/texmf-dist/tex/latex/graphics/color.sty" 1156702488 6406 6f55214ce374a5b186b8781f4796f1f9 ""
  "/usr/local/texlive/2013/texmf-dist/tex/latex/graphics/graphics.sty" 1254151804 14183 42a8fc761b806986eef292369afc2988 ""
  "/usr/local/texlive/2013/texmf-dist/tex/latex/graphics/graphicx.sty" 1156702488 7882 3bd78469d444e8d494e27cfd7ca92719 ""
  "/usr/local/texlive/2013/texmf-dist/tex/latex/graphics/keyval.sty" 1156702488 2266 7054435e4584a41cf53b0a7ca624d0cb ""
  "/usr/local/texlive/2013/texmf-dist/tex/latex/graphics/trig.sty" 1156702488 3153 c50e6bd54d2dd3933fc52bcf369bec4a ""
  "/usr/local/texlive/2013/texmf-dist/tex/latex/hyperref/hpdftex.def" 1352416072 51837 247bd8424b3835ef78c236dc1e0b4aef ""
  "/usr/local/texlive/2013/texmf-dist/tex/latex/hyperref/hyperref.sty" 1352416072 231792 5fc9dc7dd667e773a766ecc63bba7f4b ""
  "/usr/local/texlive/2013/texmf-dist/tex/latex/hyperref/nameref.sty" 1351899753 12847 25b617d63258c4f72870c883493a3cf8 ""
  "/usr/local/texlive/2013/texmf-dist/tex/latex/hyperref/pd1enc.def" 1352416072 14005 155ac8fad2e5dd7c2cdd130fabd96633 ""
  "/usr/local/texlive/2013/texmf-dist/tex/latex/jknapltx/mathrsfs.sty" 1137110241 300 12fa6f636b617656f2810ee82cb05015 ""
  "/usr/local/texlive/2013/texmf-dist/tex/latex/jknapltx/ursfs.fd" 1137110241 548 cc4e3557704bfed27c7002773fad6c90 ""
  "/usr/local/texlive/2013/texmf-dist/tex/latex/koma-script/scrartcl.cls" 1343688052 106474 7f06b40fedbef8c4ed2bde858c785cf3 ""
  "/usr/local/texlive/2013/texmf-dist/tex/latex/koma-script/scrbase.sty" 1343688052 27136 ac42cbaa4ede00fc8c2863056f1dcdb4 ""
  "/usr/local/texlive/2013/texmf-dist/tex/latex/koma-script/scrkbase.sty" 1343688052 12006 1c57cd5bc6062f154af1261d4de745ca ""
  "/usr/local/texlive/2013/texmf-dist/tex/latex/koma-script/scrlfile.sty" 1343488661 12492 c400f596684b3ca2a983df662121f8a7 ""
  "/usr/local/texlive/2013/texmf-dist/tex/latex/koma-script/scrsize11pt.clo" 1343688052 6103 4e753d96e6e3b720309972c59b8bebc7 ""
  "/usr/local/texlive/2013/texmf-dist/tex/latex/koma-script/tocbasic.sty" 1337209970 22069 4c40ce7c06c12a7113018f191a260d53 ""
  "/usr/local/texlive/2013/texmf-dist/tex/latex/koma-script/typearea.sty" 1343688052 37561 568730de83d69d6834315d4390e3cbc2 ""
  "/usr/local/texlive/2013/texmf-dist/tex/latex/latexconfig/color.cfg" 1254097189 802 7b8c8d72c24d795ed7720e4dfd29bff3 ""
  "/usr/local/texlive/2013/texmf-dist/tex/latex/latexconfig/epstopdf-sys.cfg" 1279039959 678 4792914a8f45be57bb98413425e4c7af ""
  "/usr/local/texlive/2013/texmf-dist/tex/latex/latexconfig/graphics.cfg" 1278958963 3563 d35e897cae3b8c6848f6677b73370b54 ""
  "/usr/local/texlive/2013/texmf-dist/tex/latex/latexconfig/hyperref.cfg" 1254097189 235 6031e5765137be07eed51a510b2b8fb7 ""
  "/usr/local/texlive/2013/texmf-dist/tex/latex/microtype/microtype-pdftex.def" 1369617620 48788 102de9fe36ddc0fb46fd6734b1f3e8fb ""
  "/usr/local/texlive/2013/texmf-dist/tex/latex/microtype/microtype.cfg" 1369617620 23086 f25ab3218b2c6f172ac44dbf381961e1 ""
  "/usr/local/texlive/2013/texmf-dist/tex/latex/microtype/microtype.sty" 1369617620 68045 fe140a1fc105016163d67aadd9efe194 ""
  "/usr/local/texlive/2013/texmf-dist/tex/latex/microtype/mt-msa.cfg" 1369617620 5894 a699e762642ac16b337d6067aaf54745 ""
  "/usr/local/texlive/2013/texmf-dist/tex/latex/microtype/mt-msb.cfg" 1369617620 5559 1c6d4ff49366e01a7e25eb35b4526685 ""
  "/usr/local/texlive/2013/texmf-dist/tex/latex/ms/everyshi.sty" 1177890616 3878 6aa7c08ff2621006e0603349e40a30a8 ""
  "/usr/local/texlive/2013/texmf-dist/tex/latex/multirow/multirow.sty" 1137110401 7374 f7c1f13fc632dd5c9b220a247d233082 ""
  "/usr/local/texlive/2013/texmf-dist/tex/latex/nomencl/nomencl.sty" 1137110445 6973 f8ea974f22cadd19e9ac5f7bc181f3a8 ""
  "/usr/local/texlive/2013/texmf-dist/tex/latex/oberdiek/auxhook.sty" 1303254447 3834 707ef09f31d7d2ea47ba89974755dfe0 ""
  "/usr/local/texlive/2013/texmf-dist/tex/latex/oberdiek/epstopdf-base.sty" 1303254447 12029 04d7fdf76e0464c23b5aa3a727952d7c ""
  "/usr/local/texlive/2013/texmf-dist/tex/latex/oberdiek/grfext.sty" 1335995445 7075 bd0c34fbf1ae8fd1debd2a554e41b2d5 ""
  "/usr/local/texlive/2013/texmf-dist/tex/latex/oberdiek/kvoptions.sty" 1335995445 22417 c74ff4af6a1aa2b65d1924020edbbe11 ""
  "/usr/local/texlive/2013/texmf-dist/tex/latex/oberdiek/rerunfilecheck.sty" 1303254447 9581 1158efc648bc09d5064db5703c882159 ""
  "/usr/local/texlive/2013/texmf-dist/tex/latex/pdftex-def/pdftex.def" 1306616590 55368 3c8a0d99822330f2dfabc0dfb09ce897 ""
  "/usr/local/texlive/2013/texmf-dist/tex/latex/pgf/basiclayer/pgf.sty" 1203877327 1190 7fc0a2dca176dcabef03fed7aa3e5e7e ""
  "/usr/local/texlive/2013/texmf-dist/tex/latex/pgf/basiclayer/pgfcore.sty" 1288312291 410 5bf12ea7330e5f12c445332a4fe9a263 ""
  "/usr/local/texlive/2013/texmf-dist/tex/latex/pgf/compatibility/pgfcomp-version-0-65.sty" 1203877327 21115 facf03b7dbe5ea2f5f1dce1ac84b5d05 ""
  "/usr/local/texlive/2013/texmf-dist/tex/latex/pgf/compatibility/pgfcomp-version-1-18.sty" 1203727794 1091 d9163d29def82ee90370c8a63667742c ""
  "/usr/local/texlive/2013/texmf-dist/tex/latex/pgf/frontendlayer/tikz.sty" 1203877327 339 592cf35cba3d400082b8a9a5d0199d70 ""
  "/usr/local/texlive/2013/texmf-dist/tex/latex/pgf/systemlayer/pgfsys.sty" 1203877327 362 4d082b7c595b2ffec199f5351c4303c9 ""
  "/usr/local/texlive/2013/texmf-dist/tex/latex/pgf/utilities/pgffor.sty" 1288312291 323 c1a2c1d11990f32ace1f893aa7fee540 ""
  "/usr/local/texlive/2013/texmf-dist/tex/latex/pgf/utilities/pgfkeys.sty" 1203727794 274 4cad6e665cc93ac2ac979039a94fa1e1 ""
  "/usr/local/texlive/2013/texmf-dist/tex/latex/pgf/utilities/pgfrcs.sty" 1203877327 325 2bcd023400636339210573e2b3ee298b ""
  "/usr/local/texlive/2013/texmf-dist/tex/latex/pgfplots/pgfplots.sty" 1351287374 1730 258fb87fcdf468badd280f7bc7498e32 ""
  "/usr/local/texlive/2013/texmf-dist/tex/latex/sectsty/sectsty.sty" 1137110779 22423 d476012cd03f82f9475ad54ba6cd3267 ""
  "/usr/local/texlive/2013/texmf-dist/tex/latex/tools/verbatim.sty" 1312409015 7125 6b8323deb5c5c3a19b248762654143eb ""
  "/usr/local/texlive/2013/texmf-dist/tex/latex/url/url.sty" 1264379145 21932 e3a9cf32ee9b853b42be14c2f25b873c ""
  "/usr/local/texlive/2013/texmf-dist/tex/latex/xcolor/xcolor.sty" 1169481954 55224 a43bab84e0ac5e6efcaf9a98bde73a94 ""
  "/usr/local/texlive/2013/texmf-dist/web2c/texmf.cnf" 1366045088 31707 0953c15448e216a6585e92ee639d2dc2 ""
  "/usr/local/texlive/2013/texmf-var/fonts/map/pdftex/updmap/pdftex.map" 1369923225 1072746 3ce1f23f203cb4a0015ca3c8411dee4a ""
  "/usr/local/texlive/2013/texmf-var/web2c/pdftex/pdflatex.fmt" 1383141579 3827030 df73f0042a191675cde198a72225867f ""
  "/usr/local/texlive/2013/texmf.cnf" 1369923207 577 cbc827f6294276973a1952e86e8ad73a ""
  "ReviewersAnswersII.aux" 1464015495 945 c92ff604b364e64156d52fd52d1d40f2 ""
  "ReviewersAnswersII.out" 1464015495 177 3d60e4284e9bf47ae212d1801729a4d4 ""
  "ReviewersAnswersII.tex" 1464015487 4615 1454da269efec71e2d17996e2610a2c7 ""
  (generated)
  "ReviewersAnswersII.pdf"
  "ReviewersAnswersII.out"
  "ReviewersAnswersII.aux"
  "ReviewersAnswersII.log"
