\relax 
\bibstyle{ifacconf}
\citation{Kalman}
\citation{CLQR}
\citation{Sznaier}
\citation{Combettes:survey}
\citation{Boyd:admm}
\citation{esser}
\citation{Tseng:1991}
\citation{CLQR}
\newlabel{footnoteinfo}{{\hbox {$\star $}\relax }{1}}
\newlabel{First}{{*\relax }{1}}
\newlabel{Second}{{**\relax }{1}}
\newlabel{Third}{{*** \relax }{1}}
\global\@namedef{n@author@}{3}
\global\@namedef{n@collab@}{0}
\@writefile{toc}{\contentsline {section}{\numberline {1}Introduction}{1}}
\citation{Tseng:1991}
\citation{Bruck}
\citation{Passty}
\citation{book_comb}
\@writefile{toc}{\contentsline {section}{\numberline {2}Problem statement and an operator splitting approach}{2}}
\newlabel{sec:intro}{{2}{2}}
\@writefile{toc}{\contentsline {subsection}{\numberline {2.1}Formulation of the problem}{2}}
\newlabel{mpc-initial}{{1}{2}}
\newlabel{mpc-split1}{{2}{2}}
\newlabel{prob:P}{{3}{2}}
\@writefile{loa}{\contentsline {algorithm}{\numberline {1}{\ignorespaces AMA for Problem (3\hbox {}).}}{2}}
\newlabel{al:AMA}{{1}{2}}
\citation{soc}
\@writefile{toc}{\contentsline {section}{\numberline {3}A finite dimensional representation}{3}}
\newlabel{alg:mpc-split2:1}{{6}{3}}
\newlabel{alg:mpc-split2:2}{{7}{3}}
\newlabel{alg:mpc-split2:3}{{8}{3}}
\@writefile{toc}{\contentsline {paragraph}{\numberline {3.0.0.1}Invariant set and hitting time.}{3}}
\newlabel{eq:uncon_LQR}{{9}{3}}
\newlabel{eq:hittingT}{{10}{3}}
\newlabel{eq:maxhittingT}{{11}{3}}
\@writefile{toc}{\contentsline {paragraph}{\numberline {3.0.0.2}Terminal cost.}{3}}
\citation{cvxbook}
\citation{cvxbook}
\citation{book_comb}
\citation{Eckstein}
\citation{EE364b}
\citation{esser}
\newlabel{eq:MPC_iterate_k}{{12}{4}}
\@writefile{toc}{\contentsline {subsection}{\numberline {3.1}The algorithm}{4}}
\@writefile{loa}{\contentsline {algorithm}{\numberline {2}{\ignorespaces AMA for the constrained LQR}}{4}}
\newlabel{al:AMA_CLQR}{{2}{4}}
\@writefile{toc}{\contentsline {section}{\numberline {4}Computational aspects}{4}}
\newlabel{sec:lin_sys_solve}{{4}{4}}
\newlabel{eq:kkt}{{13}{4}}
\@writefile{toc}{\contentsline {section}{\numberline {5}Convergence results}{4}}
\newlabel{sec:conv}{{5}{4}}
\citation{attouch08}
\citation{svaiter}
\citation{moradifam}
\citation{Tseng:1991}
\citation{fadmm}
\citation{nest83}
\citation{nestbook}
\citation{fista}
\citation{guler}
\citation{fista}
\citation{fadmm}
\@writefile{toc}{\contentsline {subsection}{\numberline {5.1}Convergence of AMA}{5}}
\newlabel{ours:strong1}{{1}{5}}
\@writefile{toc}{\contentsline {subsection}{\numberline {5.2}Convergence of Algorithm 2\hbox {} to a finite horizon length}{5}}
\newlabel{theor:ours:finiteT}{{2}{5}}
\newlabel{eq:limsupTbounded}{{14}{5}}
\@writefile{toc}{\contentsline {subsection}{\numberline {5.3}Nominal stability of the resulting controller}{5}}
\@writefile{toc}{\contentsline {section}{\numberline {6}Acceleration}{5}}
\newlabel{sec:acceleration}{{6}{5}}
\citation{adarestart}
\@writefile{loa}{\contentsline {algorithm}{\numberline {3}{\ignorespaces FAMA for Problem (3\hbox {}).}}{6}}
\newlabel{al:FAMA}{{3}{6}}
\@writefile{toc}{\contentsline {section}{\numberline {7}Examples}{6}}
\newlabel{sec:examples}{{7}{6}}
\@writefile{toc}{\contentsline {subsection}{\numberline {7.1}Two states, one input system}{6}}
\@writefile{lof}{\contentsline {figure}{\numberline {1}{\ignorespaces Maximum hitting time $T^{\infty }_{\qopname  \relax m{max}}$ for 862 initial conditions sampled uniformly around $(1,-2)$ with standard deviation 0.5.}}{6}}
\newlabel{fig:HTs_2states}{{1}{6}}
\@writefile{toc}{\contentsline {subsection}{\numberline {7.2}Quadcopter system}{6}}
\citation{EE364b}
\citation{book_comb}
\citation{book_comb}
\@writefile{lof}{\contentsline {figure}{\numberline {2}{\ignorespaces Number of iterations needed for convergence for 862 problems. The mean value of iterations is depicted in red.}}{7}}
\newlabel{fig:ITERs_2states}{{2}{7}}
\@writefile{toc}{\contentsline {section}{\numberline {8}Appendix I}{7}}
\newlabel{sec:appendix1}{{8}{7}}
\@writefile{toc}{\contentsline {subsection}{\numberline {8.1}Monotone Operators}{7}}
\@writefile{lof}{\contentsline {figure}{\numberline {3}{\ignorespaces Speedup when using FAMA for solving the same problems, depicted as the ratio $\frac  {No.Iter(AMA)}{No.Iter(FAMA)}$. Mean value depicted in red.}}{7}}
\newlabel{fig:speedup_2states}{{3}{7}}
\newlabel{def:monotoneop}{{1}{7}}
\newlabel{def:maxmonotoneop}{{2}{7}}
\newlabel{def:boundedoper}{{3}{7}}
\citation{book_comb}
\citation{B-H}
\citation{book_comb}
\@writefile{lof}{\contentsline {figure}{\numberline {4}{\ignorespaces Maximum hitting time $T^{\infty }_{\qopname  \relax m{max}}$ for 64 initial conditions sampled uniformly around the origin with standard deviation 0.5.}}{8}}
\newlabel{fig:HTs_quad}{{4}{8}}
\newlabel{def:adjoint}{{4}{8}}
\newlabel{def:resolvent}{{5}{8}}
\newlabel{def:weakconv1}{{6}{8}}
\newlabel{def:strongconv}{{7}{8}}
\@writefile{lof}{\contentsline {figure}{\numberline {5}{\ignorespaces Convergence of the maximum hitting time sequence to $T^{\infty }_{\mathrm  {max}}=43$.}}{8}}
\newlabel{fig:Tinfconv}{{5}{8}}
\newlabel{thm:B-H}{{4}{8}}
\newlabel{eq:primal}{{{P}}{8}}
\newlabel{eq:dual}{{{D}}{8}}
\@writefile{toc}{\contentsline {subsection}{\numberline {8.2}FBS and AMA}{8}}
\newlabel{theor:FBS_conv}{{5}{8}}
\citation{bertsekas03}
\newlabel{prop:AMA_conv}{{6}{9}}
\@writefile{toc}{\contentsline {subsection}{\numberline {8.3}Proof of Theorem 1\hbox {}}{9}}
\@writefile{toc}{\contentsline {section}{\numberline {9}Appendix II}{9}}
\newlabel{sec:appendix2}{{9}{9}}
\@writefile{toc}{\contentsline {subsection}{\numberline {9.1}Derivation of ({D}\hbox {})}{9}}
\newlabel{app:dual}{{9.1}{9}}
\newlabel{app:dual}{{15}{9}}
\@writefile{toc}{\contentsline {subsection}{\numberline {9.2}Proof of Proposition 6\hbox {}}{9}}
\newlabel{app:fbs_ama}{{9.2}{9}}
\newlabel{app:operators}{{16}{9}}
\newlabel{opt_cond_ama_z}{{18}{9}}
\newlabel{opt_cond_ama_sigma}{{19}{9}}
\newlabel{eq:FBS_iterate}{{20}{9}}
\bibdata{ifac_biblio}
\bibcite{attouch08}{{1}{2008}{{Attouch and Soueycatt}}{{}}}
\bibcite{B-H}{{2}{1977}{{Baillon and Haddad}}{{}}}
\bibcite{book_comb}{{3}{2011}{{Bauschke and Combettes}}{{}}}
\bibcite{fista}{{4}{2009}{{Beck and Teboulle}}{{}}}
\bibcite{bertsekas03}{{5}{2003}{{Bertsekas et~al.}}{{Bertsekas, Nedi\'{c}, and Ozdaglar}}}
\bibcite{EE364b}{{6}{}{{Boyd and Parikh}}{{}}}
\bibcite{Boyd:admm}{{7}{2011}{{Boyd et~al.}}{{Boyd, Parikh, Chu, Peleato, and Eckstein}}}
\bibcite{cvxbook}{{8}{2004}{{Boyd and Vandenberghe}}{{}}}
\bibcite{Bruck}{{9}{1977}{{Bruck}}{{}}}
\bibcite{Combettes:survey}{{10}{2009}{{Combettes and Pesquet}}{{}}}
\bibcite{Eckstein}{{11}{1992}{{Eckstein and Bertsekas}}{{}}}
\bibcite{esser}{{12}{2010}{{Esser}}{{}}}
\bibcite{fadmm}{{13}{2012}{{Goldstein et~al.}}{{Goldstein, O'Donoghue, and Setzer}}}
\bibcite{guler}{{14}{1992}{{Guler}}{{}}}
\bibcite{Kalman}{{15}{1960}{{Kalman}}{{}}}
\bibcite{moradifam}{{16}{}{{Moradifam and Nachman}}{{}}}
\bibcite{nest83}{{17}{1983}{{Nesterov}}{{}}}
\bibcite{nestbook}{{18}{2004}{{Nesterov}}{{}}}
\bibcite{adarestart}{{19}{2012}{{O'Donoghue and Candes}}{{}}}
\bibcite{soc}{{20}{2012}{{O'Donoghue et~al.}}{{O'Donoghue, Stathopoulos, and Boyd}}}
\bibcite{Passty}{{21}{1977}{{Passty}}{{}}}
\bibcite{CLQR}{{22}{1998}{{Scokaert and Rawlings}}{{}}}
\bibcite{svaiter}{{23}{2011}{{Svaiter}}{{}}}
\bibcite{Sznaier}{{24}{1987}{{Sznaier and Damborg}}{{}}}
\bibcite{Tseng:1991}{{25}{1991}{{Tseng}}{{}}}
\@writefile{toc}{\contentsline {subsection}{\numberline {9.3}Convergence of the $\left (\mathcal  {A}\mathbf  {z}^k\right )_{k\in \mathbb  {N}}$ sequence}{10}}
\@writefile{toc}{\contentsline {section}{\numberline {10}Conclusion}{10}}
\@writefile{toc}{\vspace {6pt}}
\@writefile{toc}{\contentsline {section}{Acknowledgements}{10}}
\global\c@lastpage=10
\global\NAT@numbersfalse
