PWD /Users/georgios/Documents/Research/CLQR_via_FBS/docs/Final Submission
INPUT /usr/local/texlive/2013/texmf.cnf
INPUT /usr/local/texlive/2013/texmf-dist/web2c/texmf.cnf
INPUT /usr/local/texlive/2013/texmf-var/web2c/pdftex/pdflatex.fmt
INPUT CLQR_Final.tex
OUTPUT CLQR_Final.log
INPUT IEEEtran.cls
INPUT IEEEtran.cls
INPUT /usr/local/texlive/2013/texmf-dist/tex/latex/psnfss/ot1ptm.fd
INPUT /usr/local/texlive/2013/texmf-dist/tex/latex/psnfss/ot1ptm.fd
INPUT /usr/local/texlive/2013/texmf-dist/fonts/map/fontname/texfonts.map
INPUT /usr/local/texlive/2013/texmf-dist/fonts/map/fontname/texfonts.map
INPUT /usr/local/texlive/2013/texmf-dist/fonts/tfm/adobe/times/ptmr7t.tfm
INPUT /usr/local/texlive/2013/texmf-dist/fonts/tfm/adobe/times/ptmr7t.tfm
INPUT /usr/local/texlive/2013/texmf-dist/fonts/tfm/adobe/times/ptmb7t.tfm
INPUT /usr/local/texlive/2013/texmf-dist/fonts/tfm/adobe/times/ptmri7t.tfm
INPUT /usr/local/texlive/2013/texmf-dist/fonts/tfm/adobe/times/ptmbi7t.tfm
INPUT /usr/local/texlive/2013/texmf-dist/fonts/tfm/adobe/times/ptmr7t.tfm
INPUT /usr/local/texlive/2013/texmf-dist/fonts/tfm/adobe/times/ptmb7t.tfm
INPUT /usr/local/texlive/2013/texmf-dist/fonts/tfm/adobe/times/ptmri7t.tfm
INPUT /usr/local/texlive/2013/texmf-dist/fonts/tfm/adobe/times/ptmbi7t.tfm
INPUT /usr/local/texlive/2013/texmf-dist/fonts/tfm/adobe/times/ptmr7t.tfm
INPUT /usr/local/texlive/2013/texmf-dist/fonts/tfm/adobe/times/ptmb7t.tfm
INPUT /usr/local/texlive/2013/texmf-dist/fonts/tfm/adobe/times/ptmri7t.tfm
INPUT /usr/local/texlive/2013/texmf-dist/fonts/tfm/adobe/times/ptmbi7t.tfm
INPUT /usr/local/texlive/2013/texmf-dist/fonts/tfm/adobe/times/ptmr7t.tfm
INPUT /usr/local/texlive/2013/texmf-dist/fonts/tfm/adobe/times/ptmb7t.tfm
INPUT /usr/local/texlive/2013/texmf-dist/fonts/tfm/adobe/times/ptmri7t.tfm
INPUT /usr/local/texlive/2013/texmf-dist/fonts/tfm/adobe/times/ptmbi7t.tfm
INPUT /usr/local/texlive/2013/texmf-dist/fonts/tfm/adobe/times/ptmb7t.tfm
INPUT /usr/local/texlive/2013/texmf-dist/fonts/tfm/adobe/times/ptmri7t.tfm
INPUT /usr/local/texlive/2013/texmf-dist/fonts/tfm/adobe/times/ptmbi7t.tfm
INPUT /usr/local/texlive/2013/texmf-dist/fonts/tfm/adobe/times/ptmr7t.tfm
INPUT /usr/local/texlive/2013/texmf-dist/fonts/tfm/adobe/times/ptmb7t.tfm
INPUT /usr/local/texlive/2013/texmf-dist/fonts/tfm/adobe/times/ptmri7t.tfm
INPUT /usr/local/texlive/2013/texmf-dist/fonts/tfm/adobe/times/ptmbi7t.tfm
INPUT /usr/local/texlive/2013/texmf-dist/fonts/tfm/adobe/times/ptmr7t.tfm
INPUT /usr/local/texlive/2013/texmf-dist/fonts/tfm/adobe/times/ptmb7t.tfm
INPUT /usr/local/texlive/2013/texmf-dist/fonts/tfm/adobe/times/ptmri7t.tfm
INPUT /usr/local/texlive/2013/texmf-dist/fonts/tfm/adobe/times/ptmbi7t.tfm
INPUT /usr/local/texlive/2013/texmf-dist/fonts/tfm/adobe/times/ptmr7t.tfm
INPUT /usr/local/texlive/2013/texmf-dist/fonts/tfm/adobe/times/ptmb7t.tfm
INPUT /usr/local/texlive/2013/texmf-dist/fonts/tfm/adobe/times/ptmri7t.tfm
INPUT /usr/local/texlive/2013/texmf-dist/fonts/tfm/adobe/times/ptmbi7t.tfm
INPUT /usr/local/texlive/2013/texmf-dist/fonts/tfm/adobe/times/ptmr7t.tfm
INPUT /usr/local/texlive/2013/texmf-dist/fonts/tfm/adobe/times/ptmb7t.tfm
INPUT /usr/local/texlive/2013/texmf-dist/fonts/tfm/adobe/times/ptmri7t.tfm
INPUT /usr/local/texlive/2013/texmf-dist/fonts/tfm/adobe/times/ptmbi7t.tfm
INPUT /usr/local/texlive/2013/texmf-dist/fonts/tfm/adobe/times/ptmr7t.tfm
INPUT /usr/local/texlive/2013/texmf-dist/fonts/tfm/adobe/times/ptmb7t.tfm
INPUT /usr/local/texlive/2013/texmf-dist/fonts/tfm/adobe/times/ptmri7t.tfm
INPUT /usr/local/texlive/2013/texmf-dist/fonts/tfm/adobe/times/ptmbi7t.tfm
INPUT /usr/local/texlive/2013/texmf-dist/tex/latex/graphics/graphicx.sty
INPUT /usr/local/texlive/2013/texmf-dist/tex/latex/graphics/graphicx.sty
INPUT /usr/local/texlive/2013/texmf-dist/tex/latex/graphics/keyval.sty
INPUT /usr/local/texlive/2013/texmf-dist/tex/latex/graphics/keyval.sty
INPUT /usr/local/texlive/2013/texmf-dist/tex/latex/graphics/graphics.sty
INPUT /usr/local/texlive/2013/texmf-dist/tex/latex/graphics/graphics.sty
INPUT /usr/local/texlive/2013/texmf-dist/tex/latex/graphics/trig.sty
INPUT /usr/local/texlive/2013/texmf-dist/tex/latex/graphics/trig.sty
INPUT /usr/local/texlive/2013/texmf-dist/tex/latex/latexconfig/graphics.cfg
INPUT /usr/local/texlive/2013/texmf-dist/tex/latex/latexconfig/graphics.cfg
INPUT /usr/local/texlive/2013/texmf-dist/tex/latex/pdftex-def/pdftex.def
INPUT /usr/local/texlive/2013/texmf-dist/tex/latex/pdftex-def/pdftex.def
INPUT /usr/local/texlive/2013/texmf-dist/tex/generic/oberdiek/infwarerr.sty
INPUT /usr/local/texlive/2013/texmf-dist/tex/generic/oberdiek/infwarerr.sty
INPUT /usr/local/texlive/2013/texmf-dist/tex/generic/oberdiek/ltxcmds.sty
INPUT /usr/local/texlive/2013/texmf-dist/tex/generic/oberdiek/ltxcmds.sty
INPUT /usr/local/texlive/2013/texmf-dist/tex/latex/mh/mathtools.sty
INPUT /usr/local/texlive/2013/texmf-dist/tex/latex/mh/mathtools.sty
INPUT /usr/local/texlive/2013/texmf-dist/tex/latex/tools/calc.sty
INPUT /usr/local/texlive/2013/texmf-dist/tex/latex/tools/calc.sty
INPUT /usr/local/texlive/2013/texmf-dist/tex/latex/mh/mhsetup.sty
INPUT /usr/local/texlive/2013/texmf-dist/tex/latex/mh/mhsetup.sty
INPUT /usr/local/texlive/2013/texmf-dist/tex/latex/amsmath/amsmath.sty
INPUT /usr/local/texlive/2013/texmf-dist/tex/latex/amsmath/amsmath.sty
INPUT /usr/local/texlive/2013/texmf-dist/tex/latex/amsmath/amstext.sty
INPUT /usr/local/texlive/2013/texmf-dist/tex/latex/amsmath/amstext.sty
INPUT /usr/local/texlive/2013/texmf-dist/tex/latex/amsmath/amsgen.sty
INPUT /usr/local/texlive/2013/texmf-dist/tex/latex/amsmath/amsgen.sty
INPUT /usr/local/texlive/2013/texmf-dist/tex/latex/amsmath/amsbsy.sty
INPUT /usr/local/texlive/2013/texmf-dist/tex/latex/amsmath/amsbsy.sty
INPUT /usr/local/texlive/2013/texmf-dist/tex/latex/amsmath/amsopn.sty
INPUT /usr/local/texlive/2013/texmf-dist/tex/latex/amsmath/amsopn.sty
INPUT /usr/local/texlive/2013/texmf-dist/tex/latex/tools/verbatim.sty
INPUT /usr/local/texlive/2013/texmf-dist/tex/latex/tools/verbatim.sty
INPUT /usr/local/texlive/2013/texmf-dist/tex/latex/tools/tabularx.sty
INPUT /usr/local/texlive/2013/texmf-dist/tex/latex/tools/tabularx.sty
INPUT /usr/local/texlive/2013/texmf-dist/tex/latex/tools/array.sty
INPUT /usr/local/texlive/2013/texmf-dist/tex/latex/tools/array.sty
INPUT /usr/local/texlive/2013/texmf-dist/tex/latex/amsfonts/amsfonts.sty
INPUT /usr/local/texlive/2013/texmf-dist/tex/latex/amsfonts/amsfonts.sty
INPUT /usr/local/texlive/2013/texmf-dist/tex/latex/amsfonts/amssymb.sty
INPUT /usr/local/texlive/2013/texmf-dist/tex/latex/amsfonts/amssymb.sty
INPUT /usr/local/texlive/2013/texmf-dist/tex/latex/algorithms/algorithm.sty
INPUT /usr/local/texlive/2013/texmf-dist/tex/latex/algorithms/algorithm.sty
INPUT /usr/local/texlive/2013/texmf-dist/tex/latex/float/float.sty
INPUT /usr/local/texlive/2013/texmf-dist/tex/latex/float/float.sty
INPUT /usr/local/texlive/2013/texmf-dist/tex/latex/base/ifthen.sty
INPUT /usr/local/texlive/2013/texmf-dist/tex/latex/base/ifthen.sty
INPUT /usr/local/texlive/2013/texmf-dist/tex/latex/algorithms/algorithmic.sty
INPUT /usr/local/texlive/2013/texmf-dist/tex/latex/algorithms/algorithmic.sty
INPUT /usr/local/texlive/2013/texmf-dist/tex/latex/tools/enumerate.sty
INPUT /usr/local/texlive/2013/texmf-dist/tex/latex/tools/enumerate.sty
INPUT /usr/local/texlive/2013/texmf-dist/tex/latex/enumitem/enumitem.sty
INPUT /usr/local/texlive/2013/texmf-dist/tex/latex/enumitem/enumitem.sty
INPUT /usr/local/texlive/2013/texmf-dist/tex/latex/graphics/color.sty
INPUT /usr/local/texlive/2013/texmf-dist/tex/latex/graphics/color.sty
INPUT /usr/local/texlive/2013/texmf-dist/tex/latex/latexconfig/color.cfg
INPUT /usr/local/texlive/2013/texmf-dist/tex/latex/latexconfig/color.cfg
INPUT /usr/local/texlive/2013/texmf-dist/tex/latex/base/latexsym.sty
INPUT /usr/local/texlive/2013/texmf-dist/tex/latex/base/latexsym.sty
INPUT /usr/local/texlive/2013/texmf-dist/tex/latex/cite/cite.sty
INPUT /usr/local/texlive/2013/texmf-dist/tex/latex/cite/cite.sty
INPUT /usr/local/texlive/2013/texmf-dist/tex/latex/xcolor/xcolor.sty
INPUT /usr/local/texlive/2013/texmf-dist/tex/latex/xcolor/xcolor.sty
INPUT /usr/local/texlive/2013/texmf-dist/tex/latex/latexconfig/color.cfg
INPUT /usr/local/texlive/2013/texmf-dist/tex/latex/latexconfig/color.cfg
INPUT /usr/local/texlive/2013/texmf-dist/tex/latex/graphics/dvipsnam.def
INPUT /usr/local/texlive/2013/texmf-dist/tex/latex/graphics/dvipsnam.def
INPUT CLQR_Final.aux
INPUT CLQR_Final.aux
OUTPUT CLQR_Final.aux
INPUT /usr/local/texlive/2013/texmf-dist/tex/context/base/supp-pdf.mkii
INPUT /usr/local/texlive/2013/texmf-dist/tex/context/base/supp-pdf.mkii
INPUT /usr/local/texlive/2013/texmf-dist/tex/generic/oberdiek/pdftexcmds.sty
INPUT /usr/local/texlive/2013/texmf-dist/tex/generic/oberdiek/pdftexcmds.sty
INPUT /usr/local/texlive/2013/texmf-dist/tex/generic/oberdiek/ifluatex.sty
INPUT /usr/local/texlive/2013/texmf-dist/tex/generic/oberdiek/ifluatex.sty
INPUT /usr/local/texlive/2013/texmf-dist/tex/generic/oberdiek/ifpdf.sty
INPUT /usr/local/texlive/2013/texmf-dist/tex/generic/oberdiek/ifpdf.sty
INPUT /usr/local/texlive/2013/texmf-dist/tex/latex/oberdiek/epstopdf-base.sty
INPUT /usr/local/texlive/2013/texmf-dist/tex/latex/oberdiek/epstopdf-base.sty
INPUT /usr/local/texlive/2013/texmf-dist/tex/latex/oberdiek/grfext.sty
INPUT /usr/local/texlive/2013/texmf-dist/tex/latex/oberdiek/grfext.sty
INPUT /usr/local/texlive/2013/texmf-dist/tex/generic/oberdiek/kvdefinekeys.sty
INPUT /usr/local/texlive/2013/texmf-dist/tex/generic/oberdiek/kvdefinekeys.sty
INPUT /usr/local/texlive/2013/texmf-dist/tex/latex/oberdiek/kvoptions.sty
INPUT /usr/local/texlive/2013/texmf-dist/tex/latex/oberdiek/kvoptions.sty
INPUT /usr/local/texlive/2013/texmf-dist/tex/generic/oberdiek/kvsetkeys.sty
INPUT /usr/local/texlive/2013/texmf-dist/tex/generic/oberdiek/kvsetkeys.sty
INPUT /usr/local/texlive/2013/texmf-dist/tex/generic/oberdiek/etexcmds.sty
INPUT /usr/local/texlive/2013/texmf-dist/tex/generic/oberdiek/etexcmds.sty
INPUT /usr/local/texlive/2013/texmf-dist/tex/latex/latexconfig/epstopdf-sys.cfg
INPUT /usr/local/texlive/2013/texmf-dist/tex/latex/latexconfig/epstopdf-sys.cfg
INPUT /usr/local/texlive/2013/texmf-dist/tex/latex/psnfss/omsptm.fd
INPUT /usr/local/texlive/2013/texmf-dist/tex/latex/psnfss/omsptm.fd
INPUT /usr/local/texlive/2013/texmf-dist/fonts/tfm/public/cm/cmsy8.tfm
INPUT /usr/local/texlive/2013/texmf-dist/fonts/tfm/public/cm/cmr9.tfm
INPUT /usr/local/texlive/2013/texmf-dist/fonts/tfm/public/cm/cmr6.tfm
INPUT /usr/local/texlive/2013/texmf-dist/fonts/tfm/public/cm/cmmi9.tfm
INPUT /usr/local/texlive/2013/texmf-dist/fonts/tfm/public/cm/cmmi6.tfm
INPUT /usr/local/texlive/2013/texmf-dist/fonts/tfm/public/cm/cmsy9.tfm
INPUT /usr/local/texlive/2013/texmf-dist/fonts/tfm/public/cm/cmsy6.tfm
INPUT /usr/local/texlive/2013/texmf-dist/fonts/tfm/public/amsfonts/cmextra/cmex9.tfm
INPUT /usr/local/texlive/2013/texmf-dist/fonts/tfm/public/amsfonts/cmextra/cmex7.tfm
INPUT /usr/local/texlive/2013/texmf-dist/fonts/tfm/public/amsfonts/cmextra/cmex7.tfm
INPUT /usr/local/texlive/2013/texmf-dist/tex/latex/amsfonts/umsa.fd
INPUT /usr/local/texlive/2013/texmf-dist/tex/latex/amsfonts/umsa.fd
INPUT /usr/local/texlive/2013/texmf-dist/fonts/tfm/public/amsfonts/symbols/msam10.tfm
INPUT /usr/local/texlive/2013/texmf-dist/fonts/tfm/public/amsfonts/symbols/msam7.tfm
INPUT /usr/local/texlive/2013/texmf-dist/fonts/tfm/public/amsfonts/symbols/msam5.tfm
INPUT /usr/local/texlive/2013/texmf-dist/tex/latex/amsfonts/umsb.fd
INPUT /usr/local/texlive/2013/texmf-dist/tex/latex/amsfonts/umsb.fd
INPUT /usr/local/texlive/2013/texmf-dist/fonts/tfm/public/amsfonts/symbols/msbm10.tfm
INPUT /usr/local/texlive/2013/texmf-dist/fonts/tfm/public/amsfonts/symbols/msbm7.tfm
INPUT /usr/local/texlive/2013/texmf-dist/fonts/tfm/public/amsfonts/symbols/msbm5.tfm
INPUT /usr/local/texlive/2013/texmf-dist/tex/latex/base/ulasy.fd
INPUT /usr/local/texlive/2013/texmf-dist/tex/latex/base/ulasy.fd
INPUT /usr/local/texlive/2013/texmf-dist/fonts/tfm/public/latex-fonts/lasy9.tfm
INPUT /usr/local/texlive/2013/texmf-dist/fonts/tfm/public/latex-fonts/lasy6.tfm
INPUT /usr/local/texlive/2013/texmf-dist/fonts/tfm/public/latex-fonts/lasy5.tfm
INPUT /usr/local/texlive/2013/texmf-dist/fonts/tfm/adobe/times/ptmrc7t.tfm
INPUT /usr/local/texlive/2013/texmf-dist/fonts/tfm/public/amsfonts/cmextra/cmex7.tfm
INPUT /usr/local/texlive/2013/texmf-dist/fonts/tfm/public/amsfonts/symbols/msam10.tfm
INPUT /usr/local/texlive/2013/texmf-dist/fonts/tfm/public/amsfonts/symbols/msam7.tfm
INPUT /usr/local/texlive/2013/texmf-dist/fonts/tfm/public/amsfonts/symbols/msbm10.tfm
INPUT /usr/local/texlive/2013/texmf-dist/fonts/tfm/public/amsfonts/symbols/msbm7.tfm
INPUT /usr/local/texlive/2013/texmf-dist/fonts/tfm/public/latex-fonts/lasy10.tfm
INPUT /usr/local/texlive/2013/texmf-dist/fonts/tfm/public/latex-fonts/lasy7.tfm
OUTPUT CLQR_Final.pdf
INPUT /usr/local/texlive/2013/texmf-dist/fonts/vf/adobe/times/ptmr7t.vf
INPUT /usr/local/texlive/2013/texmf-dist/fonts/tfm/adobe/times/ptmr8r.tfm
INPUT /usr/local/texlive/2013/texmf-var/fonts/map/pdftex/updmap/pdftex.map
INPUT /usr/local/texlive/2013/texmf-dist/fonts/vf/adobe/times/ptmr7t.vf
INPUT /usr/local/texlive/2013/texmf-dist/fonts/tfm/adobe/times/ptmr8r.tfm
INPUT /usr/local/texlive/2013/texmf-dist/fonts/vf/adobe/times/ptmr7t.vf
INPUT /usr/local/texlive/2013/texmf-dist/fonts/tfm/adobe/times/ptmr8r.tfm
INPUT /usr/local/texlive/2013/texmf-dist/fonts/vf/adobe/times/ptmri7t.vf
INPUT /usr/local/texlive/2013/texmf-dist/fonts/tfm/adobe/times/ptmri8r.tfm
INPUT /usr/local/texlive/2013/texmf-dist/fonts/vf/adobe/times/ptmbi7t.vf
INPUT /usr/local/texlive/2013/texmf-dist/fonts/tfm/adobe/times/ptmbi8r.tfm
INPUT /usr/local/texlive/2013/texmf-dist/fonts/vf/adobe/times/ptmb7t.vf
INPUT /usr/local/texlive/2013/texmf-dist/fonts/tfm/adobe/times/ptmb8r.tfm
INPUT /usr/local/texlive/2013/texmf-dist/fonts/vf/adobe/times/ptmrc7t.vf
INPUT /usr/local/texlive/2013/texmf-dist/fonts/tfm/adobe/times/ptmr8r.tfm
INPUT /usr/local/texlive/2013/texmf-dist/fonts/tfm/adobe/times/ptmr8r.tfm
INPUT /usr/local/texlive/2013/texmf-dist/fonts/vf/adobe/times/ptmr7t.vf
INPUT /usr/local/texlive/2013/texmf-dist/fonts/vf/adobe/times/ptmri7t.vf
INPUT /usr/local/texlive/2013/texmf-dist/fonts/tfm/adobe/times/ptmri8r.tfm
INPUT /usr/local/texlive/2013/texmf-dist/fonts/vf/adobe/times/ptmr7t.vf
INPUT /usr/local/texlive/2013/texmf-dist/fonts/tfm/public/cm/cmbx10.tfm
INPUT /usr/local/texlive/2013/texmf-dist/fonts/tfm/public/cm/cmbx7.tfm
INPUT /usr/local/texlive/2013/texmf-dist/fonts/tfm/public/cm/cmbx5.tfm
INPUT /usr/local/texlive/2013/texmf-dist/fonts/tfm/public/cm/cmmib10.tfm
INPUT /usr/local/texlive/2013/texmf-dist/fonts/tfm/public/amsfonts/cmextra/cmmib7.tfm
INPUT /usr/local/texlive/2013/texmf-dist/fonts/tfm/public/amsfonts/cmextra/cmmib5.tfm
INPUT /usr/local/texlive/2013/texmf-dist/fonts/tfm/public/cm/cmbsy10.tfm
INPUT /usr/local/texlive/2013/texmf-dist/fonts/tfm/public/amsfonts/cmextra/cmbsy7.tfm
INPUT /usr/local/texlive/2013/texmf-dist/fonts/tfm/public/amsfonts/cmextra/cmbsy5.tfm
INPUT /usr/local/texlive/2013/texmf-dist/fonts/tfm/public/latex-fonts/lasyb10.tfm
INPUT /usr/local/texlive/2013/texmf-dist/fonts/vf/adobe/times/ptmb7t.vf
INPUT /usr/local/texlive/2013/texmf-dist/fonts/tfm/adobe/times/ptmb8r.tfm
INPUT /usr/local/texlive/2013/texmf-dist/tex/latex/psnfss/ot1pcr.fd
INPUT /usr/local/texlive/2013/texmf-dist/tex/latex/psnfss/ot1pcr.fd
INPUT /usr/local/texlive/2013/texmf-dist/fonts/tfm/adobe/courier/pcrr7t.tfm
INPUT Figures/cold_hitting_times_toy.pdf
INPUT ./Figures/cold_hitting_times_toy.pdf
INPUT ./Figures/cold_hitting_times_toy.pdf
INPUT /usr/local/texlive/2013/texmf-dist/fonts/tfm/public/cm/cmbx9.tfm
INPUT /usr/local/texlive/2013/texmf-dist/fonts/tfm/public/cm/cmbx6.tfm
INPUT Figures/reach_sets_toy.pdf
INPUT ./Figures/reach_sets_toy.pdf
INPUT ./Figures/reach_sets_toy.pdf
INPUT Figures/ItersCLQR_VS_MPC.pdf
INPUT ./Figures/ItersCLQR_VS_MPC.pdf
INPUT ./Figures/ItersCLQR_VS_MPC.pdf
INPUT Figures/HorzsCLQR_VS_MPC.pdf
INPUT ./Figures/HorzsCLQR_VS_MPC.pdf
INPUT ./Figures/HorzsCLQR_VS_MPC.pdf
INPUT /usr/local/texlive/2013/texmf-dist/fonts/vf/adobe/times/ptmr7t.vf
INPUT /usr/local/texlive/2013/texmf-dist/fonts/tfm/adobe/times/ptmr8r.tfm
INPUT Figures/cold_hitting_times_quad.pdf
INPUT ./Figures/cold_hitting_times_quad.pdf
INPUT ./Figures/cold_hitting_times_quad.pdf
INPUT Figures/BoxANDWhiskers.pdf
INPUT ./Figures/BoxANDWhiskers.pdf
INPUT ./Figures/BoxANDWhiskers.pdf
INPUT Figures/HTs.pdf
INPUT ./Figures/HTs.pdf
INPUT ./Figures/HTs.pdf
INPUT Figures/BoxToyTimingsCold.pdf
INPUT ./Figures/BoxToyTimingsCold.pdf
INPUT ./Figures/BoxToyTimingsCold.pdf
INPUT Figures/ItersHistToy.pdf
INPUT ./Figures/ItersHistToy.pdf
INPUT ./Figures/ItersHistToy.pdf
INPUT Figures/FactsHistToy.pdf
INPUT ./Figures/FactsHistToy.pdf
INPUT ./Figures/FactsHistToy.pdf
INPUT Figures/BoxToyTimingsColdAv.pdf
INPUT ./Figures/BoxToyTimingsColdAv.pdf
INPUT ./Figures/BoxToyTimingsColdAv.pdf
INPUT /usr/local/texlive/2013/texmf-dist/fonts/tfm/adobe/times/ptmrc7t.tfm
INPUT /usr/local/texlive/2013/texmf-dist/fonts/tfm/public/cm/cmr8.tfm
INPUT /usr/local/texlive/2013/texmf-dist/fonts/tfm/public/cm/cmmi8.tfm
INPUT /usr/local/texlive/2013/texmf-dist/fonts/tfm/public/amsfonts/cmextra/cmex8.tfm
INPUT /usr/local/texlive/2013/texmf-dist/fonts/tfm/public/cm/cmbx8.tfm
INPUT /usr/local/texlive/2013/texmf-dist/fonts/tfm/public/amsfonts/symbols/msam10.tfm
INPUT /usr/local/texlive/2013/texmf-dist/fonts/tfm/public/amsfonts/symbols/msbm10.tfm
INPUT /usr/local/texlive/2013/texmf-dist/fonts/tfm/public/latex-fonts/lasy8.tfm
INPUT /usr/local/texlive/2013/texmf-dist/fonts/tfm/public/cm/cmr12.tfm
INPUT /usr/local/texlive/2013/texmf-dist/fonts/tfm/public/cm/cmmi12.tfm
INPUT /usr/local/texlive/2013/texmf-dist/fonts/tfm/public/cm/cmsy10.tfm
INPUT /usr/local/texlive/2013/texmf-dist/fonts/tfm/public/cm/cmex10.tfm
INPUT /usr/local/texlive/2013/texmf-dist/fonts/tfm/public/cm/cmbx12.tfm
INPUT /usr/local/texlive/2013/texmf-dist/fonts/tfm/public/amsfonts/symbols/msam10.tfm
INPUT /usr/local/texlive/2013/texmf-dist/fonts/tfm/public/amsfonts/symbols/msbm10.tfm
INPUT /usr/local/texlive/2013/texmf-dist/fonts/tfm/public/latex-fonts/lasy10.tfm
INPUT /usr/local/texlive/2013/texmf-dist/fonts/vf/adobe/times/ptmrc7t.vf
INPUT /usr/local/texlive/2013/texmf-dist/fonts/tfm/adobe/times/ptmr8r.tfm
INPUT /usr/local/texlive/2013/texmf-dist/fonts/vf/adobe/times/ptmb7t.vf
INPUT /usr/local/texlive/2013/texmf-dist/fonts/tfm/adobe/times/ptmb8r.tfm
INPUT /usr/local/texlive/2013/texmf-dist/fonts/vf/adobe/times/ptmr7t.vf
INPUT /usr/local/texlive/2013/texmf-dist/fonts/tfm/adobe/times/ptmr8r.tfm
INPUT CLQR_Final.bbl
INPUT CLQR_Final.bbl
INPUT Figures/giorgos.jpg
INPUT ./Figures/giorgos.jpg
INPUT ./Figures/giorgos.jpg
INPUT Figures/giorgos.jpg
INPUT ./Figures/giorgos.jpg
INPUT Figures/milan.jpg
INPUT ./Figures/milan.jpg
INPUT ./Figures/milan.jpg
INPUT Figures/milan.jpg
INPUT ./Figures/milan.jpg
INPUT Figures/colin.jpg
INPUT ./Figures/colin.jpg
INPUT ./Figures/colin.jpg
INPUT Figures/colin.jpg
INPUT ./Figures/colin.jpg
INPUT /usr/local/texlive/2013/texmf-dist/fonts/vf/adobe/times/ptmri7t.vf
INPUT /usr/local/texlive/2013/texmf-dist/fonts/tfm/adobe/times/ptmri8r.tfm
INPUT /usr/local/texlive/2013/texmf-dist/fonts/vf/adobe/times/ptmb7t.vf
INPUT /usr/local/texlive/2013/texmf-dist/fonts/tfm/adobe/times/ptmb8r.tfm
INPUT CLQR_Final.aux
INPUT /usr/local/texlive/2013/texmf-dist/fonts/enc/dvips/base/8r.enc
INPUT /usr/local/texlive/2013/texmf-dist/fonts/type1/public/amsfonts/cm/cmbx10.pfb
INPUT /usr/local/texlive/2013/texmf-dist/fonts/type1/public/amsfonts/cm/cmbx5.pfb
INPUT /usr/local/texlive/2013/texmf-dist/fonts/type1/public/amsfonts/cm/cmbx7.pfb
INPUT /usr/local/texlive/2013/texmf-dist/fonts/type1/public/amsfonts/cm/cmbx9.pfb
INPUT /usr/local/texlive/2013/texmf-dist/fonts/type1/public/amsfonts/cm/cmex10.pfb
INPUT /usr/local/texlive/2013/texmf-dist/fonts/type1/public/amsfonts/cm/cmmi10.pfb
INPUT /usr/local/texlive/2013/texmf-dist/fonts/type1/public/amsfonts/cm/cmmi12.pfb
INPUT /usr/local/texlive/2013/texmf-dist/fonts/type1/public/amsfonts/cm/cmmi5.pfb
INPUT /usr/local/texlive/2013/texmf-dist/fonts/type1/public/amsfonts/cm/cmmi6.pfb
INPUT /usr/local/texlive/2013/texmf-dist/fonts/type1/public/amsfonts/cm/cmmi7.pfb
INPUT /usr/local/texlive/2013/texmf-dist/fonts/type1/public/amsfonts/cm/cmmi8.pfb
INPUT /usr/local/texlive/2013/texmf-dist/fonts/type1/public/amsfonts/cm/cmmi9.pfb
INPUT /usr/local/texlive/2013/texmf-dist/fonts/type1/public/amsfonts/cm/cmmib10.pfb
INPUT /usr/local/texlive/2013/texmf-dist/fonts/type1/public/amsfonts/cmextra/cmmib5.pfb
INPUT /usr/local/texlive/2013/texmf-dist/fonts/type1/public/amsfonts/cmextra/cmmib7.pfb
INPUT /usr/local/texlive/2013/texmf-dist/fonts/type1/public/amsfonts/cm/cmr10.pfb
INPUT /usr/local/texlive/2013/texmf-dist/fonts/type1/public/amsfonts/cm/cmr12.pfb
INPUT /usr/local/texlive/2013/texmf-dist/fonts/type1/public/amsfonts/cm/cmr5.pfb
INPUT /usr/local/texlive/2013/texmf-dist/fonts/type1/public/amsfonts/cm/cmr6.pfb
INPUT /usr/local/texlive/2013/texmf-dist/fonts/type1/public/amsfonts/cm/cmr7.pfb
INPUT /usr/local/texlive/2013/texmf-dist/fonts/type1/public/amsfonts/cm/cmr8.pfb
INPUT /usr/local/texlive/2013/texmf-dist/fonts/type1/public/amsfonts/cm/cmr9.pfb
INPUT /usr/local/texlive/2013/texmf-dist/fonts/type1/public/amsfonts/cm/cmsy10.pfb
INPUT /usr/local/texlive/2013/texmf-dist/fonts/type1/public/amsfonts/cm/cmsy5.pfb
INPUT /usr/local/texlive/2013/texmf-dist/fonts/type1/public/amsfonts/cm/cmsy6.pfb
INPUT /usr/local/texlive/2013/texmf-dist/fonts/type1/public/amsfonts/cm/cmsy7.pfb
INPUT /usr/local/texlive/2013/texmf-dist/fonts/type1/public/amsfonts/cm/cmsy8.pfb
INPUT /usr/local/texlive/2013/texmf-dist/fonts/type1/public/amsfonts/cm/cmsy9.pfb
INPUT /usr/local/texlive/2013/texmf-dist/fonts/type1/public/amsfonts/symbols/msbm10.pfb
INPUT /usr/local/texlive/2013/texmf-dist/fonts/type1/public/amsfonts/symbols/msbm7.pfb
INPUT /usr/local/texlive/2013/texmf-dist/fonts/type1/urw/times/utmb8a.pfb
INPUT /usr/local/texlive/2013/texmf-dist/fonts/type1/urw/times/utmbi8a.pfb
INPUT /usr/local/texlive/2013/texmf-dist/fonts/type1/urw/times/utmr8a.pfb
INPUT /usr/local/texlive/2013/texmf-dist/fonts/type1/urw/times/utmri8a.pfb
