\relax 
\citation{Kalman}
\citation{Chmielewski1996121}
\citation{CLQR}
\citation{Grieder2004701}
\citation{Chmielewski1996121}
\citation{CLQR}
\citation{Sznaier}
\citation{Grieder2004701}
\citation{parikh2014proximal}
\citation{book_comb}
\citation{AFBS_pock}
\citation{CLQR}
\citation{Sta_Kor_Jon_CLQR}
\citation{Tseng:1991}
\citation{Sta_Kor_Jon_CLQR}
\@writefile{toc}{\contentsline {section}{\numberline {I}Introduction}{1}}
\@writefile{toc}{\contentsline {section}{\numberline {II}Problem statement}{2}}
\newlabel{sec:intro}{{II}{2}}
\newlabel{mpc-initial_reg}{{1}{2}}
\newlabel{as:basic_reg}{{1}{2}}
\newlabel{operators}{{2}{2}}
\newlabel{eq:generic_pr}{{3}{2}}
\newlabel{def::l2_space}{{4}{2}}
\citation{patrinos2014accelerated}
\citation{parikh2014proximal}
\citation{bertsekas03}
\citation{book_comb}
\citation{Sta_Kor_Jon_CLQR}
\citation{book_comb}
\citation{book_comb}
\citation{AFBS_chambolle}
\citation{Polyak19641}
\citation{nest83}
\citation{nesterov2007gradient}
\citation{fista}
\citation{AFBS_pock}
\@writefile{toc}{\contentsline {section}{\numberline {III}Dualization}{3}}
\newlabel{sec:dualization}{{III}{3}}
\newlabel{eq:proxdef}{{5}{3}}
\newlabel{ch2::eq:PGM}{{6}{3}}
\newlabel{eq:f_g_def}{{7}{3}}
\newlabel{app:dual}{{8}{3}}
\newlabel{eq:fstar}{{9}{3}}
\newlabel{eq:generic_dual}{{10}{3}}
\@writefile{toc}{\contentsline {section}{\numberline {IV}Solution using AFBS}{3}}
\newlabel{sec:afbs}{{IV}{3}}
\citation{AFBS_chambolle}
\citation{nesterov2004introductory}
\citation{cvxbook}
\@writefile{loa}{\contentsline {algorithm}{\numberline {1}{\ignorespaces AFBS for Problem (10\hbox {})}}{4}}
\newlabel{al:AFBS}{{1}{4}}
\newlabel{eq:L}{{11}{4}}
\newlabel{lem:grad}{{1}{4}}
\newlabel{eq:grad}{{12}{4}}
\newlabel{eq:Lmin}{{13}{4}}
\newlabel{eq:Tk_update}{{14}{4}}
\newlabel{rem:sim}{{2}{4}}
\citation{fista}
\newlabel{rem:S}{{3}{5}}
\@writefile{loa}{\contentsline {algorithm}{\numberline {2}{\ignorespaces AFBS for the CLQR problem}}{5}}
\newlabel{al:AFBS_CLQR}{{2}{5}}
\newlabel{rem:stepize}{{4}{5}}
\newlabel{rem:termination}{{6}{5}}
\newlabel{eq:primalSequence}{{15}{5}}
\@writefile{toc}{\contentsline {section}{\numberline {V}Convergence results}{5}}
\newlabel{sec:conv}{{V}{5}}
\newlabel{theor:master}{{1}{5}}
\citation{AFBS_chambolle}
\citation{AFBS_chambolle}
\citation{beck2014fast}
\citation{cvxbook}
\citation{Sta_Kor_Jon_CLQR}
\citation{AFBS_chambolle}
\newlabel{eq::fprime}{{16}{6}}
\newlabel{eq::Lagrange_strong_conv}{{17}{6}}
\newlabel{eq::Lagrange_strong_conv2}{{18}{6}}
\newlabel{eq::state_seq}{{20}{6}}
\newlabel{relaxed_dual_conv}{{3}{6}}
\newlabel{lem:convu}{{4}{6}}
\citation{fista}
\citation{fista}
\citation{AFBS_chambolle}
\citation{soc}
\citation{frison_riccati}
\newlabel{lem:convx}{{5}{7}}
\newlabel{eq:limsupTbounded}{{21}{7}}
\@writefile{toc}{\contentsline {section}{\numberline {VI}Computational aspects and warm-starting}{7}}
\newlabel{sec:lin_sys_solve}{{VI}{7}}
\@writefile{toc}{\contentsline {subsection}{\numberline {\unhbox \voidb@x \hbox {VI-A}}Stepsize selection}{7}}
\newlabel{sec:stepsize}{{\unhbox \voidb@x \hbox {VI-A}}{7}}
\newlabel{rem:backtracking}{{7}{7}}
\@writefile{toc}{\contentsline {subsection}{\numberline {\unhbox \voidb@x \hbox {VI-B}}Complexity}{7}}
\citation{cvxbook}
\citation{Axehill201237}
\citation{FrisonJ13}
\citation{FrisonJ13}
\citation{fista}
\citation{fast_gradient}
\citation{ECC_14_short_survey}
\@writefile{toc}{\contentsline {subsection}{\numberline {\unhbox \voidb@x \hbox {VI-C}}Warm-starting}{8}}
\@writefile{toc}{\contentsline {section}{\numberline {VII}Examples}{8}}
\newlabel{sec:examples}{{VII}{8}}
\@writefile{toc}{\contentsline {subsection}{\numberline {\unhbox \voidb@x \hbox {VII-A}}Toy system}{8}}
\citation{MPT3}
\citation{MPT3}
\@writefile{lof}{\contentsline {figure}{\numberline {1}{\ignorespaces \relax \fontsize  {9}{10pt}\selectfont  Histogram of $T^{\infty } = \qopname  \relax m{max}_{k}\{T^k\}$ for 750 initial conditions of the 2 state system sampled from a normal distribution around $(-3,0.3)$ with covariance matrix $\mathop {\bf  diag}(4,0.4)$.}}{9}}
\newlabel{fig:HTs_2states}{{1}{9}}
\@writefile{lof}{\contentsline {figure}{\numberline {2}{\ignorespaces \relax \fontsize  {9}{10pt}\selectfont  Reachable sets for several horizon lengths and the LQ terminal set. The computation was done using the MPT3 toolbox\nobreakspace  {}\cite  {MPT3}. It is apparent that a short horizon length reduces significantly the feasible region of the problem.}}{9}}
\newlabel{fig:reach_sets}{{2}{9}}
\@writefile{toc}{\contentsline {subsection}{\numberline {\unhbox \voidb@x \hbox {VII-B}}Quadcopter system}{9}}
\@writefile{lof}{\contentsline {figure}{\numberline {3}{\ignorespaces \relax \fontsize  {9}{10pt}\selectfont  Comparison of MPC with finite horizon length, for several horizons, with CLQR. The x-axis corresponds to the optimal horizon length $T^\star $ per initial condition. As $T^\star $ increases, the corresponding states are sampled further from the origin. MPC with terminal set is depicted with the solid lines, while without terminal set with dashed lines. CLQR is performed both with the weight sequence, denoted as $T_w^\infty $ CLQR, and without the weights, denoted as $T^\infty $ CLQR.}}{10}}
\newlabel{fig:iters_MPC_CLQR}{{3}{10}}
\@writefile{lof}{\contentsline {figure}{\numberline {4}{\ignorespaces \relax \fontsize  {9}{10pt}\selectfont  Evolution of the ratios $\frac  {T_{\qopname  \relax m{min}}}{T^\star }$, $\frac  {T_w^\infty }{T^\star }$ and $\frac  {T^\infty }{T^\star }$ for the sampled initial conditions.}}{10}}
\newlabel{fig:horzs_MPC_CLQR}{{4}{10}}
\@writefile{lof}{\contentsline {figure}{\numberline {5}{\ignorespaces \relax \fontsize  {9}{10pt}\selectfont  Histogram of $T^{\infty } = \qopname  \relax m{max}_{k}\{T^k\}$ for 272 initial conditions sampled with a Hit-And-Run algorithm.}}{10}}
\newlabel{fig:HTs_quad}{{5}{10}}
\@writefile{lof}{\contentsline {figure}{\numberline {6}{\ignorespaces \relax \fontsize  {9}{10pt}\selectfont  Box plot for the average number of iterations of the warm-starting policy, given $0.5\%$ and $1\%$ uniform perturbations of the initial state. The horizontal line inside the box corresponds to the median, the edges of the box are the $25^{\mathrm  {th}}$ and $75^{\mathrm  {th}}$ percentiles while the horizontal lines outside the boxes correspond to the most extreme data points not considered outliers. Finally, the colored dots correspond to mean values. Warm-starting improves the performance of the suggested method in both cases, in all the depicted statistical measures.}}{10}}
\newlabel{fig::box_whiskers}{{6}{10}}
\@writefile{toc}{\contentsline {subsection}{\numberline {\unhbox \voidb@x \hbox {VII-C}}Timings}{10}}
\citation{Armadillo}
\citation{giselsson2014metric,Giselsson:fbds}
\@writefile{lof}{\contentsline {figure}{\numberline {7}{\ignorespaces \relax \fontsize  {9}{10pt}\selectfont  Hitting times evolution for 50 subsequent solves, warm-started at the previous (shifted) dual optimizer. Four different initial conditions are depicted with the solid lines. The linear rate is depicted (for comparison) with the blue triangles. Note that the horizon decreases almost linearly, resulting from the relatively small perturbations of the initial state. The case depicted in red corresponds to an outlier where the perturbed initial condition rendered the previously computed horizon an infeasible option, leading to an increase of its length.}}{11}}
\newlabel{fig:warm_horizon}{{7}{11}}
\@writefile{lof}{\contentsline {figure}{\numberline {8}{\ignorespaces \relax \fontsize  {9}{10pt}\selectfont  Box plot for the solve times of the CLQR solver versus CPLEX, MOSEK and QPgen for the toy system, sampled from 750 initial conditions. CLQR generally requires less time than solving a series of finite horizon optimal control problems, leading to the same optimal solution. Only the solver QPgen clearly outperforms our proposed approach, which makes use of the same, in principle, splitting method, enhanced by several add-on's that enable speedup. }}{11}}
\newlabel{fig::box_whiskers_toy_timings}{{8}{11}}
\@writefile{lof}{\contentsline {figure}{\numberline {9}{\ignorespaces \relax \fontsize  {9}{10pt}\selectfont  Histogram for the number of iterations required over 750 problems. Note that more than $80\%$ of the problems needed less than 400 iterations in order to converge, while the maximum number observed is around 5000 iterations. }}{11}}
\newlabel{fig::box_whiskers_toy_iters}{{9}{11}}
\citation{frison_riccati}
\@writefile{lof}{\contentsline {figure}{\numberline {10}{\ignorespaces \relax \fontsize  {9}{10pt}\selectfont  Number of factorizations required over 750 problems. The mean value is 7 while no problem instance needed more than 25 factorizations. }}{12}}
\newlabel{fig::box_whiskers_toy_facts}{{10}{12}}
\@writefile{lof}{\contentsline {figure}{\numberline {11}{\ignorespaces \relax \fontsize  {9}{10pt}\selectfont  Average time per optimal control problem solved with MPC, compared against one CLQR solve. In this case the three solvers are faster. The large variance of the CLQR approach in comparison to the others is a typical characteristic of first order methods, and can be significantly reduced with appropriately conditioning of the problem. }}{12}}
\newlabel{fig::box_whiskers_toy_timings_aver}{{11}{12}}
\@writefile{lot}{\contentsline {table}{\numberline {I}{\ignorespaces Closed loop comparison between CLQR and MPC}}{12}}
\newlabel{table::CLQR_VS_MPC_table}{{I}{12}}
\@writefile{toc}{\contentsline {section}{\numberline {VIII}Conclusion}{12}}
\citation{restart}
\citation{Giselsson:fbds}
\citation{book_comb}
\citation{Eckstein}
\citation{Antoulas}
\@writefile{toc}{\contentsline {section}{Appendix\nobreakspace  A: Required Operator Theory}{13}}
\newlabel{App.A}{{A}{13}}
\newlabel{def:wl2_hilbert_space}{{1}{13}}
\newlabel{def:boundedoper}{{2}{13}}
\newlabel{thm:adjoint}{{2}{13}}
\newlabel{def:weakconv1}{{3}{13}}
\newlabel{def:strongconv}{{4}{13}}
\newlabel{def:posdef}{{5}{13}}
\@writefile{toc}{\contentsline {section}{Appendix\nobreakspace  B: Boundedness of several operators}{13}}
\newlabel{App.B}{{B}{13}}
\newlabel{lem:bounded_C}{{6}{13}}
\newlabel{App.C:toprove}{{22}{13}}
\newlabel{App.C::eq1}{{23}{13}}
\citation{fista}
\citation{fista}
\citation{fista}
\citation{AFBS_chambolle}
\citation{AFBS_chambolle}
\citation{AFBS_chambolle}
\citation{AFBS_chambolle}
\newlabel{lem:bounded_Hinv}{{7}{14}}
\@writefile{toc}{\contentsline {section}{Appendix\nobreakspace  C: Backtracking stepsize rule}{14}}
\newlabel{App.D}{{C}{14}}
\newlabel{App::majorizer}{{24}{14}}
\newlabel{App::optimizer}{{25}{14}}
\newlabel{lem:2_3_Teboulle}{{8}{14}}
\@writefile{loa}{\contentsline {algorithm}{\numberline {3}{\ignorespaces Backtracking for stepsize computation}}{14}}
\newlabel{al:Backtracking}{{3}{14}}
\newlabel{lem:1_Chambolle}{{9}{14}}
\newlabel{lem::back_conv}{{10}{14}}
\bibstyle{IEEEtran}
\bibdata{IEEEabrv,tac_biblio}
\bibcite{Kalman}{1}
\bibcite{Chmielewski1996121}{2}
\bibcite{CLQR}{3}
\bibcite{Grieder2004701}{4}
\bibcite{Sznaier}{5}
\bibcite{parikh2014proximal}{6}
\bibcite{book_comb}{7}
\bibcite{AFBS_pock}{8}
\bibcite{Sta_Kor_Jon_CLQR}{9}
\bibcite{Tseng:1991}{10}
\bibcite{patrinos2014accelerated}{11}
\bibcite{bertsekas03}{12}
\bibcite{AFBS_chambolle}{13}
\bibcite{Polyak19641}{14}
\bibcite{nest83}{15}
\bibcite{nesterov2007gradient}{16}
\bibcite{fista}{17}
\bibcite{nesterov2004introductory}{18}
\bibcite{cvxbook}{19}
\bibcite{beck2014fast}{20}
\bibcite{soc}{21}
\bibcite{frison_riccati}{22}
\bibcite{Axehill201237}{23}
\bibcite{FrisonJ13}{24}
\bibcite{fast_gradient}{25}
\bibcite{ECC_14_short_survey}{26}
\bibcite{MPT3}{27}
\bibcite{Armadillo}{28}
\bibcite{giselsson2014metric}{29}
\bibcite{Giselsson:fbds}{30}
\bibcite{restart}{31}
\bibcite{Eckstein}{32}
\bibcite{Antoulas}{33}
\@writefile{toc}{\contentsline {section}{References}{15}}
\@writefile{toc}{\contentsline {section}{Biographies}{15}}
\@writefile{toc}{\contentsline {subsection}{Giorgos Stathopoulos}{15}}
\@writefile{toc}{\contentsline {subsection}{Milan Korda}{15}}
\@writefile{toc}{\contentsline {subsection}{Colin N. Jones}{15}}
