\relax 
\bibstyle{ifacconf}
\citation{Kalman}
\citation{primbs}
\citation{CLQR}
\citation{Sznaier}
\citation{Combettes:survey,Boyd:admm,esser}
\citation{Tseng:1991}
\citation{CLQR}
\citation{soc}
\citation{CLQR_long}
\newlabel{First}{{*\relax }{1}}
\global\@namedef{n@author@}{3}
\global\@namedef{n@collab@}{0}
\@writefile{toc}{\contentsline {section}{\numberline {1}Introduction}{1}}
\citation{Tseng:1991}
\citation{CLQR_long}
\citation{Bruck}
\citation{Passty}
\citation{book_comb}
\@writefile{toc}{\contentsline {section}{\numberline {2}Problem statement and an operator splitting approach}{2}}
\newlabel{sec:intro}{{2}{2}}
\@writefile{toc}{\contentsline {subsection}{\numberline {2.1}Formulation of the problem}{2}}
\newlabel{mpc-initial}{{1}{2}}
\newlabel{as:basic}{{1}{2}}
\newlabel{mpc-split1}{{2}{2}}
\newlabel{prob:P}{{3}{2}}
\@writefile{loa}{\contentsline {algorithm}{\numberline {1}{\ignorespaces AMA for Problem (3\hbox {}).}}{2}}
\newlabel{al:AMA}{{1}{2}}
\newlabel{fnm:1}{{1}{2}}
\@writefile{toc}{\contentsline {section}{\numberline {3}A finite dimensional representation}{2}}
\newlabel{sec:main}{{3}{2}}
\newlabel{alg:mpc-split2:1}{{4}{3}}
\newlabel{alg:mpc-split2:2}{{5}{3}}
\newlabel{alg:mpc-split2:3}{{6}{3}}
\newlabel{eq:MPC_iterate_k}{{7}{3}}
\newlabel{eq:Tk_def}{{8}{3}}
\newlabel{eq:Tk_update}{{9}{3}}
\newlabel{rem:sim}{{3}{3}}
\newlabel{rem:S}{{4}{3}}
\@writefile{loa}{\contentsline {algorithm}{\numberline {2}{\ignorespaces AMA for the constrained LQR}}{3}}
\newlabel{al:AMA_CLQR}{{2}{3}}
\newlabel{fnm:2}{{2}{3}}
\@writefile{toc}{\contentsline {section}{\numberline {4}Computational aspects}{3}}
\newlabel{sec:lin_sys_solve}{{4}{3}}
\newlabel{eq:kkt}{{10}{3}}
\citation{cvxbook}
\citation{CLQR_long}
\citation{book_comb}
\citation{Eckstein}
\citation{EE364b}
\citation{esser}
\citation{attouch08}
\citation{svaiter}
\citation{moradifam}
\citation{Tseng:1991}
\citation{fadmm}
\citation{CLQR_long}
\citation{CLQR_long}
\citation{fadmm}
\newlabel{rem:efficient_implem}{{5}{4}}
\@writefile{toc}{\contentsline {section}{\numberline {5}Convergence results}{4}}
\newlabel{sec:conv}{{5}{4}}
\@writefile{toc}{\contentsline {subsection}{\numberline {5.1}Convergence of Algorithm\nobreakspace  {}2\hbox {}}{4}}
\newlabel{ours:strong1}{{1}{4}}
\@writefile{toc}{\contentsline {subsection}{\numberline {5.2}Boundedness of the sequence $T^k$}{4}}
\newlabel{theor:ours:finiteT}{{2}{4}}
\newlabel{eq:limsupTbounded}{{11}{4}}
\citation{adarestart}
\@writefile{toc}{\contentsline {section}{\numberline {6}Acceleration}{5}}
\newlabel{sec:acceleration}{{6}{5}}
\@writefile{loa}{\contentsline {algorithm}{\numberline {3}{\ignorespaces FAMA for Problem (3\hbox {}).}}{5}}
\newlabel{al:FAMA}{{3}{5}}
\@writefile{toc}{\contentsline {section}{\numberline {7}Examples}{5}}
\newlabel{sec:examples}{{7}{5}}
\@writefile{toc}{\contentsline {subsection}{\numberline {7.1}Two states, one input system}{5}}
\@writefile{lof}{\contentsline {figure}{\numberline {1}{\ignorespaces \relax \fontsize  {8}{9}\selectfont  \abovedisplayskip 4\p@ plus1\p@ minus1\p@ \belowdisplayskip \abovedisplayskip \abovedisplayshortskip \z@ plus1\p@ \belowdisplayshortskip 3\p@ plus1\p@ minus1\p@ \def \leftmargin \leftmargini \labelwidth \labelwidthi \labelsep 0.5em\topsep \z@ \partopsep \z@ \parsep \z@ \itemsep \z@ \listparindent 1em{\topsep 0.5\@bls \parsep \z@ \itemsep \parsep }Histogram of $T^{\infty } = \qopname  \relax m{max}_{k}\{T^k\}$ for 862 initial conditions of the 2 state system sampled from a normal distribution centered around $(1,-2)$ with standard deviation 0.5.}}{5}}
\newlabel{fig:HTs_2states}{{1}{5}}
\@writefile{lof}{\contentsline {figure}{\numberline {2}{\ignorespaces \relax \fontsize  {8}{9}\selectfont  \abovedisplayskip 4\p@ plus1\p@ minus1\p@ \belowdisplayskip \abovedisplayskip \abovedisplayshortskip \z@ plus1\p@ \belowdisplayshortskip 3\p@ plus1\p@ minus1\p@ \def \leftmargin \leftmargini \labelwidth \labelwidthi \labelsep 0.5em\topsep \z@ \partopsep \z@ \parsep \z@ \itemsep \z@ \listparindent 1em{\topsep 0.5\@bls \parsep \z@ \itemsep \parsep }Number of iterations needed for convergence for 862 instances of the 2 state system using AMA. The mean value of iterations is depicted with the black dashed line.}}{5}}
\newlabel{fig:ITERs_2states_ama}{{2}{5}}
\@writefile{lof}{\contentsline {figure}{\numberline {3}{\ignorespaces \relax \fontsize  {8}{9}\selectfont  \abovedisplayskip 4\p@ plus1\p@ minus1\p@ \belowdisplayskip \abovedisplayskip \abovedisplayshortskip \z@ plus1\p@ \belowdisplayshortskip 3\p@ plus1\p@ minus1\p@ \def \leftmargin \leftmargini \labelwidth \labelwidthi \labelsep 0.5em\topsep \z@ \partopsep \z@ \parsep \z@ \itemsep \z@ \listparindent 1em{\topsep 0.5\@bls \parsep \z@ \itemsep \parsep }Number of iterations needed for convergence for 862 instances of the 2 state system using FAMA. The mean value of iterations is depicted with the black dashed line.}}{5}}
\newlabel{fig:ITERs_2states_fama}{{3}{5}}
\@writefile{toc}{\contentsline {subsection}{\numberline {7.2}Quadcopter system}{5}}
\bibdata{ifac_biblio}
\bibcite{attouch08}{{1}{2008}{{Attouch and Soueycatt}}{{}}}
\bibcite{book_comb}{{2}{2011}{{Bauschke and Combettes}}{{}}}
\bibcite{EE364b}{{3}{2011}{{Boyd and Parikh}}{{}}}
\bibcite{Boyd:admm}{{4}{2011}{{Boyd et~al.}}{{Boyd, Parikh, Chu, Peleato, and Eckstein}}}
\bibcite{cvxbook}{{5}{2004}{{Boyd and Vandenberghe}}{{}}}
\bibcite{Bruck}{{6}{1977}{{Bruck}}{{}}}
\bibcite{Combettes:survey}{{7}{2011}{{Combettes and Pesquet}}{{}}}
\bibcite{Eckstein}{{8}{1992}{{Eckstein and Bertsekas}}{{}}}
\bibcite{esser}{{9}{2010}{{Esser}}{{}}}
\bibcite{fadmm}{{10}{2012}{{Goldstein et~al.}}{{Goldstein, O'Donoghue, and Setzer}}}
\bibcite{Kalman}{{11}{1960}{{Kalman}}{{}}}
\bibcite{moradifam}{{12}{2011}{{Moradifam and Nachman}}{{}}}
\bibcite{adarestart}{{13}{2013}{{O'Donoghue and Candes}}{{}}}
\bibcite{soc}{{14}{2012}{{O'Donoghue et~al.}}{{O'Donoghue, Stathopoulos, and Boyd}}}
\bibcite{Passty}{{15}{1977}{{Passty}}{{}}}
\bibcite{primbs}{{16}{2001}{{Primbs}}{{}}}
\bibcite{CLQR}{{17}{1998}{{Scokaert and Rawlings}}{{}}}
\bibcite{CLQR_long}{{18}{2014}{{Stathopoulos et~al.}}{{Stathopoulos, Korda, and Jones}}}
\bibcite{svaiter}{{19}{2011}{{Svaiter}}{{}}}
\bibcite{Sznaier}{{20}{1987}{{Sznaier and Damborg}}{{}}}
\bibcite{Tseng:1991}{{21}{1991}{{Tseng}}{{}}}
\@writefile{lof}{\contentsline {figure}{\numberline {4}{\ignorespaces \relax \fontsize  {8}{9}\selectfont  \abovedisplayskip 4\p@ plus1\p@ minus1\p@ \belowdisplayskip \abovedisplayskip \abovedisplayshortskip \z@ plus1\p@ \belowdisplayshortskip 3\p@ plus1\p@ minus1\p@ \def \leftmargin \leftmargini \labelwidth \labelwidthi \labelsep 0.5em\topsep \z@ \partopsep \z@ \parsep \z@ \itemsep \z@ \listparindent 1em{\topsep 0.5\@bls \parsep \z@ \itemsep \parsep }Histogram of $T^{\infty } = \qopname  \relax m{max}_{k}\{T^k\}$ for 64 initial conditions sampled uniformly around the origin with standard deviation 0.5.}}{6}}
\newlabel{fig:HTs_quad}{{4}{6}}
\@writefile{lof}{\contentsline {figure}{\numberline {5}{\ignorespaces \relax \fontsize  {8}{9}\selectfont  \abovedisplayskip 4\p@ plus1\p@ minus1\p@ \belowdisplayskip \abovedisplayskip \abovedisplayshortskip \z@ plus1\p@ \belowdisplayshortskip 3\p@ plus1\p@ minus1\p@ \def \leftmargin \leftmargini \labelwidth \labelwidthi \labelsep 0.5em\topsep \z@ \partopsep \z@ \parsep \z@ \itemsep \z@ \listparindent 1em{\topsep 0.5\@bls \parsep \z@ \itemsep \parsep }Evolution of the sequence $T^k$ defined in\nobreakspace  {}(8\hbox {}).}}{6}}
\newlabel{fig:Tinfconv}{{5}{6}}
\@writefile{toc}{\contentsline {section}{\numberline {8}Conclusion}{6}}
\@writefile{toc}{\vspace {6pt}}
\@writefile{toc}{\contentsline {section}{Acknowledgements}{6}}
\global\c@lastpage=6
\global\NAT@numbersfalse
