%!PS-Adobe-3.0 EPSF-3.0
%%Creator: MATLAB, The MathWorks, Inc. Version 8.3.0.532 (R2014a). Operating System: Darwin 14.0.0 Darwin Kernel Version 14.0.0: Fri Sep 19 00:26:44 PDT 2014; root:xnu-2782.1.97~2/RELEASE_X86_64 x86_64.
%%Title: /Users/georgios/Documents/Research/Constrained_LQR/Matlab_Code/Dense_Form/FISTA/Figures/BoxANDWhiskers.eps
%%CreationDate: 01/12/2015  21:42:52
%%DocumentNeededFonts: Helvetica
%%DocumentProcessColors: Cyan Magenta Yellow Black
%%LanguageLevel: 2
%%Pages: 1
%%BoundingBox:    81   227   530   564
%%EndComments

%%BeginProlog
% MathWorks dictionary
/MathWorks 160 dict begin
% definition operators
/bdef {bind def} bind def
/ldef {load def} bind def
/xdef {exch def} bdef
/xstore {exch store} bdef
% operator abbreviations
/c  /clip ldef
/cc /concat ldef
/cp /closepath ldef
/gr /grestore ldef
/gs /gsave ldef
/mt /moveto ldef
/np /newpath ldef
/cm /currentmatrix ldef
/sm /setmatrix ldef
/rm /rmoveto ldef
/rl /rlineto ldef
/s {show newpath} bdef
/sc {setcmykcolor} bdef
/sr /setrgbcolor ldef
/sg /setgray ldef
/w /setlinewidth ldef
/j /setlinejoin ldef
/cap /setlinecap ldef
/rc {rectclip} bdef
/rf {rectfill} bdef
% page state control
/pgsv () def
/bpage {/pgsv save def} bdef
/epage {pgsv restore} bdef
/bplot /gsave ldef
/eplot {stroke grestore} bdef
% orientation switch
/portraitMode 0 def /landscapeMode 1 def /rotateMode 2 def
% coordinate system mappings
/dpi2point 0 def
% font control
/FontSize 0 def
/FMS {/FontSize xstore findfont [FontSize 0 0 FontSize neg 0 0]
  makefont setfont} bdef
/reencode {exch dup where {pop load} {pop StandardEncoding} ifelse
  exch dup 3 1 roll findfont dup length dict begin
  { 1 index /FID ne {def}{pop pop} ifelse } forall
  /Encoding exch def currentdict end definefont pop} bdef
/isroman {findfont /CharStrings get /Agrave known} bdef
/FMSR {3 1 roll 1 index dup isroman {reencode} {pop pop} ifelse
  exch FMS} bdef
/csm {1 dpi2point div -1 dpi2point div scale neg translate
 dup landscapeMode eq {pop -90 rotate}
  {rotateMode eq {90 rotate} if} ifelse} bdef
% line types: solid, dotted, dashed, dotdash
/SO { [] 0 setdash } bdef
/DO { [.5 dpi2point mul 4 dpi2point mul] 0 setdash } bdef
/DA { [6 dpi2point mul] 0 setdash } bdef
/DD { [.5 dpi2point mul 4 dpi2point mul 6 dpi2point mul 4
  dpi2point mul] 0 setdash } bdef
% macros for lines and objects
/L {lineto stroke} bdef
/MP {3 1 roll moveto 1 sub {rlineto} repeat} bdef
/AP {{rlineto} repeat} bdef
/PDlw -1 def
/W {/PDlw currentlinewidth def setlinewidth} def
/PP {closepath eofill} bdef
/DP {closepath stroke} bdef
/MR {4 -2 roll moveto dup  0 exch rlineto exch 0 rlineto
  neg 0 exch rlineto closepath} bdef
/FR {MR stroke} bdef
/PR {MR fill} bdef
/L1i {{currentfile picstr readhexstring pop} image} bdef
/tMatrix matrix def
/MakeOval {newpath tMatrix currentmatrix pop translate scale
0 0 1 0 360 arc tMatrix setmatrix} bdef
/FO {MakeOval stroke} bdef
/PO {MakeOval fill} bdef
/PD {currentlinewidth 2 div 0 360 arc fill
   PDlw -1 eq not {PDlw w /PDlw -1 def} if} def
/FA {newpath tMatrix currentmatrix pop translate scale
  0 0 1 5 -2 roll arc tMatrix setmatrix stroke} bdef
/PA {newpath tMatrix currentmatrix pop	translate 0 0 moveto scale
  0 0 1 5 -2 roll arc closepath tMatrix setmatrix fill} bdef
/FAn {newpath tMatrix currentmatrix pop translate scale
  0 0 1 5 -2 roll arcn tMatrix setmatrix stroke} bdef
/PAn {newpath tMatrix currentmatrix pop translate 0 0 moveto scale
  0 0 1 5 -2 roll arcn closepath tMatrix setmatrix fill} bdef
/vradius 0 def /hradius 0 def /lry 0 def
/lrx 0 def /uly 0 def /ulx 0 def /rad 0 def
/MRR {/vradius xdef /hradius xdef /lry xdef /lrx xdef /uly xdef
  /ulx xdef newpath tMatrix currentmatrix pop ulx hradius add uly
  vradius add translate hradius vradius scale 0 0 1 180 270 arc 
  tMatrix setmatrix lrx hradius sub uly vradius add translate
  hradius vradius scale 0 0 1 270 360 arc tMatrix setmatrix
  lrx hradius sub lry vradius sub translate hradius vradius scale
  0 0 1 0 90 arc tMatrix setmatrix ulx hradius add lry vradius sub
  translate hradius vradius scale 0 0 1 90 180 arc tMatrix setmatrix
  closepath} bdef
/FRR {MRR stroke } bdef
/PRR {MRR fill } bdef
/MlrRR {/lry xdef /lrx xdef /uly xdef /ulx xdef /rad lry uly sub 2 div def
  newpath tMatrix currentmatrix pop ulx rad add uly rad add translate
  rad rad scale 0 0 1 90 270 arc tMatrix setmatrix lrx rad sub lry rad
  sub translate rad rad scale 0 0 1 270 90 arc tMatrix setmatrix
  closepath} bdef
/FlrRR {MlrRR stroke } bdef
/PlrRR {MlrRR fill } bdef
/MtbRR {/lry xdef /lrx xdef /uly xdef /ulx xdef /rad lrx ulx sub 2 div def
  newpath tMatrix currentmatrix pop ulx rad add uly rad add translate
  rad rad scale 0 0 1 180 360 arc tMatrix setmatrix lrx rad sub lry rad
  sub translate rad rad scale 0 0 1 0 180 arc tMatrix setmatrix
  closepath} bdef
/FtbRR {MtbRR stroke } bdef
/PtbRR {MtbRR fill } bdef
/stri 6 array def /dtri 6 array def
/smat 6 array def /dmat 6 array def
/tmat1 6 array def /tmat2 6 array def /dif 3 array def
/asub {/ind2 exch def /ind1 exch def dup dup
  ind1 get exch ind2 get sub exch } bdef
/tri_to_matrix {
  2 0 asub 3 1 asub 4 0 asub 5 1 asub
  dup 0 get exch 1 get 7 -1 roll astore } bdef
/compute_transform {
  dmat dtri tri_to_matrix tmat1 invertmatrix 
  smat stri tri_to_matrix tmat2 concatmatrix } bdef
/ds {stri astore pop} bdef
/dt {dtri astore pop} bdef
/db {2 copy /cols xdef /rows xdef mul dup 3 mul string
  currentfile 
  3 index 0 eq {/ASCIIHexDecode filter}
  {/ASCII85Decode filter 3 index 2 eq {/RunLengthDecode filter} if }
  ifelse exch readstring pop
  dup 0 3 index getinterval /rbmap xdef
  dup 2 index dup getinterval /gbmap xdef
  1 index dup 2 mul exch getinterval /bbmap xdef pop pop}bdef
/it {gs np dtri aload pop moveto lineto lineto cp c
  cols rows 8 compute_transform 
  rbmap gbmap bbmap true 3 colorimage gr}bdef
/il {newpath moveto lineto stroke}bdef
currentdict end def
%%EndProlog

%%BeginSetup
MathWorks begin

0 cap

end
%%EndSetup

%%Page: 1 1
%%BeginPageSetup
%%PageBoundingBox:    81   227   530   564
MathWorks begin
bpage
%%EndPageSetup

%%BeginObject: obj1
bplot

/dpi2point 4.16667 def
portraitMode 0337 2350 csm

    0     0  1871  1403 rc
88 dict begin %Colortable dictionary
/c0 { 0.000000 0.000000 0.000000 sr} bdef
/c1 { 1.000000 1.000000 1.000000 sr} bdef
/c2 { 0.900000 0.000000 0.000000 sr} bdef
/c3 { 0.000000 0.820000 0.000000 sr} bdef
/c4 { 0.000000 0.000000 0.800000 sr} bdef
/c5 { 0.910000 0.820000 0.320000 sr} bdef
/c6 { 1.000000 0.260000 0.820000 sr} bdef
/c7 { 0.000000 0.820000 0.820000 sr} bdef
c0
1 j
1 sg
   0    0 1872 1404 rf
10.4167 w
0 1199 1645 0 0 -1199 223 1313 4 MP
PP
-1645 0 0 1199 1645 0 0 -1199 223 1313 5 MP stroke
6.94444 w
DO
SO
10.4167 w
0 sg
 223 1313 mt 1868 1313 L
 223  114 mt 1868  114 L
 223 1313 mt  223  114 L
1868 1313 mt 1868  114 L
 223 1313 mt 1868 1313 L
 223 1313 mt  223  114 L
 634 1313 mt  634 1296 L
 634  114 mt  634  130 L
%%IncludeResource: font Helvetica
/Helvetica /ISOLatin1Encoding 66.6667 FMSR

 573 1387 mt 
(cold) s
1456 1313 mt 1456 1296 L
1456  114 mt 1456  130 L
1375 1387 mt 
(warm) s
 223 1313 mt  239 1313 L
1868 1313 mt 1851 1313 L
 174 1337 mt 
(0) s
 223 1013 mt  239 1013 L
1868 1013 mt 1851 1013 L
 137 1037 mt 
(50) s
 223  713 mt  239  713 L
1868  713 mt 1851  713 L
 100  737 mt 
(100) s
 223  413 mt  239  413 L
1868  413 mt 1851  413 L
 100  437 mt 
(150) s
 223  114 mt  239  114 L
1868  114 mt 1851  114 L
 100  138 mt 
(200) s
 223 1313 mt 1868 1313 L
 223  114 mt 1868  114 L
 223 1313 mt  223  114 L
1868 1313 mt 1868  114 L
gs 223 114 1646 1200 rc
gr

4 W
0.6 sg
490 709 PD
4 W
490 703 PD
4 W
490 557 PD
4 W
490 553 PD
4 W
490 497 PD
gs 223 114 1646 1200 rc
DO
0 sg
0 339 490 850 2 MP stroke
SO
144 0 418 850 2 MP stroke
144 0 418 1189 2 MP stroke
2.08333 w
0 j
/c8 { 0.600000 0.800000 1.000000 sr} bdef
c8
 375  947  230  122 rf
0 sg
 375  947  230  122 rectstroke
1 j
10.4167 w
230 0 375 1004 2 MP stroke
gr

0 sg
c8
  12   12  490  868 PO
0 sg
  12   12  490  868 FO
gs 223 114 1646 1200 rc
gr

4 W
0.6 sg
1312 1072 PD
4 W
1312 1065 PD
4 W
1312 1057 PD
4 W
1312 950 PD
4 W
1312 899 PD
4 W
1312 881 PD
4 W
1312 804 PD
4 W
1312 666 PD
4 W
1312 632 PD
4 W
1312 615 PD
4 W
1312 542 PD
4 W
1312 405 PD
4 W
1312 166 PD
gs 223 114 1646 1200 rc
DO
0 sg
0 108 1312 1140 2 MP stroke
SO
144 0 1240 1140 2 MP stroke
144 0 1240 1248 2 MP stroke
2.08333 w
0 j
c8
1197 1153  230   55 rf
0 sg
1197 1153  230   55 rectstroke
1 j
10.4167 w
230 0 1197 1175 2 MP stroke
gr

0 sg
c8
  12   12 1312 1039 PO
0 sg
  12   12 1312 1039 FO
gs 223 114 1646 1200 rc
gr

4 W
0.6 sg
778 709 PD
4 W
778 658 PD
4 W
778 585 PD
4 W
778 519 PD
4 W
778 313 PD
gs 223 114 1646 1200 rc
DO
0 sg
0 445 778 741 2 MP stroke
SO
144 0 706 741 2 MP stroke
144 0 706 1186 2 MP stroke
2.08333 w
0 j
/c9 { 0.000000 0.200000 0.600000 sr} bdef
c9
 663  938  230  140 rf
0 sg
 663  938  230  140 rectstroke
1 j
10.4167 w
230 0 663 1010 2 MP stroke
gr

0 sg
c9
  12   12  778  908 PO
0 sg
  12   12  778  908 FO
gs 223 114 1646 1200 rc
gr

4 W
0.6 sg
1600 972 PD
4 W
1600 962 PD
4 W
1600 954 PD
4 W
1600 938 PD
4 W
1600 912 PD
4 W
1600 848 PD
4 W
1600 799 PD
4 W
1600 763 PD
4 W
1600 729 PD
4 W
1600 695 PD
4 W
1600 432 PD
gs 223 114 1646 1200 rc
DO
0 sg
0 175 1600 1066 2 MP stroke
SO
144 0 1528 1066 2 MP stroke
144 0 1528 1241 2 MP stroke
2.08333 w
0 j
c9
1485 1126  230   74 rf
0 sg
1485 1126  230   74 rectstroke
1 j
10.4167 w
230 0 1485 1162 2 MP stroke
gr

0 sg
c9
  12   12 1600 1008 PO
0 sg
  12   12 1600 1008 FO
gs 223 114 1646 1200 rc
gr

 552   62 mt 
(Box Plots: Cold VS Warm starting) s
  65 1014 mt  -90 rotate
(Number of iterations) s
90 rotate
 214 1338 mt 
( ) s
1860  138 mt 
( ) s
1 sg
0 137 304 0 0 -137 1544 272 4 MP
PP
-304 0 0 137 304 0 0 -137 1544 272 5 MP stroke
6.94444 w
DO
SO
10.4167 w
0 sg
1544  272 mt 1848  272 L
1544  135 mt 1848  135 L
1544  272 mt 1544  135 L
1848  272 mt 1848  135 L
1544  272 mt 1848  272 L
1544  272 mt 1544  135 L
1544  272 mt 1848  272 L
1544  135 mt 1848  135 L
1544  272 mt 1544  135 L
1848  272 mt 1848  135 L
%%IncludeResource: font Helvetica
/Helvetica /ISOLatin1Encoding 50 FMSR

1701  191 mt 
(0.5 %) s
gs 1544 135 305 138 rc
c8
-120 0 0 46 120 0 0 -46 1568 195 5 MP
PP
2.08333 w
0 sg
0 0 -120 0 0 46 120 0 0 -46 1568 195 6 MP stroke
gr

2.08333 w
1701  253 mt 
(1 %) s
gs 1544 135 305 138 rc
c9
-120 0 0 46 120 0 0 -46 1568 257 5 MP
PP
0 sg
0 0 -120 0 0 46 120 0 0 -46 1568 257 6 MP stroke
10.4167 w
gr

10.4167 w

end %%Color Dict

eplot
%%EndObject

epage
end

showpage

%%Trailer
%%EOF
