%!PS-Adobe-3.0 EPSF-3.0
%%Creator: MATLAB, The MathWorks, Inc. Version 8.3.0.532 (R2014a). Operating System: Darwin 12.5.0 Darwin Kernel Version 12.5.0: Sun Sep 29 13:33:47 PDT 2013; root:xnu-2050.48.12~1/RELEASE_X86_64 x86_64.
%%Title: /Users/georgios/Documents/Research/Constrained LQR using splitting methods/Matlab code/Dense form/FISTA/Figures/HorzsCLQR_VS_MPC.eps
%%CreationDate: 12/20/2014  16:29:04
%%DocumentNeededFonts: Helvetica
%%DocumentProcessColors: Cyan Magenta Yellow Black
%%LanguageLevel: 2
%%Pages: 1
%%BoundingBox:    82   227   530   564
%%EndComments

%%BeginProlog
% MathWorks dictionary
/MathWorks 160 dict begin
% definition operators
/bdef {bind def} bind def
/ldef {load def} bind def
/xdef {exch def} bdef
/xstore {exch store} bdef
% operator abbreviations
/c  /clip ldef
/cc /concat ldef
/cp /closepath ldef
/gr /grestore ldef
/gs /gsave ldef
/mt /moveto ldef
/np /newpath ldef
/cm /currentmatrix ldef
/sm /setmatrix ldef
/rm /rmoveto ldef
/rl /rlineto ldef
/s {show newpath} bdef
/sc {setcmykcolor} bdef
/sr /setrgbcolor ldef
/sg /setgray ldef
/w /setlinewidth ldef
/j /setlinejoin ldef
/cap /setlinecap ldef
/rc {rectclip} bdef
/rf {rectfill} bdef
% page state control
/pgsv () def
/bpage {/pgsv save def} bdef
/epage {pgsv restore} bdef
/bplot /gsave ldef
/eplot {stroke grestore} bdef
% orientation switch
/portraitMode 0 def /landscapeMode 1 def /rotateMode 2 def
% coordinate system mappings
/dpi2point 0 def
% font control
/FontSize 0 def
/FMS {/FontSize xstore findfont [FontSize 0 0 FontSize neg 0 0]
  makefont setfont} bdef
/reencode {exch dup where {pop load} {pop StandardEncoding} ifelse
  exch dup 3 1 roll findfont dup length dict begin
  { 1 index /FID ne {def}{pop pop} ifelse } forall
  /Encoding exch def currentdict end definefont pop} bdef
/isroman {findfont /CharStrings get /Agrave known} bdef
/FMSR {3 1 roll 1 index dup isroman {reencode} {pop pop} ifelse
  exch FMS} bdef
/csm {1 dpi2point div -1 dpi2point div scale neg translate
 dup landscapeMode eq {pop -90 rotate}
  {rotateMode eq {90 rotate} if} ifelse} bdef
% line types: solid, dotted, dashed, dotdash
/SO { [] 0 setdash } bdef
/DO { [.5 dpi2point mul 4 dpi2point mul] 0 setdash } bdef
/DA { [6 dpi2point mul] 0 setdash } bdef
/DD { [.5 dpi2point mul 4 dpi2point mul 6 dpi2point mul 4
  dpi2point mul] 0 setdash } bdef
% macros for lines and objects
/L {lineto stroke} bdef
/MP {3 1 roll moveto 1 sub {rlineto} repeat} bdef
/AP {{rlineto} repeat} bdef
/PDlw -1 def
/W {/PDlw currentlinewidth def setlinewidth} def
/PP {closepath eofill} bdef
/DP {closepath stroke} bdef
/MR {4 -2 roll moveto dup  0 exch rlineto exch 0 rlineto
  neg 0 exch rlineto closepath} bdef
/FR {MR stroke} bdef
/PR {MR fill} bdef
/L1i {{currentfile picstr readhexstring pop} image} bdef
/tMatrix matrix def
/MakeOval {newpath tMatrix currentmatrix pop translate scale
0 0 1 0 360 arc tMatrix setmatrix} bdef
/FO {MakeOval stroke} bdef
/PO {MakeOval fill} bdef
/PD {currentlinewidth 2 div 0 360 arc fill
   PDlw -1 eq not {PDlw w /PDlw -1 def} if} def
/FA {newpath tMatrix currentmatrix pop translate scale
  0 0 1 5 -2 roll arc tMatrix setmatrix stroke} bdef
/PA {newpath tMatrix currentmatrix pop	translate 0 0 moveto scale
  0 0 1 5 -2 roll arc closepath tMatrix setmatrix fill} bdef
/FAn {newpath tMatrix currentmatrix pop translate scale
  0 0 1 5 -2 roll arcn tMatrix setmatrix stroke} bdef
/PAn {newpath tMatrix currentmatrix pop translate 0 0 moveto scale
  0 0 1 5 -2 roll arcn closepath tMatrix setmatrix fill} bdef
/vradius 0 def /hradius 0 def /lry 0 def
/lrx 0 def /uly 0 def /ulx 0 def /rad 0 def
/MRR {/vradius xdef /hradius xdef /lry xdef /lrx xdef /uly xdef
  /ulx xdef newpath tMatrix currentmatrix pop ulx hradius add uly
  vradius add translate hradius vradius scale 0 0 1 180 270 arc 
  tMatrix setmatrix lrx hradius sub uly vradius add translate
  hradius vradius scale 0 0 1 270 360 arc tMatrix setmatrix
  lrx hradius sub lry vradius sub translate hradius vradius scale
  0 0 1 0 90 arc tMatrix setmatrix ulx hradius add lry vradius sub
  translate hradius vradius scale 0 0 1 90 180 arc tMatrix setmatrix
  closepath} bdef
/FRR {MRR stroke } bdef
/PRR {MRR fill } bdef
/MlrRR {/lry xdef /lrx xdef /uly xdef /ulx xdef /rad lry uly sub 2 div def
  newpath tMatrix currentmatrix pop ulx rad add uly rad add translate
  rad rad scale 0 0 1 90 270 arc tMatrix setmatrix lrx rad sub lry rad
  sub translate rad rad scale 0 0 1 270 90 arc tMatrix setmatrix
  closepath} bdef
/FlrRR {MlrRR stroke } bdef
/PlrRR {MlrRR fill } bdef
/MtbRR {/lry xdef /lrx xdef /uly xdef /ulx xdef /rad lrx ulx sub 2 div def
  newpath tMatrix currentmatrix pop ulx rad add uly rad add translate
  rad rad scale 0 0 1 180 360 arc tMatrix setmatrix lrx rad sub lry rad
  sub translate rad rad scale 0 0 1 0 180 arc tMatrix setmatrix
  closepath} bdef
/FtbRR {MtbRR stroke } bdef
/PtbRR {MtbRR fill } bdef
/stri 6 array def /dtri 6 array def
/smat 6 array def /dmat 6 array def
/tmat1 6 array def /tmat2 6 array def /dif 3 array def
/asub {/ind2 exch def /ind1 exch def dup dup
  ind1 get exch ind2 get sub exch } bdef
/tri_to_matrix {
  2 0 asub 3 1 asub 4 0 asub 5 1 asub
  dup 0 get exch 1 get 7 -1 roll astore } bdef
/compute_transform {
  dmat dtri tri_to_matrix tmat1 invertmatrix 
  smat stri tri_to_matrix tmat2 concatmatrix } bdef
/ds {stri astore pop} bdef
/dt {dtri astore pop} bdef
/db {2 copy /cols xdef /rows xdef mul dup 3 mul string
  currentfile 
  3 index 0 eq {/ASCIIHexDecode filter}
  {/ASCII85Decode filter 3 index 2 eq {/RunLengthDecode filter} if }
  ifelse exch readstring pop
  dup 0 3 index getinterval /rbmap xdef
  dup 2 index dup getinterval /gbmap xdef
  1 index dup 2 mul exch getinterval /bbmap xdef pop pop}bdef
/it {gs np dtri aload pop moveto lineto lineto cp c
  cols rows 8 compute_transform 
  rbmap gbmap bbmap true 3 colorimage gr}bdef
/il {newpath moveto lineto stroke}bdef
currentdict end def
%%EndProlog

%%BeginSetup
MathWorks begin

0 cap

end
%%EndSetup

%%Page: 1 1
%%BeginPageSetup
%%PageBoundingBox:    82   227   530   564
MathWorks begin
bpage
%%EndPageSetup

%%BeginObject: obj1
bplot

/dpi2point 4.16667 def
portraitMode 0341 2350 csm

    0     0  1867  1401 rc
85 dict begin %Colortable dictionary
/c0 { 0.000000 0.000000 0.000000 sr} bdef
/c1 { 1.000000 1.000000 1.000000 sr} bdef
/c2 { 0.900000 0.000000 0.000000 sr} bdef
/c3 { 0.000000 0.820000 0.000000 sr} bdef
/c4 { 0.000000 0.000000 0.800000 sr} bdef
/c5 { 0.910000 0.820000 0.320000 sr} bdef
/c6 { 1.000000 0.260000 0.820000 sr} bdef
/c7 { 0.000000 0.820000 0.820000 sr} bdef
c0
1 j
1 sg
   0    0 1868 1402 rf
6.25 w
0 1109 1604 0 0 -1109 225 1223 4 MP
PP
-1604 0 0 1109 1604 0 0 -1109 225 1223 5 MP stroke
4.16667 w
DO
SO
6.25 w
0 sg
 225 1223 mt 1829 1223 L
 225  114 mt 1829  114 L
 225 1223 mt  225  114 L
1829 1223 mt 1829  114 L
 225 1223 mt 1829 1223 L
 225 1223 mt  225  114 L
 225 1223 mt  225 1206 L
 225  114 mt  225  130 L
%%IncludeResource: font Helvetica
/Helvetica /ISOLatin1Encoding 66.6667 FMSR

 207 1297 mt 
(5) s
 454 1223 mt  454 1206 L
 454  114 mt  454  130 L
 417 1297 mt 
(10) s
 683 1223 mt  683 1206 L
 683  114 mt  683  130 L
 646 1297 mt 
(15) s
 912 1223 mt  912 1206 L
 912  114 mt  912  130 L
 875 1297 mt 
(20) s
1141 1223 mt 1141 1206 L
1141  114 mt 1141  130 L
1104 1297 mt 
(25) s
1370 1223 mt 1370 1206 L
1370  114 mt 1370  130 L
1333 1297 mt 
(30) s
1599 1223 mt 1599 1206 L
1599  114 mt 1599  130 L
1562 1297 mt 
(35) s
1829 1223 mt 1829 1206 L
1829  114 mt 1829  130 L
1792 1297 mt 
(40) s
 225 1223 mt  241 1223 L
1829 1223 mt 1812 1223 L
 121 1247 mt 
(0.5) s
 225 1064 mt  241 1064 L
1829 1064 mt 1812 1064 L
 121 1088 mt 
(0.6) s
 225  906 mt  241  906 L
1829  906 mt 1812  906 L
 121  930 mt 
(0.7) s
 225  747 mt  241  747 L
1829  747 mt 1812  747 L
 121  771 mt 
(0.8) s
 225  589 mt  241  589 L
1829  589 mt 1812  589 L
 121  613 mt 
(0.9) s
 225  430 mt  241  430 L
1829  430 mt 1812  430 L
 176  454 mt 
(1) s
 225  272 mt  241  272 L
1829  272 mt 1812  272 L
 121  296 mt 
(1.1) s
 225  114 mt  241  114 L
1829  114 mt 1812  114 L
 121  138 mt 
(1.2) s
 225 1223 mt 1829 1223 L
 225  114 mt 1829  114 L
 225 1223 mt  225  114 L
1829 1223 mt 1829  114 L
gs 225 114 1605 1110 rc
DA
46 0 45 0 321 0 46 0 229 0 46 0 46 0 183 0 
92 0 46 2 46 -2 91 0 46 0 46 86 316 344 15 MP stroke
gr

DA
SO
  12   12  316  344 FO
  12   12  362  430 FO
  12   12  408  430 FO
  12   12  499  430 FO
  12   12  545  428 FO
  12   12  591  430 FO
  12   12  683  430 FO
  12   12  866  430 FO
  12   12  912  430 FO
  12   12  958  430 FO
  12   12 1187  430 FO
  12   12 1233  430 FO
  12   12 1554  430 FO
  12   12 1599  430 FO
  12   12 1645  430 FO
DA
gs 225 114 1605 1110 rc
46 0 45 0 321 0 46 0 229 0 46 0 46 0 183 0 
92 0 46 0 46 0 91 0 46 0 46 111 316 319 15 MP stroke
gr

SO
 304  319 mt  328  319 L
 316  307 mt  316  331 L
 350  430 mt  374  430 L
 362  418 mt  362  442 L
 396  430 mt  420  430 L
 408  418 mt  408  442 L
 487  430 mt  511  430 L
 499  418 mt  499  442 L
 533  430 mt  557  430 L
 545  418 mt  545  442 L
 579  430 mt  603  430 L
 591  418 mt  591  442 L
 671  430 mt  695  430 L
 683  418 mt  683  442 L
 854  430 mt  878  430 L
 866  418 mt  866  442 L
 900  430 mt  924  430 L
 912  418 mt  912  442 L
 946  430 mt  970  430 L
 958  418 mt  958  442 L
1175  430 mt 1199  430 L
1187  418 mt 1187  442 L
1221  430 mt 1245  430 L
1233  418 mt 1233  442 L
1542  430 mt 1566  430 L
1554  418 mt 1554  442 L
1587  430 mt 1611  430 L
1599  418 mt 1599  442 L
1633  430 mt 1657  430 L
1645  418 mt 1645  442 L
 308  311 mt  324  327 L
 324  311 mt  308  327 L
 354  422 mt  370  438 L
 370  422 mt  354  438 L
 400  422 mt  416  438 L
 416  422 mt  400  438 L
 491  422 mt  507  438 L
 507  422 mt  491  438 L
 537  422 mt  553  438 L
 553  422 mt  537  438 L
 583  422 mt  599  438 L
 599  422 mt  583  438 L
 675  422 mt  691  438 L
 691  422 mt  675  438 L
 858  422 mt  874  438 L
 874  422 mt  858  438 L
 904  422 mt  920  438 L
 920  422 mt  904  438 L
 950  422 mt  966  438 L
 966  422 mt  950  438 L
1179  422 mt 1195  438 L
1195  422 mt 1179  438 L
1225  422 mt 1241  438 L
1241  422 mt 1225  438 L
1546  422 mt 1562  438 L
1562  422 mt 1546  438 L
1591  422 mt 1607  438 L
1607  422 mt 1591  438 L
1637  422 mt 1653  438 L
1653  422 mt 1637  438 L
DA
gs 225 114 1605 1110 rc
/c8 { 0.000000 0.000000 1.000000 sr} bdef
c8
46 36 45 39 321 -61 46 50 229 -209 46 57 46 62 183 334 
92 -732 46 72 46 84 91 224 46 154 46 198 316 430 15 MP stroke
gr

c8
SO
0 j
-13 23 -13 -23 26 0 303 438 4 MP
DP
-13 23 -13 -23 26 0 349 636 4 MP
DP
-13 23 -13 -23 26 0 395 790 4 MP
DP
-13 23 -13 -23 26 0 486 1014 4 MP
DP
-13 23 -13 -23 26 0 532 1098 4 MP
DP
-13 23 -13 -23 26 0 578 1170 4 MP
DP
-13 23 -13 -23 26 0 670 438 4 MP
DP
-13 23 -13 -23 26 0 853 772 4 MP
DP
-13 23 -13 -23 26 0 899 834 4 MP
DP
-13 23 -13 -23 26 0 945 891 4 MP
DP
-13 23 -13 -23 26 0 1174 682 4 MP
DP
-13 23 -13 -23 26 0 1220 732 4 MP
DP
-13 23 -13 -23 26 0 1541 671 4 MP
DP
-13 23 -13 -23 26 0 1586 710 4 MP
DP
-13 23 -13 -23 26 0 1632 746 4 MP
DP
DA
gs 225 114 1605 1110 rc
gr

0 sg
 612   62 mt 
(Horizons length comparison) s
 754 1384 mt 
(Optimal horizon T) s
%%IncludeResource: font Symbol
/Symbol /ISOLatin1Encoding 50 FMSR

1276 1351 mt 
(*) s
%%IncludeResource: font Helvetica
/Helvetica /ISOLatin1Encoding 66.6667 FMSR

  86  835 mt  -90 rotate
(Ratio T / T) s
90 rotate
%%IncludeResource: font Symbol
/Symbol /ISOLatin1Encoding 50 FMSR

  53  531 mt  -90 rotate
(*) s
90 rotate
%%IncludeResource: font Helvetica
/Helvetica /ISOLatin1Encoding 66.6667 FMSR

 216 1248 mt 
( ) s
1821  138 mt 
( ) s
SO
1 sg
0 290 353 0 0 -290 1456 425 4 MP
PP
-353 0 0 290 353 0 0 -290 1456 425 5 MP stroke
4.16667 w
DO
SO
6.25 w
0 sg
1456  425 mt 1809  425 L
1456  135 mt 1809  135 L
1456  425 mt 1456  135 L
1809  425 mt 1809  135 L
1456  425 mt 1809  425 L
1456  425 mt 1456  135 L
1456  425 mt 1809  425 L
1456  135 mt 1809  135 L
1456  425 mt 1456  135 L
1809  425 mt 1809  135 L
%%IncludeResource: font Helvetica
/Helvetica /ISOLatin1Encoding 50 FMSR

1601  206 mt 
(T) s
%%IncludeResource: font Symbol
/Symbol /ISOLatin1Encoding 37.5 FMSR

1631  181 mt 
(\245) s
%%IncludeResource: font Helvetica
/Helvetica /ISOLatin1Encoding 50 FMSR

1657  206 mt 
( / T) s
%%IncludeResource: font Symbol
/Symbol /ISOLatin1Encoding 37.5 FMSR

1726  181 mt 
(*) s
gs 1456 135 354 291 rc
DA
111 0 1478 180 2 MP stroke
SO
gs 1500 146 68 68 rc
  12   12 1534  180 FO
gr

gr

%%IncludeResource: font Helvetica
/Helvetica /ISOLatin1Encoding 50 FMSR

1601  284 mt 
(T) s
%%IncludeResource: font Helvetica
/Helvetica /ISOLatin1Encoding 37.5 FMSR

1631  309 mt 
(w) s
%%IncludeResource: font Symbol
/Symbol /ISOLatin1Encoding 37.5 FMSR

1631  259 mt 
(\245) s
%%IncludeResource: font Helvetica
/Helvetica /ISOLatin1Encoding 50 FMSR

1658  284 mt 
( / T) s
%%IncludeResource: font Symbol
/Symbol /ISOLatin1Encoding 37.5 FMSR

1727  259 mt 
(*) s
gs 1456 135 354 291 rc
DA
111 0 1478 268 2 MP stroke
SO
gs 1500 234 68 68 rc
1522  268 mt 1546  268 L
1534  256 mt 1534  280 L
1526  260 mt 1542  276 L
1542  260 mt 1526  276 L
gr

gr

%%IncludeResource: font Helvetica
/Helvetica /ISOLatin1Encoding 50 FMSR

1601  384 mt 
(T) s
%%IncludeResource: font Helvetica
/Helvetica /ISOLatin1Encoding 37.5 FMSR

1631  409 mt 
(min) s
%%IncludeResource: font Helvetica
/Helvetica /ISOLatin1Encoding 50 FMSR

1691  384 mt 
( / T) s
%%IncludeResource: font Symbol
/Symbol /ISOLatin1Encoding 37.5 FMSR

1760  359 mt 
(*) s
gs 1456 135 354 291 rc
DA
c8
111 0 1478 368 2 MP stroke
SO
gs 1500 334 68 68 rc
-13 23 -13 -23 26 0 1521 376 4 MP
DP
gr

gr

c8

end %%Color Dict

eplot
%%EndObject

epage
end

showpage

%%Trailer
%%EOF
