%!PS-Adobe-3.0 EPSF-3.0
%%Creator: MATLAB, The MathWorks, Inc. Version 8.3.0.532 (R2014a). Operating System: Darwin 12.5.0 Darwin Kernel Version 12.5.0: Sun Sep 29 13:33:47 PDT 2013; root:xnu-2050.48.12~1/RELEASE_X86_64 x86_64.
%%Title: /Users/georgios/Documents/Research/Constrained LQR using splitting methods/Matlab code/Dense form/FISTA/Figures/iters_finite_infinite_toy.eps
%%CreationDate: 12/20/2014  16:39:40
%%DocumentNeededFonts: Helvetica
%%DocumentProcessColors: Cyan Magenta Yellow Black
%%LanguageLevel: 2
%%Pages: 1
%%BoundingBox:    82   227   530   564
%%EndComments

%%BeginProlog
% MathWorks dictionary
/MathWorks 160 dict begin
% definition operators
/bdef {bind def} bind def
/ldef {load def} bind def
/xdef {exch def} bdef
/xstore {exch store} bdef
% operator abbreviations
/c  /clip ldef
/cc /concat ldef
/cp /closepath ldef
/gr /grestore ldef
/gs /gsave ldef
/mt /moveto ldef
/np /newpath ldef
/cm /currentmatrix ldef
/sm /setmatrix ldef
/rm /rmoveto ldef
/rl /rlineto ldef
/s {show newpath} bdef
/sc {setcmykcolor} bdef
/sr /setrgbcolor ldef
/sg /setgray ldef
/w /setlinewidth ldef
/j /setlinejoin ldef
/cap /setlinecap ldef
/rc {rectclip} bdef
/rf {rectfill} bdef
% page state control
/pgsv () def
/bpage {/pgsv save def} bdef
/epage {pgsv restore} bdef
/bplot /gsave ldef
/eplot {stroke grestore} bdef
% orientation switch
/portraitMode 0 def /landscapeMode 1 def /rotateMode 2 def
% coordinate system mappings
/dpi2point 0 def
% font control
/FontSize 0 def
/FMS {/FontSize xstore findfont [FontSize 0 0 FontSize neg 0 0]
  makefont setfont} bdef
/reencode {exch dup where {pop load} {pop StandardEncoding} ifelse
  exch dup 3 1 roll findfont dup length dict begin
  { 1 index /FID ne {def}{pop pop} ifelse } forall
  /Encoding exch def currentdict end definefont pop} bdef
/isroman {findfont /CharStrings get /Agrave known} bdef
/FMSR {3 1 roll 1 index dup isroman {reencode} {pop pop} ifelse
  exch FMS} bdef
/csm {1 dpi2point div -1 dpi2point div scale neg translate
 dup landscapeMode eq {pop -90 rotate}
  {rotateMode eq {90 rotate} if} ifelse} bdef
% line types: solid, dotted, dashed, dotdash
/SO { [] 0 setdash } bdef
/DO { [.5 dpi2point mul 4 dpi2point mul] 0 setdash } bdef
/DA { [6 dpi2point mul] 0 setdash } bdef
/DD { [.5 dpi2point mul 4 dpi2point mul 6 dpi2point mul 4
  dpi2point mul] 0 setdash } bdef
% macros for lines and objects
/L {lineto stroke} bdef
/MP {3 1 roll moveto 1 sub {rlineto} repeat} bdef
/AP {{rlineto} repeat} bdef
/PDlw -1 def
/W {/PDlw currentlinewidth def setlinewidth} def
/PP {closepath eofill} bdef
/DP {closepath stroke} bdef
/MR {4 -2 roll moveto dup  0 exch rlineto exch 0 rlineto
  neg 0 exch rlineto closepath} bdef
/FR {MR stroke} bdef
/PR {MR fill} bdef
/L1i {{currentfile picstr readhexstring pop} image} bdef
/tMatrix matrix def
/MakeOval {newpath tMatrix currentmatrix pop translate scale
0 0 1 0 360 arc tMatrix setmatrix} bdef
/FO {MakeOval stroke} bdef
/PO {MakeOval fill} bdef
/PD {currentlinewidth 2 div 0 360 arc fill
   PDlw -1 eq not {PDlw w /PDlw -1 def} if} def
/FA {newpath tMatrix currentmatrix pop translate scale
  0 0 1 5 -2 roll arc tMatrix setmatrix stroke} bdef
/PA {newpath tMatrix currentmatrix pop	translate 0 0 moveto scale
  0 0 1 5 -2 roll arc closepath tMatrix setmatrix fill} bdef
/FAn {newpath tMatrix currentmatrix pop translate scale
  0 0 1 5 -2 roll arcn tMatrix setmatrix stroke} bdef
/PAn {newpath tMatrix currentmatrix pop translate 0 0 moveto scale
  0 0 1 5 -2 roll arcn closepath tMatrix setmatrix fill} bdef
/vradius 0 def /hradius 0 def /lry 0 def
/lrx 0 def /uly 0 def /ulx 0 def /rad 0 def
/MRR {/vradius xdef /hradius xdef /lry xdef /lrx xdef /uly xdef
  /ulx xdef newpath tMatrix currentmatrix pop ulx hradius add uly
  vradius add translate hradius vradius scale 0 0 1 180 270 arc 
  tMatrix setmatrix lrx hradius sub uly vradius add translate
  hradius vradius scale 0 0 1 270 360 arc tMatrix setmatrix
  lrx hradius sub lry vradius sub translate hradius vradius scale
  0 0 1 0 90 arc tMatrix setmatrix ulx hradius add lry vradius sub
  translate hradius vradius scale 0 0 1 90 180 arc tMatrix setmatrix
  closepath} bdef
/FRR {MRR stroke } bdef
/PRR {MRR fill } bdef
/MlrRR {/lry xdef /lrx xdef /uly xdef /ulx xdef /rad lry uly sub 2 div def
  newpath tMatrix currentmatrix pop ulx rad add uly rad add translate
  rad rad scale 0 0 1 90 270 arc tMatrix setmatrix lrx rad sub lry rad
  sub translate rad rad scale 0 0 1 270 90 arc tMatrix setmatrix
  closepath} bdef
/FlrRR {MlrRR stroke } bdef
/PlrRR {MlrRR fill } bdef
/MtbRR {/lry xdef /lrx xdef /uly xdef /ulx xdef /rad lrx ulx sub 2 div def
  newpath tMatrix currentmatrix pop ulx rad add uly rad add translate
  rad rad scale 0 0 1 180 360 arc tMatrix setmatrix lrx rad sub lry rad
  sub translate rad rad scale 0 0 1 0 180 arc tMatrix setmatrix
  closepath} bdef
/FtbRR {MtbRR stroke } bdef
/PtbRR {MtbRR fill } bdef
/stri 6 array def /dtri 6 array def
/smat 6 array def /dmat 6 array def
/tmat1 6 array def /tmat2 6 array def /dif 3 array def
/asub {/ind2 exch def /ind1 exch def dup dup
  ind1 get exch ind2 get sub exch } bdef
/tri_to_matrix {
  2 0 asub 3 1 asub 4 0 asub 5 1 asub
  dup 0 get exch 1 get 7 -1 roll astore } bdef
/compute_transform {
  dmat dtri tri_to_matrix tmat1 invertmatrix 
  smat stri tri_to_matrix tmat2 concatmatrix } bdef
/ds {stri astore pop} bdef
/dt {dtri astore pop} bdef
/db {2 copy /cols xdef /rows xdef mul dup 3 mul string
  currentfile 
  3 index 0 eq {/ASCIIHexDecode filter}
  {/ASCII85Decode filter 3 index 2 eq {/RunLengthDecode filter} if }
  ifelse exch readstring pop
  dup 0 3 index getinterval /rbmap xdef
  dup 2 index dup getinterval /gbmap xdef
  1 index dup 2 mul exch getinterval /bbmap xdef pop pop}bdef
/it {gs np dtri aload pop moveto lineto lineto cp c
  cols rows 8 compute_transform 
  rbmap gbmap bbmap true 3 colorimage gr}bdef
/il {newpath moveto lineto stroke}bdef
currentdict end def
%%EndProlog

%%BeginSetup
MathWorks begin

0 cap

end
%%EndSetup

%%Page: 1 1
%%BeginPageSetup
%%PageBoundingBox:    82   227   530   564
MathWorks begin
bpage
%%EndPageSetup

%%BeginObject: obj1
bplot

/dpi2point 4.16667 def
portraitMode 0341 2350 csm

    0     0  1867  1401 rc
86 dict begin %Colortable dictionary
/c0 { 0.000000 0.000000 0.000000 sr} bdef
/c1 { 1.000000 1.000000 1.000000 sr} bdef
/c2 { 0.900000 0.000000 0.000000 sr} bdef
/c3 { 0.000000 0.820000 0.000000 sr} bdef
/c4 { 0.000000 0.000000 0.800000 sr} bdef
/c5 { 0.910000 0.820000 0.320000 sr} bdef
/c6 { 1.000000 0.260000 0.820000 sr} bdef
/c7 { 0.000000 0.820000 0.820000 sr} bdef
c0
1 j
1 sg
   0    0 1868 1402 rf
6.25 w
0 1109 1618 0 0 -1109 210 1223 4 MP
PP
-1618 0 0 1109 1618 0 0 -1109 210 1223 5 MP stroke
4.16667 w
DO
SO
6.25 w
0 sg
 210 1223 mt 1828 1223 L
 210  114 mt 1828  114 L
 210 1223 mt  210  114 L
1828 1223 mt 1828  114 L
 210 1223 mt 1828 1223 L
 210 1223 mt  210  114 L
 210 1223 mt  210 1206 L
 210  114 mt  210  130 L
%%IncludeResource: font Helvetica
/Helvetica /ISOLatin1Encoding 66.6667 FMSR

 192 1297 mt 
(5) s
 441 1223 mt  441 1206 L
 441  114 mt  441  130 L
 404 1297 mt 
(10) s
 672 1223 mt  672 1206 L
 672  114 mt  672  130 L
 635 1297 mt 
(15) s
 903 1223 mt  903 1206 L
 903  114 mt  903  130 L
 866 1297 mt 
(20) s
1135 1223 mt 1135 1206 L
1135  114 mt 1135  130 L
1098 1297 mt 
(25) s
1366 1223 mt 1366 1206 L
1366  114 mt 1366  130 L
1329 1297 mt 
(30) s
1597 1223 mt 1597 1206 L
1597  114 mt 1597  130 L
1560 1297 mt 
(35) s
1829 1223 mt 1829 1206 L
1829  114 mt 1829  130 L
1792 1297 mt 
(40) s
 210 1223 mt  218 1223 L
1829 1223 mt 1820 1223 L
 210 1223 mt  226 1223 L
1829 1223 mt 1812 1223 L
 100 1247 mt 
(10) s
%%IncludeResource: font Helvetica
/Helvetica /ISOLatin1Encoding 44.4444 FMSR

 174 1206 mt 
(1) s
 210 1139 mt  218 1139 L
1829 1139 mt 1820 1139 L
 210 1090 mt  218 1090 L
1829 1090 mt 1820 1090 L
 210 1056 mt  218 1056 L
1829 1056 mt 1820 1056 L
 210 1029 mt  218 1029 L
1829 1029 mt 1820 1029 L
 210 1007 mt  218 1007 L
1829 1007 mt 1820 1007 L
 210  988 mt  218  988 L
1829  988 mt 1820  988 L
 210  972 mt  218  972 L
1829  972 mt 1820  972 L
 210  958 mt  218  958 L
1829  958 mt 1820  958 L
 210  945 mt  218  945 L
1829  945 mt 1820  945 L
 210  945 mt  226  945 L
1829  945 mt 1812  945 L
%%IncludeResource: font Helvetica
/Helvetica /ISOLatin1Encoding 66.6667 FMSR

 100  969 mt 
(10) s
%%IncludeResource: font Helvetica
/Helvetica /ISOLatin1Encoding 44.4444 FMSR

 174  928 mt 
(2) s
 210  862 mt  218  862 L
1829  862 mt 1820  862 L
 210  813 mt  218  813 L
1829  813 mt 1820  813 L
 210  778 mt  218  778 L
1829  778 mt 1820  778 L
 210  751 mt  218  751 L
1829  751 mt 1820  751 L
 210  730 mt  218  730 L
1829  730 mt 1820  730 L
 210  711 mt  218  711 L
1829  711 mt 1820  711 L
 210  695 mt  218  695 L
1829  695 mt 1820  695 L
 210  681 mt  218  681 L
1829  681 mt 1820  681 L
 210  668 mt  218  668 L
1829  668 mt 1820  668 L
 210  668 mt  226  668 L
1829  668 mt 1812  668 L
%%IncludeResource: font Helvetica
/Helvetica /ISOLatin1Encoding 66.6667 FMSR

 100  692 mt 
(10) s
%%IncludeResource: font Helvetica
/Helvetica /ISOLatin1Encoding 44.4444 FMSR

 174  651 mt 
(3) s
 210  585 mt  218  585 L
1829  585 mt 1820  585 L
 210  536 mt  218  536 L
1829  536 mt 1820  536 L
 210  501 mt  218  501 L
1829  501 mt 1820  501 L
 210  474 mt  218  474 L
1829  474 mt 1820  474 L
 210  452 mt  218  452 L
1829  452 mt 1820  452 L
 210  434 mt  218  434 L
1829  434 mt 1820  434 L
 210  418 mt  218  418 L
1829  418 mt 1820  418 L
 210  403 mt  218  403 L
1829  403 mt 1820  403 L
 210  391 mt  218  391 L
1829  391 mt 1820  391 L
 210  391 mt  226  391 L
1829  391 mt 1812  391 L
%%IncludeResource: font Helvetica
/Helvetica /ISOLatin1Encoding 66.6667 FMSR

 100  415 mt 
(10) s
%%IncludeResource: font Helvetica
/Helvetica /ISOLatin1Encoding 44.4444 FMSR

 174  374 mt 
(4) s
 210  307 mt  218  307 L
1829  307 mt 1820  307 L
 210  258 mt  218  258 L
1829  258 mt 1820  258 L
 210  224 mt  218  224 L
1829  224 mt 1820  224 L
 210  197 mt  218  197 L
1829  197 mt 1820  197 L
 210  175 mt  218  175 L
1829  175 mt 1820  175 L
 210  156 mt  218  156 L
1829  156 mt 1820  156 L
 210  140 mt  218  140 L
1829  140 mt 1820  140 L
 210  126 mt  218  126 L
1829  126 mt 1820  126 L
 210  114 mt  218  114 L
1829  114 mt 1820  114 L
 210  114 mt  226  114 L
1829  114 mt 1812  114 L
%%IncludeResource: font Helvetica
/Helvetica /ISOLatin1Encoding 66.6667 FMSR

 100  138 mt 
(10) s
%%IncludeResource: font Helvetica
/Helvetica /ISOLatin1Encoding 44.4444 FMSR

 174   97 mt 
(5) s
 210 1223 mt 1828 1223 L
 210  114 mt 1828  114 L
 210 1223 mt  210  114 L
1828 1223 mt 1828  114 L
gs 210 114 1620 1110 rc
/c8 { 0.000000 0.000000 1.000000 sr} bdef
c8
46 0 46 -89 324 -178 46 -55 231 -32 47 -33 46 -32 185 -63 
92 88 47 -48 46 -79 92 -24 47 -82 46 -38 302 923 15 MP stroke
DA
46 137 46 -26 324 -105 46 -31 231 -135 47 19 46 3 185 6 
92 -248 47 14 46 41 92 -210 47 23 46 201 302 921 15 MP stroke
SO
/c9 { 1.000000 0.000000 1.000000 sr} bdef
c9
46 -3 46 -13 324 -106 46 -17 231 -58 47 -67 46 11 185 -13 
92 -246 47 6 46 40 92 -150 47 -9 46 176 302 923 15 MP stroke
DA
46 -2 46 -14 324 -106 46 15 231 -90 47 -64 46 8 185 -16 
92 -244 47 6 46 40 92 -150 47 -9 46 178 302 921 15 MP stroke
SO
/c10 { 1.000000 0.000000 0.000000 sr} bdef
c10
46 4 46 -28 324 0 46 -70 231 -84 47 -50 46 8 185 20 
92 -311 47 6 46 40 92 -150 47 -9 46 176 302 923 15 MP stroke
DA
46 4 46 -28 324 0 46 -70 231 -83 47 -50 46 8 185 20 
92 -312 47 6 46 40 92 -150 47 -9 46 176 302 923 15 MP stroke
SO
0 sg
46 -18 46 111 324 -246 46 4 231 -149 47 3 46 2 185 12 
92 -216 47 -23 46 -9 92 -71 47 -26 46 128 302 932 15 MP stroke
gs 269 308 1409 786 rc
 290  932 mt  314  932 L
 302  920 mt  302  944 L
 336 1060 mt  360 1060 L
 348 1048 mt  348 1072 L
 383 1034 mt  407 1034 L
 395 1022 mt  395 1046 L
 475  963 mt  499  963 L
 487  951 mt  487  975 L
 521  954 mt  545  954 L
 533  942 mt  533  966 L
 568  931 mt  592  931 L
 580  919 mt  580  943 L
 660  715 mt  684  715 L
 672  703 mt  672  727 L
 845  727 mt  869  727 L
 857  715 mt  857  739 L
 891  729 mt  915  729 L
 903  717 mt  903  741 L
 938  732 mt  962  732 L
 950  720 mt  950  744 L
1169  583 mt 1193  583 L
1181  571 mt 1181  595 L
1215  587 mt 1239  587 L
1227  575 mt 1227  599 L
1539  341 mt 1563  341 L
1551  329 mt 1551  353 L
1585  452 mt 1609  452 L
1597  440 mt 1597  464 L
1631  434 mt 1655  434 L
1643  422 mt 1643  446 L
 294  924 mt  310  940 L
 310  924 mt  294  940 L
 340 1052 mt  356 1068 L
 356 1052 mt  340 1068 L
 387 1026 mt  403 1042 L
 403 1026 mt  387 1042 L
 479  955 mt  495  971 L
 495  955 mt  479  971 L
 525  946 mt  541  962 L
 541  946 mt  525  962 L
 572  923 mt  588  939 L
 588  923 mt  572  939 L
 664  707 mt  680  723 L
 680  707 mt  664  723 L
 849  719 mt  865  735 L
 865  719 mt  849  735 L
 895  721 mt  911  737 L
 911  721 mt  895  737 L
 942  724 mt  958  740 L
 958  724 mt  942  740 L
1173  575 mt 1189  591 L
1189  575 mt 1173  591 L
1219  579 mt 1235  595 L
1235  579 mt 1219  595 L
1543  333 mt 1559  349 L
1559  333 mt 1543  349 L
1589  444 mt 1605  460 L
1605  444 mt 1589  460 L
1635  426 mt 1651  442 L
1651  426 mt 1635  442 L
gr

46 -12 46 -14 324 -86 46 7 231 -140 47 4 46 14 185 15 
92 -263 47 25 46 32 92 -140 47 -22 46 192 302 963 15 MP stroke
gs 269 542 1409 647 rc
  12   12  302  963 FO
  12   12  348 1155 FO
  12   12  395 1133 FO
  12   12  487  993 FO
  12   12  533 1025 FO
  12   12  580 1050 FO
  12   12  672  787 FO
  12   12  857  802 FO
  12   12  903  816 FO
  12   12  950  820 FO
  12   12 1181  680 FO
  12   12 1227  687 FO
  12   12 1551  601 FO
  12   12 1597  587 FO
  12   12 1643  575 FO
gr

gr

%%IncludeResource: font Helvetica
/Helvetica /ISOLatin1Encoding 66.6667 FMSR

 626   62 mt 
(Iteration count comparison) s
 746 1384 mt 
(Optimal horizon T) s
%%IncludeResource: font Symbol
/Symbol /ISOLatin1Encoding 50 FMSR

1268 1351 mt 
(*) s
%%IncludeResource: font Helvetica
/Helvetica /ISOLatin1Encoding 66.6667 FMSR

  65  958 mt  -90 rotate
(Average No. of iters) s
90 rotate
 201 1248 mt 
( ) s
1821  138 mt 
( ) s
1 sg
0 471 521 0 0 -471 1234 1195 4 MP
PP
-521 0 0 471 521 0 0 -471 1234 1195 5 MP stroke
4.16667 w
DO
SO
6.25 w
0 sg
1234 1195 mt 1755 1195 L
1234  724 mt 1755  724 L
1234 1195 mt 1234  724 L
1755 1195 mt 1755  724 L
1234 1195 mt 1755 1195 L
1234 1195 mt 1234  724 L
1234 1195 mt 1755 1195 L
1234  724 mt 1755  724 L
1234 1195 mt 1234  724 L
1755 1195 mt 1755  724 L
%%IncludeResource: font Helvetica
/Helvetica /ISOLatin1Encoding 50 FMSR

1397  785 mt 
(T) s
%%IncludeResource: font Helvetica
/Helvetica /ISOLatin1Encoding 37.5 FMSR

1427  810 mt 
(min) s
%%IncludeResource: font Helvetica
/Helvetica /ISOLatin1Encoding 50 FMSR

1487  785 mt 
( w/ T.C.) s
gs 1234 724 522 472 rc
c8
125 0 1259 778 2 MP stroke
gr

c8
0 sg
1397  892 mt 
(T) s
%%IncludeResource: font Symbol
/Symbol /ISOLatin1Encoding 37.5 FMSR

1427  867 mt 
(*) s
%%IncludeResource: font Helvetica
/Helvetica /ISOLatin1Encoding 50 FMSR

1445  892 mt 
( w/ T.C.) s
gs 1234 724 522 472 rc
c9
125 0 1259 865 2 MP stroke
gr

c9
0 sg
1397  961 mt 
(2T) s
%%IncludeResource: font Helvetica
/Helvetica /ISOLatin1Encoding 37.5 FMSR

1455  986 mt 
(min) s
%%IncludeResource: font Helvetica
/Helvetica /ISOLatin1Encoding 50 FMSR

1515  961 mt 
( w/ T.C.) s
gs 1234 724 522 472 rc
c10
125 0 1259 953 2 MP stroke
gr

c10
0 sg
1397 1069 mt 
(T) s
%%IncludeResource: font Helvetica
/Helvetica /ISOLatin1Encoding 37.5 FMSR

1427 1094 mt 
(w) s
%%IncludeResource: font Symbol
/Symbol /ISOLatin1Encoding 37.5 FMSR

1427 1044 mt 
(\245) s
%%IncludeResource: font Helvetica
/Helvetica /ISOLatin1Encoding 50 FMSR

1454 1069 mt 
( CLQR) s
gs 1234 724 522 472 rc
125 0 1259 1053 2 MP stroke
gr

1309 1053 mt 1333 1053 L
1321 1041 mt 1321 1065 L
1313 1045 mt 1329 1061 L
1329 1045 mt 1313 1061 L
gs 1234 724 522 472 rc
gr

1397 1174 mt 
(T) s
%%IncludeResource: font Symbol
/Symbol /ISOLatin1Encoding 37.5 FMSR

1427 1149 mt 
(\245) s
%%IncludeResource: font Helvetica
/Helvetica /ISOLatin1Encoding 50 FMSR

1453 1174 mt 
( CLQR) s
gs 1234 724 522 472 rc
125 0 1259 1147 2 MP stroke
gr

  12   12 1321 1147 FO
gs 1234 724 522 472 rc
gr


end %%Color Dict

eplot
%%EndObject

epage
end

showpage

%%Trailer
%%EOF
