%!PS-Adobe-3.0 EPSF-3.0
%%Creator: MATLAB, The MathWorks, Inc. Version 8.3.0.532 (R2014a). Operating System: Darwin 12.5.0 Darwin Kernel Version 12.5.0: Sun Sep 29 13:33:47 PDT 2013; root:xnu-2050.48.12~1/RELEASE_X86_64 x86_64.
%%Title: /Users/georgios/Documents/Research/Constrained LQR using splitting methods/Matlab code/Dense form/FISTA/Figures/warmVScold_005.eps
%%CreationDate: 12/01/2014  21:22:08
%%DocumentNeededFonts: Helvetica
%%DocumentProcessColors: Cyan Magenta Yellow Black
%%LanguageLevel: 2
%%Pages: 1
%%BoundingBox:    82   227   530   564
%%EndComments

%%BeginProlog
% MathWorks dictionary
/MathWorks 160 dict begin
% definition operators
/bdef {bind def} bind def
/ldef {load def} bind def
/xdef {exch def} bdef
/xstore {exch store} bdef
% operator abbreviations
/c  /clip ldef
/cc /concat ldef
/cp /closepath ldef
/gr /grestore ldef
/gs /gsave ldef
/mt /moveto ldef
/np /newpath ldef
/cm /currentmatrix ldef
/sm /setmatrix ldef
/rm /rmoveto ldef
/rl /rlineto ldef
/s {show newpath} bdef
/sc {setcmykcolor} bdef
/sr /setrgbcolor ldef
/sg /setgray ldef
/w /setlinewidth ldef
/j /setlinejoin ldef
/cap /setlinecap ldef
/rc {rectclip} bdef
/rf {rectfill} bdef
% page state control
/pgsv () def
/bpage {/pgsv save def} bdef
/epage {pgsv restore} bdef
/bplot /gsave ldef
/eplot {stroke grestore} bdef
% orientation switch
/portraitMode 0 def /landscapeMode 1 def /rotateMode 2 def
% coordinate system mappings
/dpi2point 0 def
% font control
/FontSize 0 def
/FMS {/FontSize xstore findfont [FontSize 0 0 FontSize neg 0 0]
  makefont setfont} bdef
/reencode {exch dup where {pop load} {pop StandardEncoding} ifelse
  exch dup 3 1 roll findfont dup length dict begin
  { 1 index /FID ne {def}{pop pop} ifelse } forall
  /Encoding exch def currentdict end definefont pop} bdef
/isroman {findfont /CharStrings get /Agrave known} bdef
/FMSR {3 1 roll 1 index dup isroman {reencode} {pop pop} ifelse
  exch FMS} bdef
/csm {1 dpi2point div -1 dpi2point div scale neg translate
 dup landscapeMode eq {pop -90 rotate}
  {rotateMode eq {90 rotate} if} ifelse} bdef
% line types: solid, dotted, dashed, dotdash
/SO { [] 0 setdash } bdef
/DO { [.5 dpi2point mul 4 dpi2point mul] 0 setdash } bdef
/DA { [6 dpi2point mul] 0 setdash } bdef
/DD { [.5 dpi2point mul 4 dpi2point mul 6 dpi2point mul 4
  dpi2point mul] 0 setdash } bdef
% macros for lines and objects
/L {lineto stroke} bdef
/MP {3 1 roll moveto 1 sub {rlineto} repeat} bdef
/AP {{rlineto} repeat} bdef
/PDlw -1 def
/W {/PDlw currentlinewidth def setlinewidth} def
/PP {closepath eofill} bdef
/DP {closepath stroke} bdef
/MR {4 -2 roll moveto dup  0 exch rlineto exch 0 rlineto
  neg 0 exch rlineto closepath} bdef
/FR {MR stroke} bdef
/PR {MR fill} bdef
/L1i {{currentfile picstr readhexstring pop} image} bdef
/tMatrix matrix def
/MakeOval {newpath tMatrix currentmatrix pop translate scale
0 0 1 0 360 arc tMatrix setmatrix} bdef
/FO {MakeOval stroke} bdef
/PO {MakeOval fill} bdef
/PD {currentlinewidth 2 div 0 360 arc fill
   PDlw -1 eq not {PDlw w /PDlw -1 def} if} def
/FA {newpath tMatrix currentmatrix pop translate scale
  0 0 1 5 -2 roll arc tMatrix setmatrix stroke} bdef
/PA {newpath tMatrix currentmatrix pop	translate 0 0 moveto scale
  0 0 1 5 -2 roll arc closepath tMatrix setmatrix fill} bdef
/FAn {newpath tMatrix currentmatrix pop translate scale
  0 0 1 5 -2 roll arcn tMatrix setmatrix stroke} bdef
/PAn {newpath tMatrix currentmatrix pop translate 0 0 moveto scale
  0 0 1 5 -2 roll arcn closepath tMatrix setmatrix fill} bdef
/vradius 0 def /hradius 0 def /lry 0 def
/lrx 0 def /uly 0 def /ulx 0 def /rad 0 def
/MRR {/vradius xdef /hradius xdef /lry xdef /lrx xdef /uly xdef
  /ulx xdef newpath tMatrix currentmatrix pop ulx hradius add uly
  vradius add translate hradius vradius scale 0 0 1 180 270 arc 
  tMatrix setmatrix lrx hradius sub uly vradius add translate
  hradius vradius scale 0 0 1 270 360 arc tMatrix setmatrix
  lrx hradius sub lry vradius sub translate hradius vradius scale
  0 0 1 0 90 arc tMatrix setmatrix ulx hradius add lry vradius sub
  translate hradius vradius scale 0 0 1 90 180 arc tMatrix setmatrix
  closepath} bdef
/FRR {MRR stroke } bdef
/PRR {MRR fill } bdef
/MlrRR {/lry xdef /lrx xdef /uly xdef /ulx xdef /rad lry uly sub 2 div def
  newpath tMatrix currentmatrix pop ulx rad add uly rad add translate
  rad rad scale 0 0 1 90 270 arc tMatrix setmatrix lrx rad sub lry rad
  sub translate rad rad scale 0 0 1 270 90 arc tMatrix setmatrix
  closepath} bdef
/FlrRR {MlrRR stroke } bdef
/PlrRR {MlrRR fill } bdef
/MtbRR {/lry xdef /lrx xdef /uly xdef /ulx xdef /rad lrx ulx sub 2 div def
  newpath tMatrix currentmatrix pop ulx rad add uly rad add translate
  rad rad scale 0 0 1 180 360 arc tMatrix setmatrix lrx rad sub lry rad
  sub translate rad rad scale 0 0 1 0 180 arc tMatrix setmatrix
  closepath} bdef
/FtbRR {MtbRR stroke } bdef
/PtbRR {MtbRR fill } bdef
/stri 6 array def /dtri 6 array def
/smat 6 array def /dmat 6 array def
/tmat1 6 array def /tmat2 6 array def /dif 3 array def
/asub {/ind2 exch def /ind1 exch def dup dup
  ind1 get exch ind2 get sub exch } bdef
/tri_to_matrix {
  2 0 asub 3 1 asub 4 0 asub 5 1 asub
  dup 0 get exch 1 get 7 -1 roll astore } bdef
/compute_transform {
  dmat dtri tri_to_matrix tmat1 invertmatrix 
  smat stri tri_to_matrix tmat2 concatmatrix } bdef
/ds {stri astore pop} bdef
/dt {dtri astore pop} bdef
/db {2 copy /cols xdef /rows xdef mul dup 3 mul string
  currentfile 
  3 index 0 eq {/ASCIIHexDecode filter}
  {/ASCII85Decode filter 3 index 2 eq {/RunLengthDecode filter} if }
  ifelse exch readstring pop
  dup 0 3 index getinterval /rbmap xdef
  dup 2 index dup getinterval /gbmap xdef
  1 index dup 2 mul exch getinterval /bbmap xdef pop pop}bdef
/it {gs np dtri aload pop moveto lineto lineto cp c
  cols rows 8 compute_transform 
  rbmap gbmap bbmap true 3 colorimage gr}bdef
/il {newpath moveto lineto stroke}bdef
currentdict end def
%%EndProlog

%%BeginSetup
MathWorks begin

0 cap

end
%%EndSetup

%%Page: 1 1
%%BeginPageSetup
%%PageBoundingBox:    82   227   530   564
MathWorks begin
bpage
%%EndPageSetup

%%BeginObject: obj1
bplot

/dpi2point 4.16667 def
portraitMode 0341 2350 csm

    0     0  1867  1401 rc
85 dict begin %Colortable dictionary
/c0 { 0.000000 0.000000 0.000000 sr} bdef
/c1 { 1.000000 1.000000 1.000000 sr} bdef
/c2 { 0.900000 0.000000 0.000000 sr} bdef
/c3 { 0.000000 0.820000 0.000000 sr} bdef
/c4 { 0.000000 0.000000 0.800000 sr} bdef
/c5 { 0.910000 0.820000 0.320000 sr} bdef
/c6 { 1.000000 0.260000 0.820000 sr} bdef
/c7 { 0.000000 0.820000 0.820000 sr} bdef
c0
1 j
1 sg
   0    0 1868 1402 rf
10.4167 w
0 1127 1606 0 0 -1127 223 1241 4 MP
PP
-1606 0 0 1127 1606 0 0 -1127 223 1241 5 MP stroke
6.94444 w
DO
SO
10.4167 w
0 sg
 223 1241 mt 1829 1241 L
 223 1241 mt  223  114 L
 223 1241 mt  223 1224 L
%%IncludeResource: font Helvetica
/Helvetica /ISOLatin1Encoding 66.6667 FMSR

 205 1315 mt 
(0) s
 624 1241 mt  624 1224 L
 587 1315 mt 
(20) s
1026 1241 mt 1026 1224 L
 989 1315 mt 
(40) s
1427 1241 mt 1427 1224 L
1390 1315 mt 
(60) s
1829 1241 mt 1829 1224 L
1792 1315 mt 
(80) s
 223 1241 mt  239 1241 L
 174 1265 mt 
(0) s
 223 1015 mt  239 1015 L
 137 1039 mt 
(50) s
 223  790 mt  239  790 L
 100  814 mt 
(100) s
 223  564 mt  239  564 L
 100  588 mt 
(150) s
 223  339 mt  239  339 L
 100  363 mt 
(200) s
 223  114 mt  239  114 L
 100  138 mt 
(250) s
gs 223 114 1607 1128 rc
20 -80 20 11 20 68 20 -36 20 -69 20 0 20 0 20 -6 
20 18 20 -7 20 -2 20 -3 21 7 20 14 20 -6 20 6 
20 9 20 -18 20 12 20 19 20 301 20 -327 20 8 20 721 
20 -731 21 3 20 -10 20 -1 20 16 20 -1 20 -2 20 -12 
20 1 20 803 20 -412 20 -387 20 -6 20 -2 20 9 21 -6 
20 1 20 20 20 45 20 47 20 -95 20 -24 20 -3 20 -17 
20 5 20 -1 20 0 20 0 21 -2 20 8 20 -5 20 1 
20 -4 20 6 20 -3 20 -2 20 -3 20 12 20 -4 20 0 
20 7 21 -5 20 -7 20 0 20 2 20 0 20 -1 20 -1 
20 -2 20 -9 20 -9 20 -7 20 1 20 2 243 1207 79 MP stroke
/c8 { 1.000000 0.000000 0.000000 sr} bdef
c8
20 -61 20 28 20 64 20 -54 20 -62 20 1 20 -3 20 0 
20 4 20 -3 20 3 20 -3 21 5 20 2 20 0 20 0 
20 2 20 -1 20 223 20 -101 20 16 20 -138 20 0 20 170 
20 -171 21 0 20 -5 20 3 20 3 20 -2 20 2 20 1 
20 2 20 875 20 -392 20 -484 20 -5 20 -1 20 -2 21 2 
20 -1 20 27 20 40 20 56 20 -99 20 -20 20 -5 20 -9 
20 0 20 1 20 -1 20 3 21 -6 20 8 20 -6 20 -1 
20 1 20 0 20 1 20 0 20 1 20 4 20 -2 20 1 
20 0 21 2 20 -1 20 -2 20 -1 20 -2 20 0 20 0 
20 1 20 -4 20 -3 20 -3 20 0 20 0 243 1223 79 MP stroke
gr

c8
0 sg
 794 1384 mt 
(No. of problems) s
  65 1041 mt  -90 rotate
(Average No. of Iterations) s
90 rotate
 390   62 mt 
(Cold VS warm-starting for 1% perturbation) s
 214 1266 mt 
( ) s
1821  138 mt 
( ) s
1 sg
0 177 504 0 0 -177 1305 312 4 MP
PP
-504 0 0 177 504 0 0 -177 1305 312 5 MP stroke
6.94444 w
DO
SO
10.4167 w
0 sg
1305  312 mt 1809  312 L
1305  135 mt 1809  135 L
1305  312 mt 1305  135 L
1809  312 mt 1809  135 L
1305  312 mt 1809  312 L
1305  312 mt 1305  135 L
1305  312 mt 1809  312 L
1305  135 mt 1809  135 L
1305  312 mt 1305  135 L
1809  312 mt 1809  135 L
1468  207 mt 
(Cold start) s
gs 1305 135 505 178 rc
125 0 1329 182 2 MP stroke
gr

1468  289 mt 
(Warm start) s
gs 1305 135 505 178 rc
c8
125 0 1329 264 2 MP stroke
gr

c8

end %%Color Dict

eplot
%%EndObject

epage
end

showpage

%%Trailer
%%EOF
