%!PS-Adobe-3.0 EPSF-3.0
%%Creator: MATLAB, The MathWorks, Inc. Version 8.3.0.532 (R2014a). Operating System: Darwin 12.5.0 Darwin Kernel Version 12.5.0: Sun Sep 29 13:33:47 PDT 2013; root:xnu-2050.48.12~1/RELEASE_X86_64 x86_64.
%%Title: /Users/georgios/Documents/Research/Constrained LQR using splitting methods/Matlab code/Dense form/FISTA/Figures/warmVScold_05.eps
%%CreationDate: 10/13/2014  13:26:53
%%DocumentNeededFonts: Helvetica
%%DocumentProcessColors: Cyan Magenta Yellow Black
%%LanguageLevel: 2
%%Pages: 1
%%BoundingBox:    82   227   530   564
%%EndComments

%%BeginProlog
% MathWorks dictionary
/MathWorks 160 dict begin
% definition operators
/bdef {bind def} bind def
/ldef {load def} bind def
/xdef {exch def} bdef
/xstore {exch store} bdef
% operator abbreviations
/c  /clip ldef
/cc /concat ldef
/cp /closepath ldef
/gr /grestore ldef
/gs /gsave ldef
/mt /moveto ldef
/np /newpath ldef
/cm /currentmatrix ldef
/sm /setmatrix ldef
/rm /rmoveto ldef
/rl /rlineto ldef
/s {show newpath} bdef
/sc {setcmykcolor} bdef
/sr /setrgbcolor ldef
/sg /setgray ldef
/w /setlinewidth ldef
/j /setlinejoin ldef
/cap /setlinecap ldef
/rc {rectclip} bdef
/rf {rectfill} bdef
% page state control
/pgsv () def
/bpage {/pgsv save def} bdef
/epage {pgsv restore} bdef
/bplot /gsave ldef
/eplot {stroke grestore} bdef
% orientation switch
/portraitMode 0 def /landscapeMode 1 def /rotateMode 2 def
% coordinate system mappings
/dpi2point 0 def
% font control
/FontSize 0 def
/FMS {/FontSize xstore findfont [FontSize 0 0 FontSize neg 0 0]
  makefont setfont} bdef
/reencode {exch dup where {pop load} {pop StandardEncoding} ifelse
  exch dup 3 1 roll findfont dup length dict begin
  { 1 index /FID ne {def}{pop pop} ifelse } forall
  /Encoding exch def currentdict end definefont pop} bdef
/isroman {findfont /CharStrings get /Agrave known} bdef
/FMSR {3 1 roll 1 index dup isroman {reencode} {pop pop} ifelse
  exch FMS} bdef
/csm {1 dpi2point div -1 dpi2point div scale neg translate
 dup landscapeMode eq {pop -90 rotate}
  {rotateMode eq {90 rotate} if} ifelse} bdef
% line types: solid, dotted, dashed, dotdash
/SO { [] 0 setdash } bdef
/DO { [.5 dpi2point mul 4 dpi2point mul] 0 setdash } bdef
/DA { [6 dpi2point mul] 0 setdash } bdef
/DD { [.5 dpi2point mul 4 dpi2point mul 6 dpi2point mul 4
  dpi2point mul] 0 setdash } bdef
% macros for lines and objects
/L {lineto stroke} bdef
/MP {3 1 roll moveto 1 sub {rlineto} repeat} bdef
/AP {{rlineto} repeat} bdef
/PDlw -1 def
/W {/PDlw currentlinewidth def setlinewidth} def
/PP {closepath eofill} bdef
/DP {closepath stroke} bdef
/MR {4 -2 roll moveto dup  0 exch rlineto exch 0 rlineto
  neg 0 exch rlineto closepath} bdef
/FR {MR stroke} bdef
/PR {MR fill} bdef
/L1i {{currentfile picstr readhexstring pop} image} bdef
/tMatrix matrix def
/MakeOval {newpath tMatrix currentmatrix pop translate scale
0 0 1 0 360 arc tMatrix setmatrix} bdef
/FO {MakeOval stroke} bdef
/PO {MakeOval fill} bdef
/PD {currentlinewidth 2 div 0 360 arc fill
   PDlw -1 eq not {PDlw w /PDlw -1 def} if} def
/FA {newpath tMatrix currentmatrix pop translate scale
  0 0 1 5 -2 roll arc tMatrix setmatrix stroke} bdef
/PA {newpath tMatrix currentmatrix pop	translate 0 0 moveto scale
  0 0 1 5 -2 roll arc closepath tMatrix setmatrix fill} bdef
/FAn {newpath tMatrix currentmatrix pop translate scale
  0 0 1 5 -2 roll arcn tMatrix setmatrix stroke} bdef
/PAn {newpath tMatrix currentmatrix pop translate 0 0 moveto scale
  0 0 1 5 -2 roll arcn closepath tMatrix setmatrix fill} bdef
/vradius 0 def /hradius 0 def /lry 0 def
/lrx 0 def /uly 0 def /ulx 0 def /rad 0 def
/MRR {/vradius xdef /hradius xdef /lry xdef /lrx xdef /uly xdef
  /ulx xdef newpath tMatrix currentmatrix pop ulx hradius add uly
  vradius add translate hradius vradius scale 0 0 1 180 270 arc 
  tMatrix setmatrix lrx hradius sub uly vradius add translate
  hradius vradius scale 0 0 1 270 360 arc tMatrix setmatrix
  lrx hradius sub lry vradius sub translate hradius vradius scale
  0 0 1 0 90 arc tMatrix setmatrix ulx hradius add lry vradius sub
  translate hradius vradius scale 0 0 1 90 180 arc tMatrix setmatrix
  closepath} bdef
/FRR {MRR stroke } bdef
/PRR {MRR fill } bdef
/MlrRR {/lry xdef /lrx xdef /uly xdef /ulx xdef /rad lry uly sub 2 div def
  newpath tMatrix currentmatrix pop ulx rad add uly rad add translate
  rad rad scale 0 0 1 90 270 arc tMatrix setmatrix lrx rad sub lry rad
  sub translate rad rad scale 0 0 1 270 90 arc tMatrix setmatrix
  closepath} bdef
/FlrRR {MlrRR stroke } bdef
/PlrRR {MlrRR fill } bdef
/MtbRR {/lry xdef /lrx xdef /uly xdef /ulx xdef /rad lrx ulx sub 2 div def
  newpath tMatrix currentmatrix pop ulx rad add uly rad add translate
  rad rad scale 0 0 1 180 360 arc tMatrix setmatrix lrx rad sub lry rad
  sub translate rad rad scale 0 0 1 0 180 arc tMatrix setmatrix
  closepath} bdef
/FtbRR {MtbRR stroke } bdef
/PtbRR {MtbRR fill } bdef
/stri 6 array def /dtri 6 array def
/smat 6 array def /dmat 6 array def
/tmat1 6 array def /tmat2 6 array def /dif 3 array def
/asub {/ind2 exch def /ind1 exch def dup dup
  ind1 get exch ind2 get sub exch } bdef
/tri_to_matrix {
  2 0 asub 3 1 asub 4 0 asub 5 1 asub
  dup 0 get exch 1 get 7 -1 roll astore } bdef
/compute_transform {
  dmat dtri tri_to_matrix tmat1 invertmatrix 
  smat stri tri_to_matrix tmat2 concatmatrix } bdef
/ds {stri astore pop} bdef
/dt {dtri astore pop} bdef
/db {2 copy /cols xdef /rows xdef mul dup 3 mul string
  currentfile 
  3 index 0 eq {/ASCIIHexDecode filter}
  {/ASCII85Decode filter 3 index 2 eq {/RunLengthDecode filter} if }
  ifelse exch readstring pop
  dup 0 3 index getinterval /rbmap xdef
  dup 2 index dup getinterval /gbmap xdef
  1 index dup 2 mul exch getinterval /bbmap xdef pop pop}bdef
/it {gs np dtri aload pop moveto lineto lineto cp c
  cols rows 8 compute_transform 
  rbmap gbmap bbmap true 3 colorimage gr}bdef
/il {newpath moveto lineto stroke}bdef
currentdict end def
%%EndProlog

%%BeginSetup
MathWorks begin

0 cap

end
%%EndSetup

%%Page: 1 1
%%BeginPageSetup
%%PageBoundingBox:    82   227   530   564
MathWorks begin
bpage
%%EndPageSetup

%%BeginObject: obj1
bplot

/dpi2point 4.16667 def
portraitMode 0341 2350 csm

    0     0  1867  1401 rc
85 dict begin %Colortable dictionary
/c0 { 0.000000 0.000000 0.000000 sr} bdef
/c1 { 1.000000 1.000000 1.000000 sr} bdef
/c2 { 0.900000 0.000000 0.000000 sr} bdef
/c3 { 0.000000 0.820000 0.000000 sr} bdef
/c4 { 0.000000 0.000000 0.800000 sr} bdef
/c5 { 0.910000 0.820000 0.320000 sr} bdef
/c6 { 1.000000 0.260000 0.820000 sr} bdef
/c7 { 0.000000 0.820000 0.820000 sr} bdef
c0
1 j
1 sg
   0    0 1868 1402 rf
10.4167 w
0 1142 1447 0 0 -1142 243 1247 4 MP
PP
-1447 0 0 1142 1447 0 0 -1142 243 1247 5 MP stroke
6.94444 w
DO
SO
10.4167 w
0 sg
 243 1247 mt 1690 1247 L
 243  105 mt 1690  105 L
 243 1247 mt  243  105 L
1690 1247 mt 1690  105 L
 243 1247 mt 1690 1247 L
 243 1247 mt  243  105 L
 243 1247 mt  243 1232 L
 243  105 mt  243  119 L
%%IncludeResource: font Helvetica
/Helvetica /ISOLatin1Encoding 45.8333 FMSR

 231 1301 mt 
(0) s
 484 1247 mt  484 1232 L
 484  105 mt  484  119 L
 459 1301 mt 
(10) s
 725 1247 mt  725 1232 L
 725  105 mt  725  119 L
 700 1301 mt 
(20) s
 966 1247 mt  966 1232 L
 966  105 mt  966  119 L
 941 1301 mt 
(30) s
1207 1247 mt 1207 1232 L
1207  105 mt 1207  119 L
1182 1301 mt 
(40) s
1448 1247 mt 1448 1232 L
1448  105 mt 1448  119 L
1423 1301 mt 
(50) s
1690 1247 mt 1690 1232 L
1690  105 mt 1690  119 L
1665 1301 mt 
(60) s
 243 1247 mt  257 1247 L
1690 1247 mt 1675 1247 L
 103 1263 mt 
(-1000) s
 243  866 mt  257  866 L
1690  866 mt 1675  866 L
 128  882 mt 
(-500) s
 243  485 mt  257  485 L
1690  485 mt 1675  485 L
 206  501 mt 
(0) s
 243  105 mt  257  105 L
1690  105 mt 1675  105 L
 155  121 mt 
(500) s
 243 1247 mt 1690 1247 L
 243  105 mt 1690  105 L
 243 1247 mt  243  105 L
1690 1247 mt 1690  105 L
gs 243 105 1448 1143 rc
24 -206 24 -1 24 2 24 0 24 -1 25 0 24 -5 24 5 
24 1 24 -83 24 108 24 6 24 -32 24 25 25 -24 24 13 
24 -14 24 1 24 -1 24 5 24 -5 24 1 25 249 24 -246 
24 -4 24 0 24 0 24 -16 24 18 24 -2 24 3 25 -3 
24 0 24 0 24 0 24 0 24 0 24 0 24 8 25 -17 
24 9 24 0 24 0 24 0 24 -485 24 485 24 57 24 -57 
25 0 24 0 24 0 24 0 24 0 24 0 24 7 24 -7 
267 485 57 MP stroke
gr

  73  977 mt  -90 rotate
(Average increase in iterations) s
90 rotate
 530   70 mt 
(Cold VS warm-starting for 5% perturbation) s
6.94444 w
DO
SO
10.4167 w
 243 1247 mt 1690 1247 L
/c8 { 1.000000 0.000000 0.000000 sr} bdef
c8
1690 1247 mt 1690  104 L
0 sg
 243 1247 mt  243 1232 L
 231 1301 mt 
(0) s
 484 1247 mt  484 1232 L
 459 1301 mt 
(10) s
 725 1247 mt  725 1232 L
 700 1301 mt 
(20) s
 966 1247 mt  966 1232 L
 941 1301 mt 
(30) s
1207 1247 mt 1207 1232 L
1182 1301 mt 
(40) s
1448 1247 mt 1448 1232 L
1423 1301 mt 
(50) s
1690 1247 mt 1690 1232 L
1665 1301 mt 
(60) s
c8
1690 1247 mt 1675 1247 L
1702 1263 mt 
(-400) s
1690  866 mt 1675  866 L
1702  882 mt 
(-200) s
1690  485 mt 1675  485 L
1702  501 mt 
(0) s
1690  105 mt 1675  105 L
1702  121 mt 
(200) s
gs 243 105 1448 1143 rc
24 52 24 -74 24 74 24 0 24 0 25 0 24 -196 24 196 
24 13 24 -531 24 657 24 -137 24 -2 24 32 25 -78 24 55 
24 -22 24 7 24 6 24 19 24 -19 24 -10 25 73 24 -61 
24 -2 24 0 24 0 24 13 24 -2 24 -11 24 53 25 -53 
24 0 24 0 24 0 24 0 24 0 24 0 24 32 25 -36 
24 4 24 0 24 4 24 -4 24 25 24 -31 24 -9 24 15 
25 0 24 0 24 0 24 0 24 4 24 -12 24 -25 24 33 
267 485 57 MP stroke
gr

1856  939 mt  -90 rotate
(Increase in horizon length) s
90 rotate

end %%Color Dict

eplot
%%EndObject

epage
end

showpage

%%Trailer
%%EOF
