\relax 
\citation{Kalman}
\citation{primbs}
\citation{CLQR}
\citation{Sznaier}
\citation{Combettes:survey,Boyd:admm,esser}
\citation{Tseng:1991}
\citation{CLQR}
\citation{soc}
\@writefile{toc}{\contentsline {section}{\numberline {I}Introduction}{1}}
\@writefile{toc}{\contentsline {section}{\numberline {II}Problem statement and an operator splitting approach}{2}}
\newlabel{sec:intro}{{II}{2}}
\@writefile{toc}{\contentsline {subsection}{\numberline {\unhbox \voidb@x \hbox {II-A}}Formulation of the problem}{2}}
\newlabel{mpc-initial}{{1}{2}}
\newlabel{as:basic}{{1}{2}}
\citation{Tseng:1991}
\newlabel{mpc-split1}{{2}{3}}
\newlabel{prob:P}{{3}{3}}
\citation{Bruck}
\citation{Passty}
\citation{book_comb}
\@writefile{loa}{\contentsline {algorithm}{\numberline {1}{\ignorespaces AMA for Problem (3\hbox {}).}}{4}}
\newlabel{al:AMA}{{1}{4}}
\newlabel{fnm:1}{{1}{4}}
\newlabel{fnm:2}{{3}{4}}
\@writefile{toc}{\contentsline {section}{\numberline {III}A finite dimensional representation}{4}}
\newlabel{sec:main}{{III}{4}}
\newlabel{alg:mpc-split2:1}{{4}{4}}
\newlabel{alg:mpc-split2:2}{{5}{4}}
\newlabel{alg:mpc-split2:3}{{6}{4}}
\newlabel{eq:MPC_iterate_k}{{7}{5}}
\newlabel{eq:Tk_def}{{8}{5}}
\newlabel{eq:Tk_update}{{9}{5}}
\newlabel{rem:sim}{{3}{5}}
\newlabel{rem:S}{{4}{5}}
\@writefile{loa}{\contentsline {algorithm}{\numberline {2}{\ignorespaces AMA for the constrained LQR}}{6}}
\newlabel{al:AMA_CLQR}{{2}{6}}
\newlabel{fnm:2}{{15}{6}}
\@writefile{toc}{\contentsline {section}{\numberline {IV}Computational aspects}{6}}
\newlabel{sec:lin_sys_solve}{{IV}{6}}
\newlabel{eq:kkt}{{10}{6}}
\citation{cvxbook}
\citation{book_comb}
\citation{Eckstein}
\citation{EE364b}
\citation{esser}
\citation{attouch08}
\citation{svaiter}
\citation{moradifam}
\citation{Tseng:1991}
\citation{fadmm}
\newlabel{rem:efficient_implem}{{5}{7}}
\@writefile{toc}{\contentsline {section}{\numberline {V}Convergence results}{7}}
\newlabel{sec:conv}{{V}{7}}
\@writefile{toc}{\contentsline {subsection}{\numberline {\unhbox \voidb@x \hbox {V-A}}Convergence of Algorithm\nobreakspace  {}2\hbox {}}{7}}
\citation{fadmm}
\newlabel{ours:strong1}{{1}{8}}
\@writefile{toc}{\contentsline {subsection}{\numberline {\unhbox \voidb@x \hbox {V-B}}Boundedness of the sequence $T^k$}{8}}
\newlabel{theor:ours:finiteT}{{2}{8}}
\newlabel{eq:limsupTbounded}{{11}{8}}
\@writefile{toc}{\contentsline {section}{\numberline {VI}Acceleration}{9}}
\newlabel{sec:acceleration}{{VI}{9}}
\@writefile{loa}{\contentsline {algorithm}{\numberline {3}{\ignorespaces FAMA for Problem (3\hbox {}).}}{9}}
\newlabel{al:FAMA}{{3}{9}}
\@writefile{toc}{\contentsline {section}{\numberline {VII}Examples}{9}}
\newlabel{sec:examples}{{VII}{9}}
\@writefile{toc}{\contentsline {subsection}{\numberline {\unhbox \voidb@x \hbox {VII-A}}Two states, one input system}{9}}
\@writefile{lof}{\contentsline {figure}{\numberline {1}{\ignorespaces \relax \fontsize  {10}{12pt}\selectfont  Histogram of $T^{\infty } = \qopname  \relax m{max}_{k}\{T^k\}$ for 862 initial conditions of the 2 state system sampled from a normal distribution centered around $(1,-2)$ with standard deviation 0.5.}}{10}}
\newlabel{fig:HTs_2states}{{1}{10}}
\@writefile{lof}{\contentsline {figure}{\numberline {2}{\ignorespaces \relax \fontsize  {10}{12pt}\selectfont  Number of iterations needed for convergence for 862 instances of the 2 state system using AMA. The mean value of iterations is depicted with the black dashed line.}}{10}}
\newlabel{fig:ITERs_2states_ama}{{2}{10}}
\@writefile{toc}{\contentsline {subsection}{\numberline {\unhbox \voidb@x \hbox {VII-B}}Quadcopter system}{10}}
\citation{adarestart}
\@writefile{lof}{\contentsline {figure}{\numberline {3}{\ignorespaces \relax \fontsize  {10}{12pt}\selectfont  Number of iterations needed for convergence for 862 instances of the 2 state system using FAMA. The mean value of iterations is depicted with the black dashed line.}}{11}}
\newlabel{fig:ITERs_2states_fama}{{3}{11}}
\@writefile{lof}{\contentsline {figure}{\numberline {4}{\ignorespaces \relax \fontsize  {10}{12pt}\selectfont  Histogram of $T^{\infty } = \qopname  \relax m{max}_{k}\{T^k\}$ for 64 initial conditions sampled uniformly around the origin with standard deviation 0.5.}}{11}}
\newlabel{fig:HTs_quad}{{4}{11}}
\citation{EE364b}
\citation{book_comb}
\citation{book_comb}
\@writefile{lof}{\contentsline {figure}{\numberline {5}{\ignorespaces \relax \fontsize  {10}{12pt}\selectfont  Evolution of the sequence $T^k$ defined in\nobreakspace  {}(8\hbox {}).}}{12}}
\newlabel{fig:Tinfconv}{{5}{12}}
\newlabel{def:monotoneop}{{1}{12}}
\newlabel{def:maxmonotoneop}{{2}{12}}
\newlabel{def:boundedoper}{{3}{12}}
\citation{book_comb}
\citation{book_comb}
\citation{book_comb}
\citation{B-H}
\citation{book_comb}
\newlabel{def:adjoint}{{4}{13}}
\newlabel{def:resolvent}{{5}{13}}
\newlabel{def:range_kernel}{{6}{13}}
\newlabel{def:projection}{{7}{13}}
\newlabel{def:weakconv1}{{8}{13}}
\newlabel{def:strongconv}{{9}{13}}
\newlabel{thm:B-H}{{3}{13}}
\newlabel{eq:primal}{{{P}}{13}}
\newlabel{eq:dual}{{{D}}{13}}
\newlabel{theor:FBS_conv}{{4}{14}}
\newlabel{prop:AMA_conv}{{1}{14}}
\newlabel{lem:convAz}{{1}{14}}
\citation{bertsekas03}
\newlabel{app:dual}{{12}{15}}
\newlabel{app:operators}{{13}{15}}
\newlabel{AppB:eq:projectop}{{15}{16}}
\newlabel{AppB:h_conj_formula}{{16}{16}}
\newlabel{opt_cond_ama_z}{{17}{16}}
\newlabel{opt_cond_ama_sigma}{{18}{16}}
\citation{hiriart2010convex}
\newlabel{eq:FBS_iterate}{{19}{17}}
\bibstyle{plain}
\bibdata{ifac_biblio}
\bibcite{attouch08}{{1}{}{{}}{{}}}
\bibcite{B-H}{{2}{}{{}}{{}}}
\bibcite{book_comb}{{3}{}{{}}{{}}}
\bibcite{bertsekas03}{{4}{}{{}}{{}}}
\bibcite{EE364b}{{5}{}{{}}{{}}}
\bibcite{Boyd:admm}{{6}{}{{}}{{}}}
\bibcite{cvxbook}{{7}{}{{}}{{}}}
\bibcite{Bruck}{{8}{}{{}}{{}}}
\newlabel{AppQ:eq:conj1}{{20}{18}}
\@writefile{toc}{\contentsline {section}{\numberline {VIII}Conclusion}{18}}
\bibcite{Combettes:survey}{{9}{}{{}}{{}}}
\bibcite{Eckstein}{{10}{}{{}}{{}}}
\bibcite{esser}{{11}{}{{}}{{}}}
\bibcite{fadmm}{{12}{}{{}}{{}}}
\bibcite{hiriart2010convex}{{13}{}{{}}{{}}}
\bibcite{Kalman}{{14}{}{{}}{{}}}
\bibcite{moradifam}{{15}{}{{}}{{}}}
\bibcite{adarestart}{{16}{}{{}}{{}}}
\bibcite{soc}{{17}{}{{}}{{}}}
\bibcite{Passty}{{18}{}{{}}{{}}}
\bibcite{primbs}{{19}{}{{}}{{}}}
\bibcite{CLQR}{{20}{}{{}}{{}}}
\bibcite{svaiter}{{21}{}{{}}{{}}}
\bibcite{Sznaier}{{22}{}{{}}{{}}}
\bibcite{Tseng:1991}{{23}{}{{}}{{}}}
\providecommand\NAT@force@numbers{}\NAT@force@numbers
